dropbox_file_name	len_dropbox	len_tcp	dropbox_id	dropbox_orig	dropbox_text	tcp_locations	tcp_text	dropbox_before_id	dropbox_after_id	tcp_locations_before	tcp_locations_after	path_to_dropbox_file	error_type
A21368	1	1	A21368-010-b-0200		y	10-b-16	y●	A21368-010-b-0190	A21368-010-b-0230	10-b-15	10-b-17	/home/spenteco/0/eebotcp/texts/A21/A21368.xml	BLACK DOT MISSING IN AM
A21368	1	1	A21368-024-a-1870		y	24-a-171	y●	A21368-024-a-1860	A21368-024-a-1890	24-a-170	24-a-172	/home/spenteco/0/eebotcp/texts/A21/A21368.xml	BLACK DOT MISSING IN AM
B08430	1	1	B08430-023-b-0240			23-b-18	●§.	B08430-023-b-0220	B08430-023-b-0250	23-b-17	23-b-19	/home/spenteco/0/eebotcp/texts/B08/B08430.xml	BLACK DOT MISSING IN AM
A45929	2	2	A45929-001-a-1380 A45929-001-a-1400	 	Comptrol Gen	1-a-118 1-a-119	Comptrol●● Gen●●	A45929-001-a-1370	A45929-001-a-1420	1-a-117	1-a-120	/home/spenteco/0/eebotcp/texts/A45/A45929.xml	BLACK DOT MISSING IN AM
A45929	1	1	A45929-001-a-2690		Gen	1-a-227	Gen●●	A45929-001-a-2670	A45929-001-a-2710	1-a-226	1-a-228	/home/spenteco/0/eebotcp/texts/A45/A45929.xml	BLACK DOT MISSING IN AM
A45929	1	1	A45929-001-a-2720		Cash	1-a-229	Cash●	A45929-001-a-2710	A45929-001-a-2740	1-a-228	1-a-230	/home/spenteco/0/eebotcp/texts/A45/A45929.xml	BLACK DOT MISSING IN AM
A21024	1	1	A21024-099-b-1680 A21024-099-b-1700			99-b-143	v●.	A21024-099-b-1670	A21024-099-b-1710	99-b-142	99-b-144	/home/spenteco/0/eebotcp/texts/A21/A21024.xml	BLACK DOT MISSING IN AM
B25932	1	1	B25932-023-a-06840		ledgex	23-a-587	●ledgex	B25932-023-a-06830	B25932-023-a-06850 B25932-023-a-06860	23-a-586	23-a-588	/home/spenteco/0/eebotcp/texts/B25/B25932.xml	BLACK DOT MISSING IN AM
B13675	1	1	B13675-023-a-0940 B13675-023-a-0950			23-a-75	S●.	B13675-023-a-0930	B13675-023-a-0960	23-a-74	23-a-76	/home/spenteco/0/eebotcp/texts/B13/B13675.xml	BLACK DOT MISSING IN AM
