dropbox_file_name	len_dropbox	len_tcp	dropbox_id	dropbox_orig	dropbox_text	tcp_locations	tcp_text	dropbox_before_id	dropbox_after_id	tcp_locations_before	tcp_locations_after	path_to_dropbox_file	error_type
B05653	1	4	B05653-002-b-9530		〈…〉	2-b-80 2-b-81 2-b-82 2-b-83	〈1 span left blank〉	B05653-002-b-9520	B05653-002-b-9540	2-b-79	2-b-84	/home/spenteco/0/eebotcp/texts/B05/B05653.xml	HORIZONTAL ELLIPSES ADDED TO AM (GAP?)
B15432	1	4	B15432-001-b-0190		〈…〉	1-b-15 1-b-16 1-b-17 1-b-18	〈1 span left blank〉	B15432-001-b-0180	B15432-001-b-0200	1-b-14	1-b-19	/home/spenteco/0/eebotcp/texts/B15/B15432.xml	HORIZONTAL ELLIPSES ADDED TO AM (GAP?)
B28431	1	4	B28431-001-a-7430		〈…〉	1-a-625 1-a-626 1-a-627 1-a-628	〈1 span left blank〉	B28431-001-a-7420	B28431-001-a-7440	1-a-624	1-a-629	/home/spenteco/0/eebotcp/texts/B28/B28431.xml	HORIZONTAL ELLIPSES ADDED TO AM (GAP?)
B28431	1	4	B28431-001-a-7910		〈…〉	1-a-668 1-a-669 1-a-670 1-a-671	〈1 span left blank〉	B28431-001-a-7900	B28431-001-a-7920	1-a-667	1-a-672	/home/spenteco/0/eebotcp/texts/B28/B28431.xml	HORIZONTAL ELLIPSES ADDED TO AM (GAP?)
B28431	1	4	B28431-001-a-10380		〈…〉	1-a-872 1-a-873 1-a-874 1-a-875	〈1 span left blank〉	B28431-001-a-10370	B28431-001-a-10390	1-a-871	1-a-876	/home/spenteco/0/eebotcp/texts/B28/B28431.xml	HORIZONTAL ELLIPSES ADDED TO AM (GAP?)
A48257	3	1	A48257-009-b-1570 A48257-009-b-1590 A48257-009-b-1591	  	●… I l'd	9-b-113	●…il'd	A48257-009-b-1560	A48257-009-b-1600 A48257-009-b-1610	9-b-112	9-b-114	/home/spenteco/0/eebotcp/texts/A48/A48257.xml	HORIZONTAL ELLIPSES ADDED TO AM (GAP?)
A48257	3	1	A48257-019-b-2660 A48257-019-b-2680 A48257-019-b-2681	  	●… I de	19-b-186	●…ide	A48257-019-b-2650	A48257-019-b-2690	19-b-185	19-b-187	/home/spenteco/0/eebotcp/texts/A48/A48257.xml	HORIZONTAL ELLIPSES ADDED TO AM (GAP?)
A48257	4	2	A48257-030-b-0440 A48257-030-b-0441 A48257-030-b-0450 A48257-030-b-0470	   	it is Ad●… antages	30-b-32 30-b-33	its Ad●…antages	A48257-030-b-0430	A48257-030-b-0480	30-b-31	30-b-34	/home/spenteco/0/eebotcp/texts/A48/A48257.xml	HORIZONTAL ELLIPSES ADDED TO AM (GAP?)
A92695	1	4	A92695-001-a-0540		〈…〉	1-a-50 1-a-51 1-a-52 1-a-53	〈1 span left blank〉	A92695-001-a-0520 A92695-001-a-0530	A92695-001-a-0550	1-a-49	1-a-54	/home/spenteco/0/eebotcp/texts/A92/A92695.xml	HORIZONTAL ELLIPSES ADDED TO AM (GAP?)
A90559	4	2	A90559-003-a-1110 A90559-003-a-1130 A90559-003-a-1140 A90559-003-a-1150	   	〈◇〉 e 〈…〉 en●ly	3-a-93 3-a-94	〈◊〉 e〈…〉en●ly	A90559-003-a-1090	A90559-003-a-1160	3-a-92	3-a-95	/home/spenteco/0/eebotcp/texts/A90/A90559.xml	HORIZONTAL ELLIPSES ADDED TO AM (GAP?)
B05181	1	4	B05181-004-a-4030		〈…〉	4-a-348 4-a-349 4-a-350 4-a-351	〈1 span left blank〉	B05181-004-a-4020	B05181-004-a-4040	4-a-347	4-a-352	/home/spenteco/0/eebotcp/texts/B05/B05181.xml	HORIZONTAL ELLIPSES ADDED TO AM (GAP?)
B05181	1	4	B05181-004-b-0600		〈…〉	4-b-52 4-b-53 4-b-54 4-b-55	〈1 span left blank〉	B05181-004-b-0580 B05181-004-b-0590	B05181-004-b-0610 B05181-004-b-0620	4-b-51	4-b-56	/home/spenteco/0/eebotcp/texts/B05/B05181.xml	HORIZONTAL ELLIPSES ADDED TO AM (GAP?)
B05181	1	4	B05181-004-b-1240		〈…〉	4-b-107 4-b-108 4-b-109 4-b-110	〈1 span left blank〉	B05181-004-b-1220 B05181-004-b-1230	B05181-004-b-1250	4-b-106	4-b-111	/home/spenteco/0/eebotcp/texts/B05/B05181.xml	HORIZONTAL ELLIPSES ADDED TO AM (GAP?)
B09596	1	4	B09596-001-a-0950		〈…〉	1-a-87 1-a-88 1-a-89 1-a-90	〈1 span left blank〉	B09596-001-a-0940	B09596-001-a-0960	1-a-86	1-a-91	/home/spenteco/0/eebotcp/texts/B09/B09596.xml	HORIZONTAL ELLIPSES ADDED TO AM (GAP?)
B26461	2	1	B26461-014-a-2820 B26461-014-a-2830 B26461-014-a-2850			14-a-237	God?〈…〉	B26461-014-a-2810	B26461-014-a-2860	14-a-236	14-a-238	/home/spenteco/0/eebotcp/texts/B26/B26461.xml	HORIZONTAL ELLIPSES ADDED TO AM (GAP?)
B26461	1	1	B26461-014-a-3150		●…livering	14-a-262	the●…livering	B26461-014-a-3120	B26461-014-a-3160	14-a-261	14-a-263	/home/spenteco/0/eebotcp/texts/B26/B26461.xml	HORIZONTAL ELLIPSES ADDED TO AM (GAP?)
B05495	1	4	B05495-002-a-0570		〈…〉	2-a-36 2-a-37 2-a-38 2-a-39	〈1 span left blank〉	B05495-002-a-0550 B05495-002-a-0560	B05495-002-a-0580	2-a-35	2-a-40	/home/spenteco/0/eebotcp/texts/B05/B05495.xml	HORIZONTAL ELLIPSES ADDED TO AM (GAP?)
A56559	3	2	A56559-016-b-1560 A56559-016-b-1570 A56559-016-b-1590	  	Obe 〈…〉 〈◇〉	16-b-135 16-b-136	Obe〈…〉 〈◊〉	A56559-016-b-1550	A56559-016-b-1610	16-b-134	16-b-137	/home/spenteco/0/eebotcp/texts/A56/A56559.xml	HORIZONTAL ELLIPSES ADDED TO AM (GAP?)
A45017	3	2	A45017-004-b-4500 A45017-004-b-4520 A45017-004-b-4530 A45017-004-b-4550 A45017-004-b-4560		●…	4-b-393 4-b-394	〈◊〉, ●…inst,	A45017-004-b-4480	A45017-004-b-4570 A45017-004-b-4580	4-b-392	4-b-395	/home/spenteco/0/eebotcp/texts/A45/A45017.xml	HORIZONTAL ELLIPSES ADDED TO AM (GAP?)
A21694	3	2	A21694-001-a-2770 A21694-001-a-2790 A21694-001-a-2810 A21694-001-a-2820	 	〈◇〉 ●…	1-a-241 1-a-242	〈◊〉 ●…ney,	A21694-001-a-2750	A21694-001-a-2830	1-a-240	1-a-243	/home/spenteco/0/eebotcp/texts/A21/A21694.xml	HORIZONTAL ELLIPSES ADDED TO AM (GAP?)
A58964	12	1	A58964-011-b-12150 A58964-011-b-12160 A58964-011-b-12170 A58964-011-b-12180 A58964-011-b-12190 A58964-011-b-12200 A58964-011-b-12210 A58964-011-b-12220 A58964-011-b-12230 A58964-011-b-12240 A58964-011-b-12250 A58964-011-b-12260 A58964-011-b-12280	          	I am your in any thing of this Nature ●… rom	11-b-227	●…rom	A58964-011-b-12130 A58964-011-b-12140	A58964-011-b-12290	11-b-226	11-b-228	/home/spenteco/0/eebotcp/texts/A58/A58964.xml	HORIZONTAL ELLIPSES ADDED TO AM (GAP?)
B09202	3	2	B09202-016-b-1100 B09202-016-b-1110 B09202-016-b-1120	IESƲS  	IESUS ●… HRIST	16-b-83 16-b-84	IESVS ●…HRIST	B09202-016-b-1080 B09202-016-b-1090	B09202-016-b-1130	16-b-82	16-b-85	/home/spenteco/0/eebotcp/texts/B09/B09202.xml	HORIZONTAL ELLIPSES ADDED TO AM (GAP?)
B09202	3	1	B09202-016-b-1880 B09202-016-b-1890 B09202-016-b-1891	  	●… I de	16-b-137	●…lde	B09202-016-b-1870	B09202-016-b-1900	16-b-136	16-b-138	/home/spenteco/0/eebotcp/texts/B09/B09202.xml	HORIZONTAL ELLIPSES ADDED TO AM (GAP?)
B09202	2	1	B09202-037-a-0300 B09202-037-a-0310 B09202-037-a-0330		〈◇〉	37-a-27	〈◊〉●…fest,	B09202-037-a-0290	B09202-037-a-0340	37-a-26	37-a-28	/home/spenteco/0/eebotcp/texts/B09/B09202.xml	HORIZONTAL ELLIPSES ADDED TO AM (GAP?)
B09202	3	1	B09202-057-b-0210 B09202-057-b-0220 B09202-057-b-0221	  	●… I de	57-b-17	●…lde	B09202-057-b-0200	B09202-057-b-0230 B09202-057-b-0240	57-b-16	57-b-18	/home/spenteco/0/eebotcp/texts/B09/B09202.xml	HORIZONTAL ELLIPSES ADDED TO AM (GAP?)
A21464	1	4	A21464-002-a-1100		〈…〉	2-a-102 2-a-103 2-a-104 2-a-105	〈1 span left blank〉	A21464-002-a-1090	A21464-002-a-1110 A21464-002-a-1120	2-a-101	2-a-106	/home/spenteco/0/eebotcp/texts/A21/A21464.xml	HORIZONTAL ELLIPSES ADDED TO AM (GAP?)
A21464	1	4	A21464-002-a-1950		〈…〉	2-a-180 2-a-181 2-a-182 2-a-183	〈1 span left blank〉	A21464-002-a-1940	A21464-002-a-1960	2-a-179	2-a-184	/home/spenteco/0/eebotcp/texts/A21/A21464.xml	HORIZONTAL ELLIPSES ADDED TO AM (GAP?)
A21464	1	4	A21464-003-a-8780		〈…〉	3-a-819 3-a-820 3-a-821 3-a-822	〈1 span left blank〉	A21464-003-a-8770	A21464-003-a-8790	3-a-818	3-a-823	/home/spenteco/0/eebotcp/texts/A21/A21464.xml	HORIZONTAL ELLIPSES ADDED TO AM (GAP?)
A89675	2	2	A89675-005-b-1010 A89675-005-b-1030	 	Riden●… s	5-b-85 5-b-86	* Riden●…s	A89675-005-b-0990 A89675-005-b-1000	A89675-005-b-1040	5-b-84	5-b-87	/home/spenteco/0/eebotcp/texts/A89/A89675.xml	HORIZONTAL ELLIPSES ADDED TO AM (GAP?)
A89675	5	7	id-missing A89675-027-a-0320 A89675-027-a-0330 A89675-027-a-0350 A89675-027-a-0360 A89675-027-a-0380 A89675-027-a-0390	  	De●… or d●…	27-a-22 27-a-23 27-a-24 27-a-25 27-a-26 27-a-27 27-a-28	〈◊〉 〈◊〉 〈◊〉 〈◊〉 〈◊〉, De●…or d●…is,	A89675-027-a-0250 A89675-027-a-0260	A89675-027-a-0400	27-a-21	27-a-29	/home/spenteco/0/eebotcp/texts/A89/A89675.xml	HORIZONTAL ELLIPSES ADDED TO AM (GAP?)
B14568	1	4	B14568-002-b-04800		〈…〉	2-b-421 2-b-422 2-b-423 2-b-424	〈1 span left blank〉	B14568-002-b-04790	B14568-002-b-04810	2-b-420	2-b-425	/home/spenteco/0/eebotcp/texts/B14/B14568.xml	HORIZONTAL ELLIPSES ADDED TO AM (GAP?)
B14568	1	4	B14568-002-b-07530		〈…〉	2-b-671 2-b-672 2-b-673 2-b-674	〈1 span left blank〉	B14568-002-b-07520	B14568-002-b-07540	2-b-670	2-b-675	/home/spenteco/0/eebotcp/texts/B14/B14568.xml	HORIZONTAL ELLIPSES ADDED TO AM (GAP?)
B24104	2	8	B24104-008-a-0350 B24104-008-a-0370	 	●… ch	8-a-29 8-a-30 8-a-31 8-a-32 8-a-33 8-a-34 8-a-35 8-a-36	depiction of effect of pipe-playing: general capering ●…ch	B24104-008-a-0330 B24104-008-a-0340	B24104-008-a-0380	8-a-28	8-a-37	/home/spenteco/0/eebotcp/texts/B24/B24104.xml	HORIZONTAL ELLIPSES ADDED TO AM (GAP?)
A00866	3	2	A00866-038-b-1620 A00866-038-b-1630 A00866-038-b-1640	  	〈…〉 o fin{is}	38-b-132 38-b-133	〈…〉o finꝭ	A00866-038-b-1610	A00866-038-b-1650	38-b-131	38-b-134	/home/spenteco/0/eebotcp/texts/A00/A00866.xml	HORIZONTAL ELLIPSES ADDED TO AM (GAP?)
A00866	2	1	A00866-040-a-0190 A00866-040-a-0210 A00866-040-a-0230		patentes	40-a-17	pa〈…〉tentes.	A00866-040-a-0180	A00866-040-a-0240	40-a-16	40-a-18	/home/spenteco/0/eebotcp/texts/A00/A00866.xml	HORIZONTAL ELLIPSES ADDED TO AM (GAP?)
A00866	3	2	A00866-040-a-1310 A00866-040-a-1320 A00866-040-a-1330 A00866-040-a-1340	 	an 〈…〉	40-a-104 40-a-105	an〈…〉 rentꝭ,	A00866-040-a-1300	A00866-040-a-1350	40-a-103	40-a-106	/home/spenteco/0/eebotcp/texts/A00/A00866.xml	HORIZONTAL ELLIPSES ADDED TO AM (GAP?)
B25642	1	1	B25642-004-b-6650		●…ue	4-b-584	…ue	B25642-004-b-6640	B25642-005-a-0010	4-b-583	5-a-0	/home/spenteco/0/eebotcp/texts/B25/B25642.xml	HORIZONTAL ELLIPSES ADDED TO AM (GAP?)
B09977	1	4	B09977-001-a-0400		〈…〉	1-a-60 1-a-61 1-a-62 1-a-63	〈1 span left blank〉	B09977-001-a-0390	B09977-001-a-0410	1-a-59	1-a-64	/home/spenteco/0/eebotcp/texts/B09/B09977.xml	HORIZONTAL ELLIPSES ADDED TO AM (GAP?)
B43933	1	4	B43933-002-a-0580		〈…〉	2-a-53 2-a-54 2-a-55 2-a-56	〈1 span left blank〉	B43933-002-a-0570	B43933-002-a-0590 B43933-002-a-0600	2-a-52	2-a-57	/home/spenteco/0/eebotcp/texts/B43/B43933.xml	HORIZONTAL ELLIPSES ADDED TO AM (GAP?)
B09970	1	4	B09970-001-a-0510		〈…〉	1-a-47 1-a-48 1-a-49 1-a-50	〈1 span left blank〉	B09970-001-a-0490 B09970-001-a-0500	B09970-001-a-0520 B09970-001-a-0530	1-a-46	1-a-51	/home/spenteco/0/eebotcp/texts/B09/B09970.xml	HORIZONTAL ELLIPSES ADDED TO AM (GAP?)
B43437	2	1	B43437-001-b-06120 B43437-001-b-06130	 	Ir〈…〉 〈…〉ed	1-b-509	Ir〈…〉ed	B43437-001-b-06100 B43437-001-b-06110	B43437-001-b-06160	1-b-508	1-b-510	/home/spenteco/0/eebotcp/texts/B43/B43437.xml	HORIZONTAL ELLIPSES ADDED TO AM (GAP?)
B43437	2	1	B43437-001-b-06980 B43437-001-b-06990	 	sa〈…〉 〈…〉don	1-b-581	sa〈…〉don	B43437-001-b-06970	B43437-001-b-07020	1-b-580	1-b-582	/home/spenteco/0/eebotcp/texts/B43/B43437.xml	HORIZONTAL ELLIPSES ADDED TO AM (GAP?)
A44919	3	2	A44919-049-b-1150 A44919-049-b-1170 A44919-049-b-1180 A44919-049-b-1190 A44919-049-b-1200		inform●…	49-b-84 49-b-85	inform●…d. Vse.	A44919-049-b-1140	A44919-049-b-1210	49-b-83	49-b-86	/home/spenteco/0/eebotcp/texts/A44/A44919.xml	HORIZONTAL ELLIPSES ADDED TO AM (GAP?)
B29036	1	4	B29036-001-a-1170		〈…〉	1-a-106 1-a-107 1-a-108 1-a-109	〈1 span left blank〉	B29036-001-a-1160	B29036-001-a-1180	1-a-105	1-a-110	/home/spenteco/0/eebotcp/texts/B29/B29036.xml	HORIZONTAL ELLIPSES ADDED TO AM (GAP?)
B29036	1	4	B29036-001-a-1190		〈…〉	1-a-111 1-a-112 1-a-113 1-a-114	〈1 span left blank〉	B29036-001-a-1180	B29036-001-a-1200	1-a-110	1-a-115	/home/spenteco/0/eebotcp/texts/B29/B29036.xml	HORIZONTAL ELLIPSES ADDED TO AM (GAP?)
B29036	1	4	B29036-001-a-1920		〈…〉	1-a-178 1-a-179 1-a-180 1-a-181	〈1 span left blank〉	B29036-001-a-1910	B29036-001-a-1930	1-a-177	1-a-182	/home/spenteco/0/eebotcp/texts/B29/B29036.xml	HORIZONTAL ELLIPSES ADDED TO AM (GAP?)
B11254	2	1	B11254-049-a-0880 B11254-049-a-0900 B11254-049-a-0910		●…	49-a-78	●…quuntur.	B11254-049-a-0870	B11254-049-a-0920	49-a-77	49-a-79	/home/spenteco/0/eebotcp/texts/B11/B11254.xml	HORIZONTAL ELLIPSES ADDED TO AM (GAP?)
B11254	5	3	B11254-072-a-1140 B11254-072-a-1160 B11254-072-a-1170 B11254-072-a-1180 B11254-072-a-1190 B11254-072-a-1210	   	ali●… uid ●… ue	72-a-99 72-a-100 72-a-101	ali●…uid operetur: ●…ue	B11254-072-a-1130	B11254-072-a-1220	72-a-98	72-a-102	/home/spenteco/0/eebotcp/texts/B11/B11254.xml	HORIZONTAL ELLIPSES ADDED TO AM (GAP?)
B11254	2	1	B11254-072-a-1230 B11254-072-a-1250 B11254-072-a-1260		in●…	72-a-103	in●…uatur:	B11254-072-a-1220	B11254-072-a-1270	72-a-102	72-a-104	/home/spenteco/0/eebotcp/texts/B11/B11254.xml	HORIZONTAL ELLIPSES ADDED TO AM (GAP?)
B11254	3	2	B11254-074-a-2480 B11254-074-a-2500 B11254-074-a-2510	  	sta●… u monacho{rum}	74-a-224 74-a-225	sta●…u monachorum	B11254-074-a-2470	B11254-074-a-2520 B11254-074-a-2530	74-a-223	74-a-226	/home/spenteco/0/eebotcp/texts/B11/B11254.xml	HORIZONTAL ELLIPSES ADDED TO AM (GAP?)
B11254	5	4	B11254-080-a-0600 B11254-080-a-0610 B11254-080-a-0630 B11254-080-a-0640 B11254-080-a-0650 B11254-080-a-0660	   	{quam} ●… min{us} {quam}	80-a-46 80-a-47 80-a-48 80-a-49	quam ●…res. minꝰ quam	B11254-080-a-0590	B11254-080-a-0670	80-a-45	80-a-50	/home/spenteco/0/eebotcp/texts/B11/B11254.xml	HORIZONTAL ELLIPSES ADDED TO AM (GAP?)
B11254	2	1	B11254-093-a-0100 B11254-093-a-0120	 	ad●… unt{ur}	93-a-6	ad●…untur	B11254-093-a-0090	B11254-093-a-0130	93-a-5	93-a-7	/home/spenteco/0/eebotcp/texts/B11/B11254.xml	HORIZONTAL ELLIPSES ADDED TO AM (GAP?)
B11254	2	1	B11254-093-a-0590 B11254-093-a-0610	 	{pro}po●… o	93-a-32	ꝓpo●…o	B11254-093-a-0580	B11254-093-a-0620 B11254-093-a-0630	93-a-31	93-a-33	/home/spenteco/0/eebotcp/texts/B11/B11254.xml	HORIZONTAL ELLIPSES ADDED TO AM (GAP?)
B11254	2	1	B11254-093-a-0710 B11254-093-a-0730	 	mu●… rib{us}	93-a-39	mu●…ribꝰ	B11254-093-a-0700	B11254-093-a-0740	93-a-38	93-a-40	/home/spenteco/0/eebotcp/texts/B11/B11254.xml	HORIZONTAL ELLIPSES ADDED TO AM (GAP?)
B11254	3	2	B11254-102-b-2680 B11254-102-b-2750 B11254-102-b-2760 B11254-102-b-2770		●…	102-b-240 102-b-241	of●…rytual●…auty. &●…	B11254-102-b-2640	B11254-102-b-2800	102-b-239	102-b-242	/home/spenteco/0/eebotcp/texts/B11/B11254.xml	HORIZONTAL ELLIPSES ADDED TO AM (GAP?)
A53768	4	3	A53768-002-a-0480 A53768-002-a-0490 A53768-002-a-0510 A53768-002-a-0540	   	Forr●igne 〈…〉 〈◇〉 〈◇〉	2-a-38 2-a-39 2-a-40	Forr●igne〈…〉 〈◊〉 〈◊〉	A53768-002-a-0470	A53768-002-a-0560	2-a-37	2-a-41	/home/spenteco/0/eebotcp/texts/A53/A53768.xml	HORIZONTAL ELLIPSES ADDED TO AM (GAP?)
A48356	10	5	A48356-029-b-0090 A48356-029-b-0110 A48356-029-b-0130 A48356-029-b-0150 A48356-029-b-0170 A48356-029-b-0190 A48356-029-b-0200 A48356-029-b-0220 A48356-029-b-0230 A48356-029-b-0250	         	●… n●… ut 〈◇〉 ●… ted ●… e ●… e	29-b-2 29-b-3 29-b-4 29-b-5 29-b-6	●…n●…ut 〈◊〉 ●…ted ●…e ●…e	A48356-029-b-0070	A48356-029-b-0260	29-b-1	29-b-7	/home/spenteco/0/eebotcp/texts/A48/A48356.xml	HORIZONTAL ELLIPSES ADDED TO AM (GAP?)
B05660	1	4	B05660-003-a-9460		〈…〉	3-a-72 3-a-73 3-a-74 3-a-75	〈1 span left blank〉	B05660-003-a-9450	B05660-003-a-9470	3-a-71	3-a-76	/home/spenteco/0/eebotcp/texts/B05/B05660.xml	HORIZONTAL ELLIPSES ADDED TO AM (GAP?)
A21487	3	2	A21487-001-a-0120 A21487-001-a-0140 A21487-001-a-0160	  	〈◇〉 ●●●●… ngs	1-a-9 1-a-10	〈◊…〉 ●●●●…ngs	A21487-001-a-0100	A21487-001-a-0170	1-a-8	1-a-11	/home/spenteco/0/eebotcp/texts/A21/A21487.xml	HORIZONTAL ELLIPSES ADDED TO AM (GAP?)
A62190	4	2	A62190-062-b-3580 A62190-062-b-3600 A62190-062-b-3610 A62190-062-b-3611	   	●… o it is	62-b-268 62-b-269	●…o its	A62190-062-b-3570	A62190-062-b-3620	62-b-267	62-b-270	/home/spenteco/0/eebotcp/texts/A62/A62190.xml	HORIZONTAL ELLIPSES ADDED TO AM (GAP?)
B24275	2	7	B24275-001-a-0590 B24275-001-a-0610	 	●… rinted	1-a-48 1-a-49 1-a-50 1-a-51 1-a-52 1-a-53 1-a-54	woodcut of man kneeling before gentlewoman ●…rinted	B24275-001-a-0570	B24275-001-a-0620	1-a-47	1-a-55	/home/spenteco/0/eebotcp/texts/B24/B24275.xml	HORIZONTAL ELLIPSES ADDED TO AM (GAP?)
B09972	1	4	B09972-001-a-0470		〈…〉	1-a-44 1-a-45 1-a-46 1-a-47	〈1 span left blank〉	B09972-001-a-0460	B09972-001-a-0480	1-a-43	1-a-48	/home/spenteco/0/eebotcp/texts/B09/B09972.xml	HORIZONTAL ELLIPSES ADDED TO AM (GAP?)
B00104	3	6	B00104-020-a-0780 B00104-020-a-0790 B00104-020-a-0800 id-missing		〈…〉	20-a-70 20-a-71 20-a-72 20-a-73 20-a-74 20-a-75	Now,〈…〉 〈◊〉 〈◊〉 〈◊〉 〈◊〉 〈◊〉	B00104-020-a-0760 B00104-020-a-0770	B00104-020-a-0810	20-a-69	20-a-76	/home/spenteco/0/eebotcp/texts/B00/B00104.xml	HORIZONTAL ELLIPSES ADDED TO AM (GAP?)
A21442	3	2	A21442-013-a-0670 A21442-013-a-0680 A21442-013-a-0690	  	〈◇〉 a●… t	13-a-58 13-a-59	〈◊〉 a●…t	A21442-013-a-0660	A21442-013-a-0700	13-a-57	13-a-60	/home/spenteco/0/eebotcp/texts/A21/A21442.xml	HORIZONTAL ELLIPSES ADDED TO AM (GAP?)
A21442	2	1	A21442-015-a-0810 A21442-015-a-0820	 	〈◇〉 ●…	15-a-69	〈◊〉●…	A21442-015-a-0800	A21442-015-a-0830	15-a-68	15-a-70	/home/spenteco/0/eebotcp/texts/A21/A21442.xml	HORIZONTAL ELLIPSES ADDED TO AM (GAP?)
A21442	3	2	A21442-025-a-0500 A21442-025-a-0510 A21442-025-a-0520 A21442-025-a-0530	 	〈◇〉 pre●…	25-a-46 25-a-47	〈◊〉 pre●…acie,	A21442-025-a-0490	A21442-025-a-0540	25-a-45	25-a-48	/home/spenteco/0/eebotcp/texts/A21/A21442.xml	HORIZONTAL ELLIPSES ADDED TO AM (GAP?)
B05735	1	4	B05735-001-a-0530		〈…〉	1-a-46 1-a-47 1-a-48 1-a-49	〈1 span left blank〉	B05735-001-a-0520	B05735-001-a-0540 B05735-001-a-0550	1-a-45	1-a-50	/home/spenteco/0/eebotcp/texts/B05/B05735.xml	HORIZONTAL ELLIPSES ADDED TO AM (GAP?)
A50114	1	1	A50114-011-a-1160	Ʋnio●…	Unio●…	11-a-89	Vnio●…	A50114-011-a-1150	A50114-011-a-1180	11-a-88	11-a-90	/home/spenteco/0/eebotcp/texts/A50/A50114.xml	HORIZONTAL ELLIPSES ADDED TO AM (GAP?)
A50114	2	1	A50114-013-a-2570 A50114-013-a-2580	Ʋnion 	Union 〈…〉	13-a-195	Vnion〈…〉	A50114-013-a-2560	A50114-013-b-0010	13-a-194	13-b-0	/home/spenteco/0/eebotcp/texts/A50/A50114.xml	HORIZONTAL ELLIPSES ADDED TO AM (GAP?)
A50114	1	1	A50114-018-a-1120	Ʋnion●…	Union●…	18-a-85	Vnion●…	A50114-018-a-1110	A50114-018-a-1140	18-a-84	18-a-86	/home/spenteco/0/eebotcp/texts/A50/A50114.xml	HORIZONTAL ELLIPSES ADDED TO AM (GAP?)
A50114	3	2	A50114-019-b-1090 A50114-019-b-1100 A50114-019-b-1120	Ʋnion  	Union be●… ween	19-b-77 19-b-78	Vnion be●…ween	A50114-019-b-1080	A50114-019-b-1130	19-b-76	19-b-79	/home/spenteco/0/eebotcp/texts/A50/A50114.xml	HORIZONTAL ELLIPSES ADDED TO AM (GAP?)
A50114	1	1	A50114-030-a-2370	Ʋnitatis●…	Unitatis●…	30-a-181	Vnitatis●…	A50114-030-a-2360	A50114-030-a-2390	30-a-180	30-a-182	/home/spenteco/0/eebotcp/texts/A50/A50114.xml	HORIZONTAL ELLIPSES ADDED TO AM (GAP?)
A46095	2	1	A46095-009-a-02250 A46095-009-a-02260 A46095-009-a-02270		for	9-a-194	sor〈…〉.	A46095-009-a-02240	A46095-009-a-02280	9-a-193	9-a-195	/home/spenteco/0/eebotcp/texts/A46/A46095.xml	HORIZONTAL ELLIPSES ADDED TO AM (GAP?)
B27106	4	2	B27106-082-b-2120 B27106-082-b-2130 B27106-082-b-2140 B27106-082-b-2150 B27106-082-b-2170	  	w ●… ho	82-b-144 82-b-145	W—, ●…ho	B27106-082-b-2110	B27106-082-b-2180	82-b-143	82-b-146	/home/spenteco/0/eebotcp/texts/B27/B27106.xml	HORIZONTAL ELLIPSES ADDED TO AM (GAP?)
B22945	3	2	B22945-001-a-2300 B22945-001-a-2320 B22945-001-a-2330 B22945-001-a-2350 B22945-001-a-2360		●…	1-a-183 1-a-184	〈◊〉. ●…n,	B22945-001-a-2280	B22945-001-a-2370	1-a-182	1-a-185	/home/spenteco/0/eebotcp/texts/B22/B22945.xml	HORIZONTAL ELLIPSES ADDED TO AM (GAP?)
A21322	3	2	A21322-101-a-1170 A21322-101-a-1190 A21322-101-a-1200	  	〈◇〉 〈…〉 ion	101-a-103 101-a-104	〈◊〉 〈…〉ion	A21322-101-a-1150	A21322-101-a-1210	101-a-102	101-a-105	/home/spenteco/0/eebotcp/texts/A21/A21322.xml	HORIZONTAL ELLIPSES ADDED TO AM (GAP?)
B25970	3	2	B25970-049-b-1540 B25970-049-b-1550 B25970-049-b-1570	  	Ser 〈…〉 〈◇〉	49-b-133 49-b-134	Ser〈…〉 〈◊〉	B25970-049-b-1530	B25970-049-b-1590	49-b-132	49-b-135	/home/spenteco/0/eebotcp/texts/B25/B25970.xml	HORIZONTAL ELLIPSES ADDED TO AM (GAP?)
A86840	3	2	A86840-004-b-1250 A86840-004-b-1270 A86840-004-b-1290	  	〈◇〉 ●… ies	4-b-103 4-b-104	〈◊〉 ●…ies	A86840-004-b-1230	A86840-004-b-1300 A86840-004-b-1310	4-b-102	4-b-105	/home/spenteco/0/eebotcp/texts/A86/A86840.xml	HORIZONTAL ELLIPSES ADDED TO AM (GAP?)
A55875	6	3	A55875-030-a-2910 A55875-030-a-2930 A55875-030-a-2950 A55875-030-a-2960 A55875-030-a-2980 A55875-030-a-3000	     	〈◇〉 ●… llion ●… onsiliari●… s	30-a-232 30-a-233 30-a-234	〈◊〉 ●…llion ●…onsiliari●…s	A55875-030-a-2880 A55875-030-a-2890	A55875-030-a-3010 A55875-030-a-3020	30-a-231	30-a-235	/home/spenteco/0/eebotcp/texts/A55/A55875.xml	HORIZONTAL ELLIPSES ADDED TO AM (GAP?)
B21815	1	4	B21815-001-a-1970		〈…〉	1-a-154 1-a-155 1-a-156 1-a-157	〈1 span left blank〉	B21815-001-a-1960	B21815-001-a-1980	1-a-153	1-a-158	/home/spenteco/0/eebotcp/texts/B21/B21815.xml	HORIZONTAL ELLIPSES ADDED TO AM (GAP?)
B21815	1	4	B21815-001-a-2160		〈…〉	1-a-175 1-a-176 1-a-177 1-a-178	〈1 span left blank〉	B21815-001-a-2150	B21815-001-a-2170	1-a-174	1-a-179	/home/spenteco/0/eebotcp/texts/B21/B21815.xml	HORIZONTAL ELLIPSES ADDED TO AM (GAP?)
B21815	1	4	B21815-001-a-3070		〈…〉	1-a-254 1-a-255 1-a-256 1-a-257	〈1 span left blank〉	B21815-001-a-3060	B21815-001-a-3080	1-a-253	1-a-258	/home/spenteco/0/eebotcp/texts/B21/B21815.xml	HORIZONTAL ELLIPSES ADDED TO AM (GAP?)
B21815	1	4	B21815-001-a-4670		〈…〉	1-a-386 1-a-387 1-a-388 1-a-389	〈1 span left blank〉	B21815-001-a-4660	B21815-001-a-4680	1-a-385	1-a-390	/home/spenteco/0/eebotcp/texts/B21/B21815.xml	HORIZONTAL ELLIPSES ADDED TO AM (GAP?)
B21815	1	4	B21815-001-a-6160		〈…〉	1-a-510 1-a-511 1-a-512 1-a-513	〈1 span left blank〉	B21815-001-a-6150	B21815-001-a-6170	1-a-509	1-a-514	/home/spenteco/0/eebotcp/texts/B21/B21815.xml	HORIZONTAL ELLIPSES ADDED TO AM (GAP?)
A21215	4	2	A21215-002-b-3210 A21215-002-b-3220 A21215-002-b-3230 A21215-002-b-3240	  	◇ 〈…〉 ment	2-b-284 2-b-285	〈◊〉 〈…〉…ment	A21215-002-b-3200	A21215-002-b-3250	2-b-283	2-b-286	/home/spenteco/0/eebotcp/texts/A21/A21215.xml	HORIZONTAL ELLIPSES ADDED TO AM (GAP?)
B20401	1	4	B20401-001-a-1020		〈…〉	1-a-92 1-a-93 1-a-94 1-a-95	〈1 span left blank〉	B20401-001-a-1010	B20401-001-a-1030	1-a-91	1-a-96	/home/spenteco/0/eebotcp/texts/B20/B20401.xml	HORIZONTAL ELLIPSES ADDED TO AM (GAP?)
A56061	1	4	A56061-009-b-0070		〈…〉	9-b-5 9-b-6 9-b-7 9-b-8	〈1 span left blank〉	A56061-009-b-0060	A56061-009-b-0080	9-b-4	9-b-9	/home/spenteco/0/eebotcp/texts/A56/A56061.xml	HORIZONTAL ELLIPSES ADDED TO AM (GAP?)
A56061	1	4	A56061-009-b-0470		〈…〉	9-b-43 9-b-44 9-b-45 9-b-46	〈1 span left blank〉	A56061-009-b-0450 A56061-009-b-0460	A56061-009-b-0480	9-b-42	9-b-47	/home/spenteco/0/eebotcp/texts/A56/A56061.xml	HORIZONTAL ELLIPSES ADDED TO AM (GAP?)
A56061	1	4	A56061-009-b-1130		〈…〉	9-b-104 9-b-105 9-b-106 9-b-107	〈1 span left blank〉	A56061-009-b-1120	A56061-009-b-1140	9-b-103	9-b-108	/home/spenteco/0/eebotcp/texts/A56/A56061.xml	HORIZONTAL ELLIPSES ADDED TO AM (GAP?)
A21253	1	4	A21253-001-b-14510		〈…〉	1-b-465 1-b-466 1-b-467 1-b-468	〈1 span left blank〉	A21253-001-b-14500	A21253-001-b-14520	1-b-464	1-b-469	/home/spenteco/0/eebotcp/texts/A21/A21253.xml	HORIZONTAL ELLIPSES ADDED TO AM (GAP?)
A21253	1	4	A21253-001-b-15040		〈…〉	1-b-511 1-b-512 1-b-513 1-b-514	〈1 span left blank〉	A21253-001-b-15030	A21253-001-b-15050	1-b-510	1-b-515	/home/spenteco/0/eebotcp/texts/A21/A21253.xml	HORIZONTAL ELLIPSES ADDED TO AM (GAP?)
A21253	1	4	A21253-001-b-17850		〈…〉	1-b-741 1-b-742 1-b-743 1-b-744	〈1 span left blank〉	A21253-001-b-17840	A21253-001-b-17860	1-b-740	1-b-745	/home/spenteco/0/eebotcp/texts/A21/A21253.xml	HORIZONTAL ELLIPSES ADDED TO AM (GAP?)
A21253	1	4	A21253-001-b-18910		〈…〉	1-b-831 1-b-832 1-b-833 1-b-834	〈1 span left blank〉	A21253-001-b-18900	A21253-001-b-18920	1-b-830	1-b-835	/home/spenteco/0/eebotcp/texts/A21/A21253.xml	HORIZONTAL ELLIPSES ADDED TO AM (GAP?)
A21253	1	4	A21253-001-b-19160		〈…〉	1-b-857 1-b-858 1-b-859 1-b-860	〈1 span left blank〉	A21253-001-b-19150	A21253-001-b-19170	1-b-856	1-b-861	/home/spenteco/0/eebotcp/texts/A21/A21253.xml	HORIZONTAL ELLIPSES ADDED TO AM (GAP?)
B12615	3	2	B12615-001-a-8740 B12615-001-a-8760 B12615-001-a-8780	  	{per}s●… ●… keth	1-a-834 1-a-835	ꝑs●… ●…keth	B12615-001-a-8730	B12615-001-a-8790	1-a-833	1-a-836	/home/spenteco/0/eebotcp/texts/B12/B12615.xml	HORIZONTAL ELLIPSES ADDED TO AM (GAP?)
B12615	2	1	B12615-002-a-0200 B12615-002-a-0220	 	{per}●… es	2-a-17	ꝑ●…es	B12615-002-a-0190	B12615-002-a-0230	2-a-16	2-a-18	/home/spenteco/0/eebotcp/texts/B12/B12615.xml	HORIZONTAL ELLIPSES ADDED TO AM (GAP?)
A13550	2	1	A13550-049-a-0160 A13550-049-a-0170	 	t〈…〉 fulnes	49-a-13	t…fulnes	A13550-049-a-0150	A13550-049-a-0190	49-a-12	49-a-14	/home/spenteco/0/eebotcp/texts/A13/A13550.xml	HORIZONTAL ELLIPSES ADDED TO AM (GAP?)
A41276	2	1	A41276-003-a-7240 A41276-003-a-7260	 	be●… fed	3-a-625	be●…ed	A41276-003-a-7230	A41276-003-a-7270	3-a-624	3-a-626	/home/spenteco/0/eebotcp/texts/A41/A41276.xml	HORIZONTAL ELLIPSES ADDED TO AM (GAP?)
B26180	4	2	B26180-141-a-2410 B26180-141-a-2411 B26180-141-a-2420 B26180-141-a-2440	   	't is ●… ur	141-a-196 141-a-197	'Tis ●…ur	B26180-141-a-2390 B26180-141-a-2400	B26180-141-a-2450	141-a-195	141-a-198	/home/spenteco/0/eebotcp/texts/B26/B26180.xml	HORIZONTAL ELLIPSES ADDED TO AM (GAP?)
A06749	3	2	A06749-012-a-2670 A06749-012-a-2690 A06749-012-a-2700 A06749-012-a-2720	 	●… 〈◇〉	12-a-212 12-a-213	●…yes, 〈◊〉	A06749-012-a-2660	A06749-012-a-2740	12-a-211	12-a-214	/home/spenteco/0/eebotcp/texts/A06/A06749.xml	HORIZONTAL ELLIPSES ADDED TO AM (GAP?)
B24197	3	2	B24197-028-a-0550 B24197-028-a-0560 B24197-028-b-0010 B24197-028-b-0030		●…	28-a-48 28-b-0	&●… (Nᵒ.	B24197-028-a-0540	B24197-028-b-0050 B24197-028-b-0060	28-a-47	28-b-1	/home/spenteco/0/eebotcp/texts/B24/B24197.xml	HORIZONTAL ELLIPSES ADDED TO AM (GAP?)
B24197	3	2	B24197-032-a-0510 B24197-032-a-0520 B24197-032-b-0010 B24197-032-b-0030		●…	32-a-45 32-b-0	&●… (Nᵒ.	B24197-032-a-0500	B24197-032-b-0050 B24197-032-b-0060	32-a-44	32-b-1	/home/spenteco/0/eebotcp/texts/B24/B24197.xml	HORIZONTAL ELLIPSES ADDED TO AM (GAP?)
B04390	3	1	B04390-058-a-3940 B04390-058-a-3950 B04390-058-a-3960 B04390-058-a-3980		2.	58-a-328	15.2.〈…〉	B04390-058-a-3920 B04390-058-a-3930	B04390-058-b-0010	58-a-327	58-b-0	/home/spenteco/0/eebotcp/texts/B04/B04390.xml	HORIZONTAL ELLIPSES ADDED TO AM (GAP?)
B26664	3	2	B26664-007-b-5480 B26664-007-b-5500 B26664-007-b-5510	  	〈◇〉 〈…〉 nde●	7-b-463 7-b-464	〈◊〉 〈…〉nde●	B26664-007-b-5450 B26664-007-b-5460	B26664-007-b-5520 B26664-007-b-5530	7-b-462	7-b-465	/home/spenteco/0/eebotcp/texts/B26/B26664.xml	HORIZONTAL ELLIPSES ADDED TO AM (GAP?)
B26664	4	3	B26664-008-a-4510 B26664-008-a-4520 B26664-008-a-4540 B26664-008-a-4560 B26664-008-a-4580	  	〈…〉 sh 〈◇〉	8-a-382 8-a-383 8-a-384	〈…〉sh 〈◊〉, 〈◊〉	B26664-008-a-4500	B26664-008-a-4600	8-a-381	8-a-385	/home/spenteco/0/eebotcp/texts/B26/B26664.xml	HORIZONTAL ELLIPSES ADDED TO AM (GAP?)
B26664	7	5	B26664-009-b-5150 B26664-009-b-5170 B26664-009-b-5180 B26664-009-b-5200 B26664-009-b-5220 B26664-009-b-5230 B26664-009-b-5250	      	〈◇〉 〈…〉 ments 〈◇〉 〈…〉 ned 〈◇〉	9-b-428 9-b-429 9-b-430 9-b-431 9-b-432	〈◊〉 〈…〉ments 〈◊〉 〈…〉ned 〈◊〉	B26664-009-b-5130	B26664-009-b-5270	9-b-427	9-b-433	/home/spenteco/0/eebotcp/texts/B26/B26664.xml	HORIZONTAL ELLIPSES ADDED TO AM (GAP?)
B26664	2	2	B26664-026-b-2740 B26664-026-b-2750	 	Lor 〈…〉	26-b-238 26-b-239	h Lor〈…〉	B26664-026-b-2730	B26664-026-b-2760	26-b-237	26-b-240	/home/spenteco/0/eebotcp/texts/B26/B26664.xml	HORIZONTAL ELLIPSES ADDED TO AM (GAP?)
A91077	1	4	A91077-007-b-1440		〈…〉	7-b-127 7-b-128 7-b-129 7-b-130	〈1 span left blank〉	A91077-007-b-1430	A91077-007-b-1450	7-b-126	7-b-131	/home/spenteco/0/eebotcp/texts/A91/A91077.xml	HORIZONTAL ELLIPSES ADDED TO AM (GAP?)
B05700	1	4	B05700-002-a-0430		〈…〉	2-a-35 2-a-36 2-a-37 2-a-38	〈1 span left blank〉	B05700-002-a-0420	B05700-002-a-0440	2-a-34	2-a-39	/home/spenteco/0/eebotcp/texts/B05/B05700.xml	HORIZONTAL ELLIPSES ADDED TO AM (GAP?)
A48968	3	2	A48968-007-a-0670 A48968-007-a-0690 A48968-007-a-0700	  	〈◇〉 〈…〉 ble	7-a-48 7-a-49	〈◊〉 〈…〉ble	A48968-007-a-0650	A48968-007-a-0710 A48968-007-a-0720	7-a-47	7-a-50	/home/spenteco/0/eebotcp/texts/A48/A48968.xml	HORIZONTAL ELLIPSES ADDED TO AM (GAP?)
A63401	3	2	A63401-137-a-0520 A63401-137-a-0540 A63401-137-a-0560	  	●… d 〈◇〉	137-a-44 137-a-45	●…d 〈◊〉	A63401-137-a-0500 A63401-137-a-0510	A63401-137-a-0580	137-a-43	137-a-46	/home/spenteco/0/eebotcp/texts/A63/A63401.xml	HORIZONTAL ELLIPSES ADDED TO AM (GAP?)
A63401	3	2	A63401-137-a-2630 A63401-137-a-2650 A63401-137-a-2670	  	●… sting 〈◇〉	137-a-224 137-a-225	●…sting 〈◊〉	A63401-137-a-2620	A63401-137-a-2690	137-a-223	137-a-226	/home/spenteco/0/eebotcp/texts/A63/A63401.xml	HORIZONTAL ELLIPSES ADDED TO AM (GAP?)
A91715	1	1	A91715-002-b-1900		Pr〈…〉tions	2-b-155	Pr…tions	A91715-002-b-1890	A91715-002-b-1930	2-b-154	2-b-156	/home/spenteco/0/eebotcp/texts/A91/A91715.xml	HORIZONTAL ELLIPSES ADDED TO AM (GAP?)
B18837	2	2	B18837-198-a-06890 B18837-198-a-06910 B18837-198-a-06920		●…	198-a-581 198-a-582	e ●…res.	B18837-198-a-06880	B18837-198-a-06930 B18837-198-a-06940	198-a-580	198-a-583	/home/spenteco/0/eebotcp/texts/B18/B18837.xml	HORIZONTAL ELLIPSES ADDED TO AM (GAP?)
A54816	4	4	A54816-110-b-1030 A54816-110-b-1040 A54816-110-b-1050 A54816-110-b-1060	   	gu 〈…〉 uppe 〈…〉	110-b-89 110-b-90 110-b-91 110-b-92	gu〈…〉 uppe〈…〉 〈1 paragraph〉	A54816-110-b-1020	A54816-111-a-0010	110-b-88	111-a-0	/home/spenteco/0/eebotcp/texts/A54/A54816.xml	HORIZONTAL ELLIPSES ADDED TO AM (GAP?)
B09536	3	2	B09536-040-a-1680 B09536-040-b-0010 B09536-040-b-0030	  	〈◇〉 ●… en	40-a-140 40-b-0	〈◊〉 ●…en	B09536-040-a-1660	B09536-040-b-0040	40-a-139	40-b-1	/home/spenteco/0/eebotcp/texts/B09/B09536.xml	HORIZONTAL ELLIPSES ADDED TO AM (GAP?)
A88658	3	2	A88658-001-b-1400 A88658-001-b-1420 A88658-001-b-1440	  	h●… es 〈◇〉	1-b-119 1-b-120	h●…es 〈◊〉	A88658-001-b-1390	A88658-001-b-1460	1-b-118	1-b-121	/home/spenteco/0/eebotcp/texts/A88/A88658.xml	HORIZONTAL ELLIPSES ADDED TO AM (GAP?)
B11201	1	2	B11201-003-a-0020		〈…〉fered	2-b-147 3-a-0	〈…〉 …fered	B11201-002-b-1650	B11201-003-a-0030	2-b-146	3-a-1	/home/spenteco/0/eebotcp/texts/B11/B11201.xml	HORIZONTAL ELLIPSES ADDED TO AM (GAP?)
B11201	2	3	B11201-004-a-0560 B11201-004-a-0590	 	abū〈…〉 〈…〉ghtes	4-a-51 4-a-52 4-a-53	abū… 〈…〉 …ghtes	B11201-004-a-0550	B11201-004-a-0600	4-a-50	4-a-54	/home/spenteco/0/eebotcp/texts/B11/B11201.xml	HORIZONTAL ELLIPSES ADDED TO AM (GAP?)
A36386	2	2	A36386-124-b-0230 A36386-124-b-0250	 	〈…〉 Strait	124-b-16 124-b-17	* 〈…〉Strait	A36386-124-b-0210 A36386-124-b-0220	A36386-124-b-0260	124-b-15	124-b-18	/home/spenteco/0/eebotcp/texts/A36/A36386.xml	HORIZONTAL ELLIPSES ADDED TO AM (GAP?)
B20211	1	4	B20211-002-a-6430		〈…〉	2-a-541 2-a-542 2-a-543 2-a-544	〈1 span left blank〉	B20211-002-a-6420	B20211-002-a-6440	2-a-540	2-a-545	/home/spenteco/0/eebotcp/texts/B20/B20211.xml	HORIZONTAL ELLIPSES ADDED TO AM (GAP?)
B20211	1	4	B20211-002-a-6450		〈…〉	2-a-546 2-a-547 2-a-548 2-a-549	〈1 span left blank〉	B20211-002-a-6440	B20211-002-a-6460	2-a-545	2-a-550	/home/spenteco/0/eebotcp/texts/B20/B20211.xml	HORIZONTAL ELLIPSES ADDED TO AM (GAP?)
B20211	1	4	B20211-002-a-6830		〈…〉	2-a-581 2-a-582 2-a-583 2-a-584	〈1 span left blank〉	B20211-002-a-6820	B20211-002-a-6840	2-a-580	2-a-585	/home/spenteco/0/eebotcp/texts/B20/B20211.xml	HORIZONTAL ELLIPSES ADDED TO AM (GAP?)
A82079	1	1	A82079-005-a-2250		inchiq●… 	5-a-214	inchiq●…es	A82079-005-a-2220	A82079-005-a-2260	5-a-213	5-a-215	/home/spenteco/0/eebotcp/texts/A82/A82079.xml	HORIZONTAL ELLIPSES ADDED TO AM (GAP?)
B05669	1	4	B05669-001-a-0570		〈…〉	1-a-53 1-a-54 1-a-55 1-a-56	〈1 span left blank〉	B05669-001-a-0560	B05669-001-a-0580	1-a-52	1-a-57	/home/spenteco/0/eebotcp/texts/B05/B05669.xml	HORIZONTAL ELLIPSES ADDED TO AM (GAP?)
A40246	3	2	A40246-012-a-0050 A40246-012-a-0070 A40246-012-a-0090	  	〈◇〉 ●… ther	12-a-2 12-a-3	〈◊〉 ●…ther	A40246-012-a-0030	A40246-012-a-0100	12-a-1	12-a-4	/home/spenteco/0/eebotcp/texts/A40/A40246.xml	HORIZONTAL ELLIPSES ADDED TO AM (GAP?)
A94055	4	1	A94055-008-a-10310 A94055-008-a-10320 A94055-008-a-10330 A94055-008-a-10340	   	● preventi 〈…〉 ●	8-a-92	preventi〈…〉	A94055-008-a-10300	A94055-008-a-10350	8-a-91	8-a-93	/home/spenteco/0/eebotcp/texts/A94/A94055.xml	HORIZONTAL ELLIPSES ADDED TO AM (GAP?)
A94055	3	1	A94055-008-b-9660 A94055-008-b-9670 A94055-008-b-9680	  	sin 〈…〉 ●	8-b-41	sin〈…〉	A94055-008-b-9640 A94055-008-b-9650	A94055-008-b-9690	8-b-40	8-b-42	/home/spenteco/0/eebotcp/texts/A94/A94055.xml	HORIZONTAL ELLIPSES ADDED TO AM (GAP?)
A94055	4	5	A94055-009-a-19530 A94055-009-a-19540 A94055-009-a-19550 A94055-009-a-19560 A94055-009-a-19570 A94055-009-a-19580 A94055-009-a-19590 A94055-009-a-19600	 	im 〈…〉	9-a-865 9-a-866 9-a-867 9-a-868 9-a-869	im〈…〉 ( ) ( )	A94055-009-a-19520	A94055-009-a-19610	9-a-864	9-a-870	/home/spenteco/0/eebotcp/texts/A94/A94055.xml	HORIZONTAL ELLIPSES ADDED TO AM (GAP?)
A56004	2	3	A56004-041-a-0220 A56004-041-a-0240	 	…〉 〈◇〉	41-a-17 41-a-18 41-a-19	〈…〉 ●●●●en●● 〈◊〉	A56004-041-a-0210	A56004-041-a-0260	41-a-16	41-a-20	/home/spenteco/0/eebotcp/texts/A56/A56004.xml	HORIZONTAL ELLIPSES ADDED TO AM (GAP?)
B11377	3	2	B11377-229-b-3440 B11377-229-b-3470 B11377-229-b-3490	  	〈◇〉 ●thony 〈…〉	229-b-294 229-b-295	〈◊〉 ●thony〈…〉	B11377-229-b-3420	B11377-229-b-3500	229-b-293	229-b-296	/home/spenteco/0/eebotcp/texts/B11/B11377.xml	HORIZONTAL ELLIPSES ADDED TO AM (GAP?)
A54389	2	3	A54389-010-a-02360 A54389-010-a-02370	 	Se 〈…〉	10-a-204 10-a-205 10-a-206	〈1 line〉 Se〈…〉	A54389-010-a-02350	A54389-010-a-02380	10-a-203	10-a-207	/home/spenteco/0/eebotcp/texts/A54/A54389.xml	HORIZONTAL ELLIPSES ADDED TO AM (GAP?)
A92680	1	4	A92680-001-a-0470		〈…〉	1-a-38 1-a-39 1-a-40 1-a-41	〈1 span left blank〉	A92680-001-a-0460	A92680-001-a-0480 A92680-001-a-0490	1-a-37	1-a-42	/home/spenteco/0/eebotcp/texts/A92/A92680.xml	HORIZONTAL ELLIPSES ADDED TO AM (GAP?)
A08985	2	9	A08985-001-a-1010 A08985-001-a-1030	 	●… nted	1-a-78 1-a-79 1-a-80 1-a-81 1-a-82 1-a-83 1-a-84 1-a-85 1-a-86	woodcut of Robin, the king and the sheriff? ●…nted	A08985-001-a-0990 A08985-001-a-1000	A08985-001-a-1040	1-a-77	1-a-87	/home/spenteco/0/eebotcp/texts/A08/A08985.xml	HORIZONTAL ELLIPSES ADDED TO AM (GAP?)
B14220	2	2	B14220-003-a-1400 B14220-003-a-1420	 	●… icero	3-a-122 3-a-123	a ●…icero	B14220-003-a-1390	B14220-003-a-1430	3-a-121	3-a-124	/home/spenteco/0/eebotcp/texts/B14/B14220.xml	HORIZONTAL ELLIPSES ADDED TO AM (GAP?)
B14220	2	2	B14220-003-a-2810 B14220-003-a-2830	 	●… onum	3-a-233 3-a-234	c ●…onum	B14220-003-a-2800	B14220-003-a-2840	3-a-232	3-a-235	/home/spenteco/0/eebotcp/texts/B14/B14220.xml	HORIZONTAL ELLIPSES ADDED TO AM (GAP?)
B14220	2	2	B14220-003-a-3170 B14220-003-a-3190 B14220-003-a-3200		●…	3-a-258 3-a-259	d ●…rist.	B14220-003-a-3160	B14220-003-a-3210 B14220-003-a-3220	3-a-257	3-a-260	/home/spenteco/0/eebotcp/texts/B14/B14220.xml	HORIZONTAL ELLIPSES ADDED TO AM (GAP?)
B14220	2	2	B14220-008-a-1230 B14220-008-a-1250	 	●… ame	8-a-104 8-a-105	k ●…ame	B14220-008-a-1220	B14220-008-a-1260 B14220-008-a-1280	8-a-103	8-a-106	/home/spenteco/0/eebotcp/texts/B14/B14220.xml	HORIZONTAL ELLIPSES ADDED TO AM (GAP?)
B14220	2	2	B14220-008-a-5330 B14220-008-a-5350	 	●… ohn	8-a-446 8-a-447	l ●…ohn	B14220-008-a-5320	B14220-008-a-5360 B14220-008-a-5370 B14220-008-a-5380	8-a-445	8-a-448	/home/spenteco/0/eebotcp/texts/B14/B14220.xml	HORIZONTAL ELLIPSES ADDED TO AM (GAP?)
B14220	2	2	B14220-008-a-5460 B14220-008-a-5480 B14220-008-a-5490		●…	8-a-455 8-a-456	m ●…ers.	B14220-008-a-5450	B14220-008-a-5500 B14220-008-a-5520	8-a-454	8-a-457	/home/spenteco/0/eebotcp/texts/B14/B14220.xml	HORIZONTAL ELLIPSES ADDED TO AM (GAP?)
B14220	2	2	B14220-009-a-0090 B14220-009-a-0110 B14220-009-a-0120		●…	9-a-6 9-a-7	n ●…odin.	B14220-009-a-0080	B14220-009-a-0130	9-a-5	9-a-8	/home/spenteco/0/eebotcp/texts/B14/B14220.xml	HORIZONTAL ELLIPSES ADDED TO AM (GAP?)
B14220	2	2	B14220-009-a-0600 B14220-009-a-0620	 	●… psius	9-a-43 9-a-44	o ●…psius	B14220-009-a-0590	B14220-009-a-0630	9-a-42	9-a-45	/home/spenteco/0/eebotcp/texts/B14/B14220.xml	HORIZONTAL ELLIPSES ADDED TO AM (GAP?)
B14220	2	2	B14220-009-a-6570 B14220-009-a-6590 B14220-009-a-6600		●…	9-a-511 9-a-512	q ●…reg.	B14220-009-a-6560	B14220-009-a-6610 B14220-009-a-6620	9-a-510	9-a-513	/home/spenteco/0/eebotcp/texts/B14/B14220.xml	HORIZONTAL ELLIPSES ADDED TO AM (GAP?)
B14220	2	2	B14220-009-a-8270 B14220-009-a-8290 B14220-009-a-8300		●…	9-a-641 9-a-642	r ●…prian.	B14220-009-a-8260	B14220-009-a-8310	9-a-640	9-a-643	/home/spenteco/0/eebotcp/texts/B14/B14220.xml	HORIZONTAL ELLIPSES ADDED TO AM (GAP?)
B14220	2	2	B14220-009-a-8470 B14220-009-a-8490 B14220-009-a-8500		●…	9-a-653 9-a-654	s ●…nard.	B14220-009-a-8460	B14220-009-a-8510	9-a-652	9-a-655	/home/spenteco/0/eebotcp/texts/B14/B14220.xml	HORIZONTAL ELLIPSES ADDED TO AM (GAP?)
B14220	2	2	B14220-009-a-8670 B14220-009-a-8690 B14220-009-a-8700		●…	9-a-666 9-a-667	t ●…tress.	B14220-009-a-8650 B14220-009-a-8660	B14220-009-a-8710	9-a-665	9-a-668	/home/spenteco/0/eebotcp/texts/B14/B14220.xml	HORIZONTAL ELLIPSES ADDED TO AM (GAP?)
B14220	2	2	B14220-009-a-8970 B14220-009-a-8990 B14220-009-a-9000		●…	9-a-687 9-a-688	u ●…cof.	B14220-009-a-8960	B14220-009-a-9010	9-a-686	9-a-689	/home/spenteco/0/eebotcp/texts/B14/B14220.xml	HORIZONTAL ELLIPSES ADDED TO AM (GAP?)
B14220	2	2	B14220-010-a-1360 B14220-010-a-1380	 	●… n	10-a-108 10-a-109	i ●…n	B14220-010-a-1350	B14220-010-a-1390	10-a-107	10-a-110	/home/spenteco/0/eebotcp/texts/B14/B14220.xml	HORIZONTAL ELLIPSES ADDED TO AM (GAP?)
B14220	2	2	B14220-010-a-5000 B14220-010-a-5020	 	●… ther	10-a-404 10-a-405	l ●…ther	B14220-010-a-4990	B14220-010-a-5030	10-a-403	10-a-406	/home/spenteco/0/eebotcp/texts/B14/B14220.xml	HORIZONTAL ELLIPSES ADDED TO AM (GAP?)
B14220	2	2	B14220-012-a-1580 B14220-012-a-1600	 	●… udges	12-a-127 12-a-128	a ●…udges	B14220-012-a-1570	B14220-012-a-1610	12-a-126	12-a-129	/home/spenteco/0/eebotcp/texts/B14/B14220.xml	HORIZONTAL ELLIPSES ADDED TO AM (GAP?)
B14220	2	2	B14220-012-a-2550 B14220-012-a-2570 B14220-012-a-2580		●…	12-a-203 12-a-204	b ●…en.	B14220-012-a-2540	B14220-012-a-2590 B14220-012-a-2600	12-a-202	12-a-205	/home/spenteco/0/eebotcp/texts/B14/B14220.xml	HORIZONTAL ELLIPSES ADDED TO AM (GAP?)
B14220	2	2	B14220-013-a-0050 B14220-013-a-0070 B14220-013-a-0080		●…	13-a-3 13-a-4	i ●…onscience:	B14220-013-a-0040	B14220-013-a-0090	13-a-2	13-a-5	/home/spenteco/0/eebotcp/texts/B14/B14220.xml	HORIZONTAL ELLIPSES ADDED TO AM (GAP?)
B14220	2	2	B14220-013-a-0820 B14220-013-a-0840	 	●… auillac	13-a-54 13-a-55	k ●…auillac	B14220-013-a-0810	B14220-013-a-0850	13-a-53	13-a-56	/home/spenteco/0/eebotcp/texts/B14/B14220.xml	HORIZONTAL ELLIPSES ADDED TO AM (GAP?)
B14220	1	1	B14220-019-b-4430 B14220-019-b-4470			19-b-334	Ver●…nus,	B14220-019-b-4420	B14220-019-b-4480	19-b-333	19-b-335	/home/spenteco/0/eebotcp/texts/B14/B14220.xml	HORIZONTAL ELLIPSES ADDED TO AM (GAP?)
B14220	2	2	B14220-020-a-0700 B14220-020-a-0720	 	●… rigenes	20-a-56 20-a-57	i ●…rigenes	B14220-020-a-0690	B14220-020-a-0730 B14220-020-a-0750	20-a-55	20-a-58	/home/spenteco/0/eebotcp/texts/B14/B14220.xml	HORIZONTAL ELLIPSES ADDED TO AM (GAP?)
B14220	2	2	B14220-021-a-0560 B14220-021-a-0580	 	●… mongst	21-a-46 21-a-47	k ●…mongst	B14220-021-a-0550	B14220-021-a-0590	21-a-45	21-a-48	/home/spenteco/0/eebotcp/texts/B14/B14220.xml	HORIZONTAL ELLIPSES ADDED TO AM (GAP?)
B14220	4	3	B14220-022-a-1650 B14220-022-a-1670 B14220-022-a-1680 B14220-022-a-1690 B14220-022-a-1700 B14220-022-a-1710	 	●… I	22-a-131 22-a-132 22-a-133	* ●…en. 27.22.I	B14220-022-a-1630 B14220-022-a-1640	B14220-022-a-1720	22-a-130	22-a-134	/home/spenteco/0/eebotcp/texts/B14/B14220.xml	HORIZONTAL ELLIPSES ADDED TO AM (GAP?)
B14220	2	2	B14220-022-a-2110 B14220-022-a-2130	 	●… auls	22-a-167 22-a-168	a ●…auls	B14220-022-a-2100	B14220-022-a-2140 B14220-022-a-2150	22-a-166	22-a-169	/home/spenteco/0/eebotcp/texts/B14/B14220.xml	HORIZONTAL ELLIPSES ADDED TO AM (GAP?)
B14220	2	2	B14220-023-a-1080 B14220-023-a-1100	 	●… hn	23-a-81 23-a-82	h ●…hn	B14220-023-a-1070	B14220-023-a-1110	23-a-80	23-a-83	/home/spenteco/0/eebotcp/texts/B14/B14220.xml	HORIZONTAL ELLIPSES ADDED TO AM (GAP?)
B14220	2	2	B14220-023-a-4670 B14220-023-a-4690	 	●… erse	23-a-314 23-a-315	l ●…erse	B14220-023-a-4660	B14220-023-a-4700	23-a-313	23-a-316	/home/spenteco/0/eebotcp/texts/B14/B14220.xml	HORIZONTAL ELLIPSES ADDED TO AM (GAP?)
B14220	2	2	B14220-028-a-0420 B14220-028-a-0440	 	●… is	28-a-31 28-a-32	m ●…is	B14220-028-a-0410	B14220-028-a-0450	28-a-30	28-a-33	/home/spenteco/0/eebotcp/texts/B14/B14220.xml	HORIZONTAL ELLIPSES ADDED TO AM (GAP?)
B14220	2	1	B14220-028-a-0680 B14220-028-a-0700	 	●… es●he	28-a-47	●…es	B14220-028-a-0670	B14220-028-a-0710	28-a-46	28-a-48	/home/spenteco/0/eebotcp/texts/B14/B14220.xml	HORIZONTAL ELLIPSES ADDED TO AM (GAP?)
B14220	2	2	B14220-028-a-1650 B14220-028-a-1670 B14220-028-a-1680		●…	28-a-111 28-a-112	* ●…od.	B14220-028-a-1640	B14220-028-a-1690 B14220-028-a-1700	28-a-110	28-a-113	/home/spenteco/0/eebotcp/texts/B14/B14220.xml	HORIZONTAL ELLIPSES ADDED TO AM (GAP?)
B14220	2	2	B14220-028-a-2560 B14220-028-a-2580	 	●… m	28-a-176 28-a-177	n ●…m	B14220-028-a-2550	B14220-028-a-2590 B14220-028-a-2600 B14220-028-a-2610	28-a-175	28-a-178	/home/spenteco/0/eebotcp/texts/B14/B14220.xml	HORIZONTAL ELLIPSES ADDED TO AM (GAP?)
B14220	2	2	B14220-028-a-2720 B14220-028-a-2740 B14220-028-a-2750		●…	28-a-188 28-a-189	o ●…m.	B14220-028-a-2710	B14220-028-a-2760 B14220-028-a-2770	28-a-187	28-a-190	/home/spenteco/0/eebotcp/texts/B14/B14220.xml	HORIZONTAL ELLIPSES ADDED TO AM (GAP?)
B14220	2	2	B14220-028-a-3160 B14220-028-a-3180 B14220-028-a-3190		●…	28-a-223 28-a-224	p ●…dg.	B14220-028-a-3150	B14220-028-a-3200	28-a-222	28-a-225	/home/spenteco/0/eebotcp/texts/B14/B14220.xml	HORIZONTAL ELLIPSES ADDED TO AM (GAP?)
B14220	2	2	B14220-028-a-3480 B14220-028-a-3500	 	●… e	28-a-248 28-a-249	q ●…e	B14220-028-a-3470	B14220-028-a-3510	28-a-247	28-a-250	/home/spenteco/0/eebotcp/texts/B14/B14220.xml	HORIZONTAL ELLIPSES ADDED TO AM (GAP?)
B14220	2	2	B14220-029-a-0210 B14220-029-a-0230 B14220-029-a-0240		●…	29-a-17 29-a-18	h ●…uit.	B14220-029-a-0200	B14220-029-a-0250 B14220-029-a-0260 B14220-029-a-0270	29-a-16	29-a-19	/home/spenteco/0/eebotcp/texts/B14/B14220.xml	HORIZONTAL ELLIPSES ADDED TO AM (GAP?)
B14220	2	2	B14220-032-a-0900 B14220-032-a-0920	 	●… ee	32-a-67 32-a-68	f ●…ee	B14220-032-a-0890	B14220-032-a-0930	32-a-66	32-a-69	/home/spenteco/0/eebotcp/texts/B14/B14220.xml	HORIZONTAL ELLIPSES ADDED TO AM (GAP?)
B14220	2	2	B14220-034-a-0070 B14220-034-a-0090	 	●… ohn	34-a-6 34-a-7	q ●…ohn	B14220-034-a-0060	B14220-034-a-0100 B14220-034-a-0110	34-a-5	34-a-8	/home/spenteco/0/eebotcp/texts/B14/B14220.xml	HORIZONTAL ELLIPSES ADDED TO AM (GAP?)
B14220	2	2	B14220-034-a-2420 B14220-034-a-2440 B14220-034-a-2450		●…	34-a-188 34-a-189	t ●…en.	B14220-034-a-2410	B14220-034-a-2460 B14220-034-a-2470 B14220-034-a-2480	34-a-187	34-a-190	/home/spenteco/0/eebotcp/texts/B14/B14220.xml	HORIZONTAL ELLIPSES ADDED TO AM (GAP?)
B14220	2	2	B14220-034-a-3120 B14220-034-a-3140 B14220-034-a-3150		●…	34-a-243 34-a-244	u ●…en.	B14220-034-a-3110	B14220-034-a-3160 B14220-034-a-3170	34-a-242	34-a-245	/home/spenteco/0/eebotcp/texts/B14/B14220.xml	HORIZONTAL ELLIPSES ADDED TO AM (GAP?)
B14220	2	2	B14220-034-a-3390 B14220-034-a-3410 B14220-034-a-3420		●…	34-a-262 34-a-263	x ●…am.	B14220-034-a-3380	B14220-034-a-3430 B14220-034-a-3440	34-a-261	34-a-264	/home/spenteco/0/eebotcp/texts/B14/B14220.xml	HORIZONTAL ELLIPSES ADDED TO AM (GAP?)
B14220	2	2	B14220-034-a-3510 B14220-034-a-3530 B14220-034-a-3540		●…	34-a-269 34-a-270	y ●…lar.	B14220-034-a-3500	B14220-034-a-3550 B14220-034-a-3560	34-a-268	34-a-271	/home/spenteco/0/eebotcp/texts/B14/B14220.xml	HORIZONTAL ELLIPSES ADDED TO AM (GAP?)
B14220	2	2	B14220-035-a-1080 B14220-035-a-1100 B14220-035-a-1110		●…	35-a-86 35-a-87	b ●…udg.	B14220-035-a-1070	B14220-035-a-1120	35-a-85	35-a-88	/home/spenteco/0/eebotcp/texts/B14/B14220.xml	HORIZONTAL ELLIPSES ADDED TO AM (GAP?)
B14220	2	2	B14220-035-a-1660 B14220-035-a-1680 B14220-035-a-1690		●…	35-a-134 35-a-135	d ●…os.	B14220-035-a-1650	B14220-035-a-1700 B14220-035-a-1710 B14220-035-a-1720	35-a-133	35-a-136	/home/spenteco/0/eebotcp/texts/B14/B14220.xml	HORIZONTAL ELLIPSES ADDED TO AM (GAP?)
B14220	2	2	B14220-035-a-1900 B14220-035-a-1920	 	●… al.	35-a-152 35-a-153	e ●…al.	B14220-035-a-1890	B14220-035-a-1930 B14220-035-a-1940	35-a-151	35-a-154	/home/spenteco/0/eebotcp/texts/B14/B14220.xml	HORIZONTAL ELLIPSES ADDED TO AM (GAP?)
B14220	2	2	B14220-035-a-2030 B14220-035-a-2050	 	●… sai	35-a-162 35-a-163	f ●…sai	B14220-035-a-2020	B14220-035-a-2060 B14220-035-a-2070	35-a-161	35-a-164	/home/spenteco/0/eebotcp/texts/B14/B14220.xml	HORIZONTAL ELLIPSES ADDED TO AM (GAP?)
B14220	2	2	B14220-035-a-3290 B14220-035-a-3310 B14220-035-a-3320		●…	35-a-256 35-a-257	g ●…in.	B14220-035-a-3280	B14220-035-a-3330 B14220-035-a-3340	35-a-255	35-a-258	/home/spenteco/0/eebotcp/texts/B14/B14220.xml	HORIZONTAL ELLIPSES ADDED TO AM (GAP?)
B14220	2	2	B14220-039-a-5130 B14220-039-a-5150 B14220-039-a-5160		●…	39-a-370 39-a-371	h ●…am.	B14220-039-a-5120	B14220-039-a-5170	39-a-369	39-a-372	/home/spenteco/0/eebotcp/texts/B14/B14220.xml	HORIZONTAL ELLIPSES ADDED TO AM (GAP?)
B14220	2	2	B14220-039-a-5260 B14220-039-a-5280 B14220-039-a-5290		●…	39-a-379 39-a-380	i ●…rou.	B14220-039-a-5250	B14220-039-a-5300 B14220-039-a-5310	39-a-378	39-a-381	/home/spenteco/0/eebotcp/texts/B14/B14220.xml	HORIZONTAL ELLIPSES ADDED TO AM (GAP?)
B14220	2	2	B14220-039-a-5390 B14220-039-a-5410 B14220-039-a-5420		●…	39-a-387 39-a-388	k ●…er.	B14220-039-a-5380	B14220-039-a-5430 B14220-039-a-5440 B14220-039-a-5450	39-a-386	39-a-389	/home/spenteco/0/eebotcp/texts/B14/B14220.xml	HORIZONTAL ELLIPSES ADDED TO AM (GAP?)
B14220	2	2	B14220-041-a-0070 B14220-041-a-0090	 	●… ohn	41-a-5 41-a-6	d ●…ohn	B14220-041-a-0060	B14220-041-a-0100 B14220-041-a-0110	41-a-4	41-a-7	/home/spenteco/0/eebotcp/texts/B14/B14220.xml	HORIZONTAL ELLIPSES ADDED TO AM (GAP?)
B14220	2	2	B14220-041-a-0260 B14220-041-a-0280 B14220-041-a-0290		●…	41-a-18 41-a-19	e ●…om.	B14220-041-a-0250	B14220-041-a-0300 B14220-041-a-0310	41-a-17	41-a-20	/home/spenteco/0/eebotcp/texts/B14/B14220.xml	HORIZONTAL ELLIPSES ADDED TO AM (GAP?)
B14220	2	2	B14220-041-a-0830 B14220-041-a-0850 B14220-041-a-0860		●…	41-a-58 41-a-59	* ●…sal.	B14220-041-a-0820	B14220-041-a-0870 B14220-041-a-0880	41-a-57	41-a-60	/home/spenteco/0/eebotcp/texts/B14/B14220.xml	HORIZONTAL ELLIPSES ADDED TO AM (GAP?)
B14220	2	2	B14220-041-a-0960 B14220-041-a-0980 B14220-041-a-0990		●…	41-a-66 41-a-67	f ●…phe.	B14220-041-a-0950	B14220-041-a-1000 B14220-041-a-1020	41-a-65	41-a-68	/home/spenteco/0/eebotcp/texts/B14/B14220.xml	HORIZONTAL ELLIPSES ADDED TO AM (GAP?)
B14220	2	2	B14220-041-a-2510 B14220-041-a-2530	 	●… ohn	41-a-185 41-a-186	n ●…ohn	B14220-041-a-2500	B14220-041-a-2540	41-a-184	41-a-187	/home/spenteco/0/eebotcp/texts/B14/B14220.xml	HORIZONTAL ELLIPSES ADDED TO AM (GAP?)
B14220	2	2	B14220-041-a-2890 B14220-041-a-2910	 	●… ohn	41-a-215 41-a-216	q ●…ohn	B14220-041-a-2880	B14220-041-a-2920 B14220-041-a-2930	41-a-214	41-a-217	/home/spenteco/0/eebotcp/texts/B14/B14220.xml	HORIZONTAL ELLIPSES ADDED TO AM (GAP?)
B14220	2	2	B14220-041-a-3780 B14220-041-a-3800	 	●… hn	41-a-285 41-a-286	* ●…hn	B14220-041-a-3770	B14220-041-a-3810 B14220-041-a-3830	41-a-284	41-a-287	/home/spenteco/0/eebotcp/texts/B14/B14220.xml	HORIZONTAL ELLIPSES ADDED TO AM (GAP?)
B14220	2	2	B14220-042-a-0070 B14220-042-a-0090 B14220-042-a-0100		●…	42-a-6 42-a-7	s ●…th.	B14220-042-a-0060	B14220-042-a-0110 B14220-042-a-0120	42-a-5	42-a-8	/home/spenteco/0/eebotcp/texts/B14/B14220.xml	HORIZONTAL ELLIPSES ADDED TO AM (GAP?)
B14220	2	2	B14220-042-a-0220 B14220-042-a-0240 B14220-042-a-0250		●…	42-a-17 42-a-18	t ●…et.	B14220-042-a-0210	B14220-042-a-0260 B14220-042-a-0270	42-a-16	42-a-19	/home/spenteco/0/eebotcp/texts/B14/B14220.xml	HORIZONTAL ELLIPSES ADDED TO AM (GAP?)
B14220	2	2	B14220-042-a-0420 B14220-042-a-0440 B14220-042-a-0450		●…	42-a-31 42-a-32	u ●…th.	B14220-042-a-0410	B14220-042-a-0460 B14220-042-a-0480	42-a-30	42-a-33	/home/spenteco/0/eebotcp/texts/B14/B14220.xml	HORIZONTAL ELLIPSES ADDED TO AM (GAP?)
B14220	2	2	B14220-042-a-0810 B14220-042-a-0830 B14220-042-a-0840		●…	42-a-59 42-a-60	y ●…h.	B14220-042-a-0800	B14220-042-a-0850 B14220-042-a-0860	42-a-58	42-a-61	/home/spenteco/0/eebotcp/texts/B14/B14220.xml	HORIZONTAL ELLIPSES ADDED TO AM (GAP?)
B14220	2	2	B14220-042-a-1750 B14220-042-a-1770	 	●… der	42-a-132 42-a-133	z ●…der	B14220-042-a-1740	B14220-042-a-1780	42-a-131	42-a-134	/home/spenteco/0/eebotcp/texts/B14/B14220.xml	HORIZONTAL ELLIPSES ADDED TO AM (GAP?)
B14220	2	2	B14220-042-a-2730 B14220-042-a-2750	 	●… e	42-a-206 42-a-207	b ●…e	B14220-042-a-2720	B14220-042-a-2760	42-a-205	42-a-208	/home/spenteco/0/eebotcp/texts/B14/B14220.xml	HORIZONTAL ELLIPSES ADDED TO AM (GAP?)
B14220	2	2	B14220-042-a-3310 B14220-042-a-3330	 	●… dges	42-a-250 42-a-251	c ●…dges	B14220-042-a-3300	B14220-042-a-3340	42-a-249	42-a-252	/home/spenteco/0/eebotcp/texts/B14/B14220.xml	HORIZONTAL ELLIPSES ADDED TO AM (GAP?)
B21762	1	1	B21762-001-a-3530		for…ture	1-a-328	…ture	B21762-001-a-3510	B21762-001-a-3540	1-a-327	1-a-329	/home/spenteco/0/eebotcp/texts/B21/B21762.xml	HORIZONTAL ELLIPSES ADDED TO AM (GAP?)
A76218	3	2	A76218-080-b-2220 A76218-080-b-2240 A76218-080-b-2250	  	〈◇〉 le 〈…〉	80-b-197 80-b-198	〈◊〉 le〈…〉	A76218-080-b-2200	A76218-080-b-2260	80-b-196	80-b-199	/home/spenteco/0/eebotcp/texts/A76/A76218.xml	HORIZONTAL ELLIPSES ADDED TO AM (GAP?)
B43403	4	3	B43403-010-a-1460 B43403-010-a-1490 B43403-010-a-1500 B43403-010-a-1520	   	eignior Protector ●… f	10-a-126 10-a-127 10-a-128	●…eignior ●…rotector ●…f	B43403-010-a-1430	B43403-010-a-1530	10-a-125	10-a-129	/home/spenteco/0/eebotcp/texts/B43/B43403.xml	HORIZONTAL ELLIPSES ADDED TO AM (GAP?)
B43727	1	4	B43727-002-a-2960		〈…〉	2-a-259 2-a-260 2-a-261 2-a-262	〈1 span left blank〉	B43727-002-a-2950	B43727-002-a-2970	2-a-258	2-a-263	/home/spenteco/0/eebotcp/texts/B43/B43727.xml	HORIZONTAL ELLIPSES ADDED TO AM (GAP?)
B43727	1	4	B43727-002-a-6250		〈…〉	2-a-548 2-a-549 2-a-550 2-a-551	〈1 span left blank〉	B43727-002-a-6240	B43727-002-a-6260	2-a-547	2-a-552	/home/spenteco/0/eebotcp/texts/B43/B43727.xml	HORIZONTAL ELLIPSES ADDED TO AM (GAP?)
B20603	3	2	B20603-001-b-7890 B20603-001-b-7910 B20603-001-b-7930	  	〈◇〉 ●… rn	1-b-691 1-b-692	〈◊〉 ●…rn	B20603-001-b-7870	B20603-001-b-7940	1-b-690	1-b-693	/home/spenteco/0/eebotcp/texts/B20/B20603.xml	HORIZONTAL ELLIPSES ADDED TO AM (GAP?)
B20603	3	2	B20603-001-b-8250 B20603-001-b-8270 B20603-001-b-8290	  	〈◇〉 ●… ent	1-b-717 1-b-718	〈◊〉 ●…ent	B20603-001-b-8230	B20603-001-b-8300 B20603-001-b-8310	1-b-716	1-b-719	/home/spenteco/0/eebotcp/texts/B20/B20603.xml	HORIZONTAL ELLIPSES ADDED TO AM (GAP?)
B09975	1	4	B09975-001-a-0420		〈…〉	1-a-40 1-a-41 1-a-42 1-a-43	〈1 span left blank〉	B09975-001-a-0410	B09975-001-a-0430	1-a-39	1-a-44	/home/spenteco/0/eebotcp/texts/B09/B09975.xml	HORIZONTAL ELLIPSES ADDED TO AM (GAP?)
A41280	4	2	A41280-009-a-6140 A41280-009-a-6160 A41280-009-a-6170 A41280-009-a-6190	   	●… 7. ●… mark	9-a-508 9-a-509	●…7. ●…marks	id-missing	A41280-009-a-6200 A41280-009-a-6220	9-a-507	9-a-510	/home/spenteco/0/eebotcp/texts/A41/A41280.xml	HORIZONTAL ELLIPSES ADDED TO AM (GAP?)
B43724	1	4	B43724-002-a-5200		〈…〉	2-a-447 2-a-448 2-a-449 2-a-450	〈1 span left blank〉	B43724-002-a-5190	B43724-002-a-5210	2-a-446	2-a-451	/home/spenteco/0/eebotcp/texts/B43/B43724.xml	HORIZONTAL ELLIPSES ADDED TO AM (GAP?)
B43724	1	4	B43724-002-a-5230		〈…〉	2-a-453 2-a-454 2-a-455 2-a-456	〈1 span left blank〉	B43724-002-a-5220	B43724-002-a-5240	2-a-452	2-a-457	/home/spenteco/0/eebotcp/texts/B43/B43724.xml	HORIZONTAL ELLIPSES ADDED TO AM (GAP?)
B43724	1	4	B43724-002-a-5260		〈…〉	2-a-459 2-a-460 2-a-461 2-a-462	〈1 span left blank〉	B43724-002-a-5250	B43724-002-a-5270	2-a-458	2-a-463	/home/spenteco/0/eebotcp/texts/B43/B43724.xml	HORIZONTAL ELLIPSES ADDED TO AM (GAP?)
B43724	1	4	B43724-002-a-5280		〈…〉	2-a-464 2-a-465 2-a-466 2-a-467	〈1 span left blank〉	B43724-002-a-5270	B43724-002-a-5290	2-a-463	2-a-468	/home/spenteco/0/eebotcp/texts/B43/B43724.xml	HORIZONTAL ELLIPSES ADDED TO AM (GAP?)
B43724	1	4	B43724-002-a-5340		〈…〉	2-a-472 2-a-473 2-a-474 2-a-475	〈1 span left blank〉	B43724-002-a-5330	B43724-002-a-5350 B43724-002-a-5360	2-a-471	2-a-476	/home/spenteco/0/eebotcp/texts/B43/B43724.xml	HORIZONTAL ELLIPSES ADDED TO AM (GAP?)
B43724	1	4	B43724-002-a-5370		〈…〉	2-a-477 2-a-478 2-a-479 2-a-480	〈1 span left blank〉	B43724-002-a-5350 B43724-002-a-5360	B43724-002-a-5380	2-a-476	2-a-481	/home/spenteco/0/eebotcp/texts/B43/B43724.xml	HORIZONTAL ELLIPSES ADDED TO AM (GAP?)
B43724	1	4	B43724-002-a-5390		〈…〉	2-a-482 2-a-483 2-a-484 2-a-485	〈1 span left blank〉	B43724-002-a-5380	B43724-002-a-5400	2-a-481	2-a-486	/home/spenteco/0/eebotcp/texts/B43/B43724.xml	HORIZONTAL ELLIPSES ADDED TO AM (GAP?)
B43724	1	4	B43724-002-a-5420		〈…〉	2-a-488 2-a-489 2-a-490 2-a-491	〈1 span left blank〉	B43724-002-a-5410	B43724-002-a-5430	2-a-487	2-a-492	/home/spenteco/0/eebotcp/texts/B43/B43724.xml	HORIZONTAL ELLIPSES ADDED TO AM (GAP?)
B43724	1	4	B43724-002-a-5450		〈…〉	2-a-494 2-a-495 2-a-496 2-a-497	〈1 span left blank〉	B43724-002-a-5440	B43724-002-a-5460	2-a-493	2-a-498	/home/spenteco/0/eebotcp/texts/B43/B43724.xml	HORIZONTAL ELLIPSES ADDED TO AM (GAP?)
B43724	1	4	B43724-002-a-5470		〈…〉	2-a-499 2-a-500 2-a-501 2-a-502	〈1 span left blank〉	B43724-002-a-5460	B43724-002-a-5480	2-a-498	2-a-503	/home/spenteco/0/eebotcp/texts/B43/B43724.xml	HORIZONTAL ELLIPSES ADDED TO AM (GAP?)
B43724	1	4	B43724-002-a-5490		〈…〉	2-a-504 2-a-505 2-a-506 2-a-507	〈1 span left blank〉	B43724-002-a-5480	B43724-002-a-5500 B43724-002-a-5510	2-a-503	2-a-508	/home/spenteco/0/eebotcp/texts/B43/B43724.xml	HORIZONTAL ELLIPSES ADDED TO AM (GAP?)
B43724	1	4	B43724-002-a-5520		〈…〉	2-a-509 2-a-510 2-a-511 2-a-512	〈1 span left blank〉	B43724-002-a-5500 B43724-002-a-5510	B43724-002-a-5530	2-a-508	2-a-513	/home/spenteco/0/eebotcp/texts/B43/B43724.xml	HORIZONTAL ELLIPSES ADDED TO AM (GAP?)
B43724	1	4	B43724-003-a-5310		〈…〉	3-a-445 3-a-446 3-a-447 3-a-448	〈1 span left blank〉	B43724-003-a-5300	B43724-003-a-5320	3-a-444	3-a-449	/home/spenteco/0/eebotcp/texts/B43/B43724.xml	HORIZONTAL ELLIPSES ADDED TO AM (GAP?)
B43724	1	4	B43724-003-a-5340		〈…〉	3-a-451 3-a-452 3-a-453 3-a-454	〈1 span left blank〉	B43724-003-a-5330	B43724-003-a-5350	3-a-450	3-a-455	/home/spenteco/0/eebotcp/texts/B43/B43724.xml	HORIZONTAL ELLIPSES ADDED TO AM (GAP?)
B43724	1	4	B43724-003-a-5360		〈…〉	3-a-456 3-a-457 3-a-458 3-a-459	〈1 span left blank〉	B43724-003-a-5350	B43724-003-a-5370	3-a-455	3-a-460	/home/spenteco/0/eebotcp/texts/B43/B43724.xml	HORIZONTAL ELLIPSES ADDED TO AM (GAP?)
B43724	1	4	B43724-003-a-5410		〈…〉	3-a-464 3-a-465 3-a-466 3-a-467	〈1 span left blank〉	B43724-003-a-5400	B43724-003-a-5420	3-a-463	3-a-468	/home/spenteco/0/eebotcp/texts/B43/B43724.xml	HORIZONTAL ELLIPSES ADDED TO AM (GAP?)
B43724	1	4	B43724-003-a-5450		〈…〉	3-a-471 3-a-472 3-a-473 3-a-474	〈1 span left blank〉	B43724-003-a-5440	B43724-003-a-5460	3-a-470	3-a-475	/home/spenteco/0/eebotcp/texts/B43/B43724.xml	HORIZONTAL ELLIPSES ADDED TO AM (GAP?)
B43724	1	4	B43724-003-a-5480		〈…〉	3-a-477 3-a-478 3-a-479 3-a-480	〈1 span left blank〉	B43724-003-a-5470	B43724-003-a-5490	3-a-476	3-a-481	/home/spenteco/0/eebotcp/texts/B43/B43724.xml	HORIZONTAL ELLIPSES ADDED TO AM (GAP?)
B43724	1	4	B43724-003-a-5510		〈…〉	3-a-483 3-a-484 3-a-485 3-a-486	〈1 span left blank〉	B43724-003-a-5500	B43724-003-a-5520	3-a-482	3-a-487	/home/spenteco/0/eebotcp/texts/B43/B43724.xml	HORIZONTAL ELLIPSES ADDED TO AM (GAP?)
B43724	1	4	B43724-003-a-5530		〈…〉	3-a-488 3-a-489 3-a-490 3-a-491	〈1 span left blank〉	B43724-003-a-5520	B43724-003-a-5540	3-a-487	3-a-492	/home/spenteco/0/eebotcp/texts/B43/B43724.xml	HORIZONTAL ELLIPSES ADDED TO AM (GAP?)
B43724	1	4	B43724-003-a-5570		〈…〉	3-a-495 3-a-496 3-a-497 3-a-498	〈1 span left blank〉	B43724-003-a-5560	B43724-003-a-5580	3-a-494	3-a-499	/home/spenteco/0/eebotcp/texts/B43/B43724.xml	HORIZONTAL ELLIPSES ADDED TO AM (GAP?)
B43724	1	4	B43724-003-a-5610		〈…〉	3-a-502 3-a-503 3-a-504 3-a-505	〈1 span left blank〉	B43724-003-a-5600	B43724-003-a-5620	3-a-501	3-a-506	/home/spenteco/0/eebotcp/texts/B43/B43724.xml	HORIZONTAL ELLIPSES ADDED TO AM (GAP?)
B43724	1	4	B43724-003-a-5700		〈…〉	3-a-513 3-a-514 3-a-515 3-a-516	〈1 span left blank〉	B43724-003-a-5690	B43724-003-a-5710	3-a-512	3-a-517	/home/spenteco/0/eebotcp/texts/B43/B43724.xml	HORIZONTAL ELLIPSES ADDED TO AM (GAP?)
B43724	1	4	B43724-003-a-5720		〈…〉	3-a-518 3-a-519 3-a-520 3-a-521	〈1 span left blank〉	B43724-003-a-5710	B43724-003-a-5730 B43724-003-a-5740	3-a-517	3-a-522	/home/spenteco/0/eebotcp/texts/B43/B43724.xml	HORIZONTAL ELLIPSES ADDED TO AM (GAP?)
A65549	3	2	A65549-252-a-1530 A65549-252-a-1550 A65549-252-a-1560	  	〈◇〉 〈…〉 tudes	252-a-130 252-a-131	〈◊〉 〈…〉tudes	A65549-252-a-1510	A65549-252-a-1570	252-a-129	252-a-132	/home/spenteco/0/eebotcp/texts/A65/A65549.xml	HORIZONTAL ELLIPSES ADDED TO AM (GAP?)
A65549	3	2	A65549-299-b-0500 A65549-299-b-0520 A65549-299-b-0530	  	〈◇〉 in 〈…〉	299-b-42 299-b-43	〈◊〉 in〈…〉	A65549-299-b-0480	A65549-299-b-0540 A65549-299-b-0550	299-b-41	299-b-44	/home/spenteco/0/eebotcp/texts/A65/A65549.xml	HORIZONTAL ELLIPSES ADDED TO AM (GAP?)
A65549	4	3	A65549-308-b-0160 A65549-308-b-0170 A65549-308-b-0190 A65549-308-b-0220	   	per 〈…〉 〈◇〉 〈◇〉	308-b-11 308-b-12 308-b-13	per〈…〉 〈◊〉 〈◊〉	A65549-308-b-0150	A65549-308-b-0240 A65549-308-b-0250	308-b-10	308-b-14	/home/spenteco/0/eebotcp/texts/A65/A65549.xml	HORIZONTAL ELLIPSES ADDED TO AM (GAP?)
A87008	3	6	id-missing A87008-040-a-4440 A87008-040-a-4450 A87008-040-a-4470	 	pre●… nds	40-a-369 40-a-370 40-a-371 40-a-372 40-a-373 40-a-374	〈◊〉 〈◊〉 〈◊〉 〈◊〉 〈◊〉, pre●…nds	A87008-040-a-4380	A87008-040-a-4480	40-a-368	40-a-375	/home/spenteco/0/eebotcp/texts/A87/A87008.xml	HORIZONTAL ELLIPSES ADDED TO AM (GAP?)
A57607	2	3	A57607-017-a-0080 A57607-017-a-0100	 	…〉 〈◇〉	17-a-6 17-a-7 17-a-8	〈…〉 Intere●●●● 〈◊〉	A57607-017-a-0060 A57607-017-a-0070	A57607-017-a-0120	17-a-5	17-a-9	/home/spenteco/0/eebotcp/texts/A57/A57607.xml	HORIZONTAL ELLIPSES ADDED TO AM (GAP?)
A91498	3	2	A91498-005-a-0370 A91498-005-a-0390 A91498-005-a-0400	  	〈◇〉 Pr 〈…〉	5-a-28 5-a-29	〈◊〉 Pr〈…〉	A91498-005-a-0340 A91498-005-a-0350	A91498-005-a-0410	5-a-27	5-a-30	/home/spenteco/0/eebotcp/texts/A91/A91498.xml	HORIZONTAL ELLIPSES ADDED TO AM (GAP?)
B05512	1	4	B05512-001-a-00560		〈…〉	1-a-36 1-a-37 1-a-38 1-a-39	〈1 span left blank〉	B05512-001-a-00540 B05512-001-a-00550	B05512-001-a-00570 B05512-001-a-00580	1-a-35	1-a-40	/home/spenteco/0/eebotcp/texts/B05/B05512.xml	HORIZONTAL ELLIPSES ADDED TO AM (GAP?)
B24904	2	2	B24904-091-b-2840 B24904-091-b-2850 B24904-091-b-2860		o●…	91-b-243 91-b-244	o●…hers; (g)	B24904-091-b-2830	B24904-091-b-2870 B24904-091-b-2880	91-b-242	91-b-245	/home/spenteco/0/eebotcp/texts/B24/B24904.xml	HORIZONTAL ELLIPSES ADDED TO AM (GAP?)
A02636	4	1	A02636-131-b-0940 A02636-131-b-0950 A02636-131-b-0960 A02636-131-b-0980	  	◇ ●… taine	131-b-81	〈◊〉●…taine	A02636-131-b-0930	A02636-131-b-0990	131-b-80	131-b-82	/home/spenteco/0/eebotcp/texts/A02/A02636.xml	HORIZONTAL ELLIPSES ADDED TO AM (GAP?)
A21463	3	2	A21463-001-a-18110 A21463-001-a-18120 A21463-001-a-18140	  	m 〈…〉 〈◇〉	1-a-1728 1-a-1729	m〈…〉 〈◊〉	A21463-001-a-18100	A21463-001-a-18160	1-a-1727	1-a-1730	/home/spenteco/0/eebotcp/texts/A21/A21463.xml	HORIZONTAL ELLIPSES ADDED TO AM (GAP?)
B28201	4	2	B28201-147-b-1310 B28201-147-b-1330 B28201-147-b-1340 B28201-147-b-1350 B28201-147-b-1351	  	●… 't is	147-b-117 147-b-118	●…arbo. 'Tis	B28201-147-b-1300	B28201-147-b-1360	147-b-116	147-b-119	/home/spenteco/0/eebotcp/texts/B28/B28201.xml	HORIZONTAL ELLIPSES ADDED TO AM (GAP?)
B28201	3	6	id-missing B28201-221-b-1570 B28201-221-b-1580 B28201-221-b-1600	 	Dispo●… ers	221-b-130 221-b-131 221-b-132 221-b-133 221-b-134 221-b-135	〈◊〉 〈◊〉 〈◊〉 〈◊〉 〈◊〉, Dispo●…ers	B28201-221-b-1510	B28201-221-b-1610	221-b-129	221-b-136	/home/spenteco/0/eebotcp/texts/B28/B28201.xml	HORIZONTAL ELLIPSES ADDED TO AM (GAP?)
B12326	3	2	B12326-025-a-2350 B12326-025-a-2360 B12326-025-a-2370 B12326-025-a-2380	 	〈◇〉 S	25-a-206 25-a-207	〈◊〉 S〈…〉.	B12326-025-a-2340	B12326-025-a-2390	25-a-205	25-a-208	/home/spenteco/0/eebotcp/texts/B12/B12326.xml	HORIZONTAL ELLIPSES ADDED TO AM (GAP?)
B25109	2	4	B25109-001-a-0010 B25109-001-a-0020	 	〈…〉 〈…〉	1-a-0 1-a-1 1-a-2 1-a-3	James II's arms 〈…〉〈…〉		B25109-001-a-0030		1-a-4	/home/spenteco/0/eebotcp/texts/B25/B25109.xml	HORIZONTAL ELLIPSES ADDED TO AM (GAP?)
A06433	1	1	A06433-188-b-2960		do●…tisfaction●	188-b-246	do●…tisfaction●…to	A06433-188-b-2950	A06433-188-b-3030 A06433-188-b-3040	188-b-245	188-b-247	/home/spenteco/0/eebotcp/texts/A06/A06433.xml	HORIZONTAL ELLIPSES ADDED TO AM (GAP?)
A06433	5	2	A06433-307-a-0960 A06433-307-a-0970 A06433-307-a-0980 A06433-307-a-0990 A06433-307-a-1010 A06433-307-a-1011	   	1. ●… I de	307-a-77 307-a-78	13.1. ●…ide	A06433-307-a-0950	A06433-307-a-1020 A06433-307-a-1030	307-a-76	307-a-79	/home/spenteco/0/eebotcp/texts/A06/A06433.xml	HORIZONTAL ELLIPSES ADDED TO AM (GAP?)
B26396	2	10	B26396-001-b-1170 B26396-001-b-1190	 	●… ted	1-b-87 1-b-88 1-b-89 1-b-90 1-b-91 1-b-92 1-b-93 1-b-94 1-b-95 1-b-96	woodcut in two panels: wreath and bell-man at night ●…ted	B26396-001-b-1150 B26396-001-b-1160	B26396-001-b-1200	1-b-86	1-b-97	/home/spenteco/0/eebotcp/texts/B26/B26396.xml	HORIZONTAL ELLIPSES ADDED TO AM (GAP?)
B26396	3	2	B26396-005-b-0110 B26396-005-b-0130 B26396-005-b-0140 B26396-005-b-0150	 Ʋpon	●… Upon	5-b-7 5-b-8	●…irst, Vpon	B26396-005-b-0090 B26396-005-b-0100	B26396-005-b-0160	5-b-6	5-b-9	/home/spenteco/0/eebotcp/texts/B26/B26396.xml	HORIZONTAL ELLIPSES ADDED TO AM (GAP?)
B23069	1	4	B23069-001-a-0210		〈…〉	1-a-19 1-a-20 1-a-21 1-a-22	〈1 span left blank〉	B23069-001-a-0200	B23069-001-a-0220	1-a-18	1-a-23	/home/spenteco/0/eebotcp/texts/B23/B23069.xml	HORIZONTAL ELLIPSES ADDED TO AM (GAP?)
B23069	1	4	B23069-001-a-0480		〈…〉	1-a-48 1-a-49 1-a-50 1-a-51	〈1 span left blank〉	B23069-001-a-0470	B23069-001-a-0490	1-a-47	1-a-52	/home/spenteco/0/eebotcp/texts/B23/B23069.xml	HORIZONTAL ELLIPSES ADDED TO AM (GAP?)
B23069	1	4	B23069-001-a-0680		〈…〉	1-a-70 1-a-71 1-a-72 1-a-73	〈1 span left blank〉	B23069-001-a-0670	B23069-001-a-0690	1-a-69	1-a-74	/home/spenteco/0/eebotcp/texts/B23/B23069.xml	HORIZONTAL ELLIPSES ADDED TO AM (GAP?)
B23069	1	4	B23069-001-a-0850		〈…〉	1-a-88 1-a-89 1-a-90 1-a-91	〈1 span left blank〉	B23069-001-a-0840	B23069-001-a-0860	1-a-87	1-a-92	/home/spenteco/0/eebotcp/texts/B23/B23069.xml	HORIZONTAL ELLIPSES ADDED TO AM (GAP?)
B23069	1	4	B23069-001-a-0910		〈…〉	1-a-97 1-a-98 1-a-99 1-a-100	〈1 span left blank〉	B23069-001-a-0900	B23069-001-a-0920	1-a-96	1-a-101	/home/spenteco/0/eebotcp/texts/B23/B23069.xml	HORIZONTAL ELLIPSES ADDED TO AM (GAP?)
B23069	1	4	B23069-001-a-1070		〈…〉	1-a-115 1-a-116 1-a-117 1-a-118	〈1 span left blank〉	B23069-001-a-1060	B23069-001-a-1080	1-a-114	1-a-119	/home/spenteco/0/eebotcp/texts/B23/B23069.xml	HORIZONTAL ELLIPSES ADDED TO AM (GAP?)
B23069	1	4	B23069-001-a-1700		〈…〉	1-a-176 1-a-177 1-a-178 1-a-179	〈1 span left blank〉	B23069-001-a-1690	B23069-001-a-1710	1-a-175	1-a-180	/home/spenteco/0/eebotcp/texts/B23/B23069.xml	HORIZONTAL ELLIPSES ADDED TO AM (GAP?)
A38280	3	2	A38280-095-a-3810 A38280-095-a-3830 A38280-095-a-3840	  	〈◇〉 〈…〉 r	95-a-343 95-a-344	〈◊〉 〈…〉r	A38280-095-a-3790	A38280-095-a-3850	95-a-342	95-a-345	/home/spenteco/0/eebotcp/texts/A38/A38280.xml	HORIZONTAL ELLIPSES ADDED TO AM (GAP?)
A56728	4	1	A56728-042-a-2940 A56728-042-a-2950 A56728-042-a-2960 A56728-042-a-2970	   	' Ti● 〈…〉 thin	42-a-250	'Ti●	A56728-042-a-2920 A56728-042-a-2930	A56728-042-a-2980	42-a-249	42-a-251	/home/spenteco/0/eebotcp/texts/A56/A56728.xml	HORIZONTAL ELLIPSES ADDED TO AM (GAP?)
A56728	6	3	A56728-044-b-3160 A56728-044-b-3170 A56728-044-b-3180 A56728-044-b-3190 A56728-044-b-3200 A56728-044-b-3220	    	under 〈…〉 d it 〈◇〉	44-b-275 44-b-276 44-b-277	under〈…〉d it▪ 〈◊〉	A56728-044-b-3150	A56728-044-b-3240	44-b-274	44-b-278	/home/spenteco/0/eebotcp/texts/A56/A56728.xml	HORIZONTAL ELLIPSES ADDED TO AM (GAP?)
A56728	9	5	A56728-046-b-3790 A56728-046-b-3800 A56728-046-b-3810 A56728-046-b-3820 A56728-046-b-3830 A56728-046-b-3840 A56728-046-b-3850 A56728-046-b-3870 A56728-046-b-3890 A56728-046-b-3900	       	F h 〈…〉 su 〈…〉 〈◇〉 〈…〉 ti●ular	46-b-316 46-b-317 46-b-318 46-b-319 46-b-320	F〈…〉, h〈…〉 su〈…〉 〈◊〉 〈…〉ti●ular	A56728-046-b-3780	A56728-046-b-3910 A56728-046-b-3920	46-b-315	46-b-321	/home/spenteco/0/eebotcp/texts/A56/A56728.xml	HORIZONTAL ELLIPSES ADDED TO AM (GAP?)
A56728	4	2	A56728-047-a-1920 A56728-047-a-1940 A56728-047-a-1950 A56728-047-a-1960 A56728-047-a-1970	  	〈◇〉 A 〈…〉	47-a-147 47-a-148	〈◊〉 A〈…〉m●nt;	A56728-047-a-1900	A56728-047-a-1980	47-a-146	47-a-149	/home/spenteco/0/eebotcp/texts/A56/A56728.xml	HORIZONTAL ELLIPSES ADDED TO AM (GAP?)
A56728	6	3	A56728-047-a-2020 A56728-047-a-2030 A56728-047-a-2050 A56728-047-a-2070 A56728-047-a-2080 A56728-047-a-2090 A56728-047-a-2100	    	b 〈…〉 〈◇〉 D 〈…〉	47-a-153 47-a-154 47-a-155	b〈…〉 〈◊〉 D〈…〉es,	A56728-047-a-2010	A56728-047-a-2110	47-a-152	47-a-156	/home/spenteco/0/eebotcp/texts/A56/A56728.xml	HORIZONTAL ELLIPSES ADDED TO AM (GAP?)
A56728	4	3	A56728-047-a-3020 A56728-047-a-3030 A56728-047-a-3040 A56728-047-a-3060	  	Sal 〈…〉 〈◇〉	47-a-221 47-a-222 47-a-223	Sal〈…〉▪ whi●● 〈◊〉	A56728-047-a-3010	A56728-047-a-3080	47-a-220	47-a-224	/home/spenteco/0/eebotcp/texts/A56/A56728.xml	HORIZONTAL ELLIPSES ADDED TO AM (GAP?)
A56728	4	2	A56728-047-a-3350 A56728-047-a-3370 A56728-047-a-3380 A56728-047-a-3390 A56728-047-a-3400	  	〈◇〉 O 〈…〉	47-a-242 47-a-243	〈◊〉 O〈…〉s,	A56728-047-a-3330	A56728-047-a-3410	47-a-241	47-a-244	/home/spenteco/0/eebotcp/texts/A56/A56728.xml	HORIZONTAL ELLIPSES ADDED TO AM (GAP?)
A56728	4	3	A56728-047-a-3480 A56728-047-a-3490 A56728-047-a-3500 A56728-047-a-3520	   	never 〈…〉 ss 〈◇〉	47-a-250 47-a-251 47-a-252	never〈…〉ss w● 〈◊〉	A56728-047-a-3470	A56728-047-a-3540	47-a-249	47-a-253	/home/spenteco/0/eebotcp/texts/A56/A56728.xml	HORIZONTAL ELLIPSES ADDED TO AM (GAP?)
A56728	4	3	A56728-048-a-1810 A56728-048-a-1820 A56728-048-a-1830 A56728-048-a-1850 A56728-048-a-1870	  	Conf 〈…〉 on	48-a-149 48-a-150 48-a-151	Conf〈…〉on o● 〈◊〉:	A56728-048-a-1800	A56728-048-a-1880	48-a-148	48-a-152	/home/spenteco/0/eebotcp/texts/A56/A56728.xml	HORIZONTAL ELLIPSES ADDED TO AM (GAP?)
A56728	3	2	A56728-048-a-1910 A56728-048-a-1920 A56728-048-a-1940	  	Ex 〈…〉 〈◇〉	48-a-155 48-a-156	Ex〈…〉 〈◊〉	A56728-048-a-1900	A56728-048-a-1960	48-a-154	48-a-157	/home/spenteco/0/eebotcp/texts/A56/A56728.xml	HORIZONTAL ELLIPSES ADDED TO AM (GAP?)
A56728	6	3	A56728-048-a-2160 A56728-048-a-2170 A56728-048-a-2190 A56728-048-a-2210 A56728-048-a-2220 A56728-048-a-2230	     	Pra 〈…〉 〈◇〉 t 〈…〉 rt	48-a-170 48-a-171 48-a-172	Pra〈…〉 〈◊〉 t〈…〉rt	A56728-048-a-2150	A56728-048-a-2240	48-a-169	48-a-173	/home/spenteco/0/eebotcp/texts/A56/A56728.xml	HORIZONTAL ELLIPSES ADDED TO AM (GAP?)
A56728	4	1	A56728-048-a-2720 A56728-048-a-2730 A56728-048-a-2740 A56728-048-a-2750 A56728-048-a-2760 A56728-048-a-2770	 	〈…〉 R●pub	48-a-223	R●pub〈…〉,	A56728-048-a-2710	A56728-048-a-2780	48-a-222	48-a-224	/home/spenteco/0/eebotcp/texts/A56/A56728.xml	HORIZONTAL ELLIPSES ADDED TO AM (GAP?)
A74835	3	2	A74835-012-a-1190 A74835-012-a-1200 A74835-012-a-1210	  	〈◇〉 ●… n	12-a-95 12-a-96	〈◊〉 ●…n	A74835-012-a-1170 A74835-012-a-1180	A74835-012-a-1220	12-a-94	12-a-97	/home/spenteco/0/eebotcp/texts/A74/A74835.xml	HORIZONTAL ELLIPSES ADDED TO AM (GAP?)
A74835	3	2	A74835-012-a-1300 A74835-012-a-1310 A74835-012-a-1320	  	〈◇〉 ●… rigine	12-a-103 12-a-104	〈◊〉 ●…rigine	A74835-012-a-1290	A74835-012-a-1330	12-a-102	12-a-105	/home/spenteco/0/eebotcp/texts/A74/A74835.xml	HORIZONTAL ELLIPSES ADDED TO AM (GAP?)
B05523	1	4	B05523-001-a-0440		〈…〉	1-a-63 1-a-64 1-a-65 1-a-66	〈1 span left blank〉	B05523-001-a-0430	B05523-001-a-0450	1-a-62	1-a-67	/home/spenteco/0/eebotcp/texts/B05/B05523.xml	HORIZONTAL ELLIPSES ADDED TO AM (GAP?)
A21308	4	2	A21308-012-a-1300 A21308-012-a-1320 A21308-012-a-1330 A21308-012-a-1340 A21308-012-a-1350	  	〈◇〉 conge 〈…〉	12-a-111 12-a-112	〈◊〉 conge〈…〉d,	A21308-012-a-1280	A21308-012-a-1360	12-a-110	12-a-113	/home/spenteco/0/eebotcp/texts/A21/A21308.xml	HORIZONTAL ELLIPSES ADDED TO AM (GAP?)
A21308	3	2	A21308-024-a-2370 A21308-024-a-2390 A21308-024-a-2400	  	〈◇〉 〈…〉 te	24-a-194 24-a-195	〈◊〉 〈…〉te	A21308-024-a-2350	A21308-024-a-2410	24-a-193	24-a-196	/home/spenteco/0/eebotcp/texts/A21/A21308.xml	HORIZONTAL ELLIPSES ADDED TO AM (GAP?)
A21308	3	2	A21308-024-a-2450 A21308-024-a-2460 A21308-024-a-2480 A21308-024-a-2500	 	sodde 〈…〉	24-a-199 24-a-200	sodde〈…〉 〈◊〉,	A21308-024-a-2440	A21308-024-a-2510	24-a-198	24-a-201	/home/spenteco/0/eebotcp/texts/A21/A21308.xml	HORIZONTAL ELLIPSES ADDED TO AM (GAP?)
A21219	1	2	A21219-032-b-2060		L●●●●●●●●…	32-b-166 32-b-167	L〈8… letters〉	A21219-032-b-2050	A21219-032-b-2080	32-b-165	32-b-168	/home/spenteco/0/eebotcp/texts/A21/A21219.xml	HORIZONTAL ELLIPSES ADDED TO AM (GAP?)
B18984	2	8	B18984-002-b-0010 B18984-002-b-0020	 	●… INA	2-b-0 2-b-1 2-b-2 2-b-3 2-b-4 2-b-5 2-b-6 2-b-7	ornament showing crossed swords on open book ●…INA	B18984-001-a-0760 B18984-001-a-0770	B18984-002-b-0030	1-a-75	2-b-8	/home/spenteco/0/eebotcp/texts/B18/B18984.xml	HORIZONTAL ELLIPSES ADDED TO AM (GAP?)
A45866	2	1	A45866-047-a-1200 A45866-047-a-1210 A45866-047-a-1220		〈…〉	47-a-94	Burnings!〈…〉	A45866-047-a-1190	A45866-047-a-1230	47-a-93	47-a-95	/home/spenteco/0/eebotcp/texts/A45/A45866.xml	HORIZONTAL ELLIPSES ADDED TO AM (GAP?)
B21806	1	4	B21806-001-a-2050		〈…〉	1-a-155 1-a-156 1-a-157 1-a-158	〈1 span left blank〉	B21806-001-a-2030 B21806-001-a-2040	B21806-001-a-2060 B21806-001-a-2070	1-a-154	1-a-159	/home/spenteco/0/eebotcp/texts/B21/B21806.xml	HORIZONTAL ELLIPSES ADDED TO AM (GAP?)
A81514	3	1	A81514-005-a-2620 A81514-005-a-2630 A81514-005-a-2640	  	Re 〈…〉 for	5-a-216	Re〈…〉sor	A81514-005-a-2610	A81514-005-a-2650	5-a-215	5-a-217	/home/spenteco/0/eebotcp/texts/A81/A81514.xml	HORIZONTAL ELLIPSES ADDED TO AM (GAP?)
A21913	4	3	A21913-001-a-7850 A21913-001-a-7880 A21913-001-a-7900 A21913-001-a-7920	   	〈◇〉 〈◇ ●●●… e	1-a-695 1-a-696 1-a-697	Deuon〈◊〉 〈◊〉 ●●●…e	A21913-001-a-7830	A21913-001-a-7930	1-a-694	1-a-698	/home/spenteco/0/eebotcp/texts/A21/A21913.xml	HORIZONTAL ELLIPSES ADDED TO AM (GAP?)
A90409	3	2	A90409-004-b-1360 A90409-004-b-1370 A90409-004-b-1390	  	P 〈…〉 〈◇〉	4-b-115 4-b-116	P〈…〉 〈◊〉	A90409-004-b-1350	A90409-004-b-1410	4-b-114	4-b-117	/home/spenteco/0/eebotcp/texts/A90/A90409.xml	HORIZONTAL ELLIPSES ADDED TO AM (GAP?)
A27502	2	1	A27502-008-a-04700 A27502-008-a-04710	 	〈…〉 b	8-a-361	〈…〉ᵇ	A27502-008-a-04680 A27502-008-a-04690	A27502-008-a-04720	8-a-360	8-a-362	/home/spenteco/0/eebotcp/texts/A27/A27502.xml	HORIZONTAL ELLIPSES ADDED TO AM (GAP?)
A91422	4	2	A91422-003-a-0010 A91422-003-a-0020 A91422-003-a-0030 A91422-003-a-0040 A91422-003-a-0060	  	S 〈…〉 〈◇〉	3-a-0 3-a-1	S〈…〉h, 〈◊〉	A91422-002-b-3060	A91422-003-a-0080	2-b-277	3-a-2	/home/spenteco/0/eebotcp/texts/A91/A91422.xml	HORIZONTAL ELLIPSES ADDED TO AM (GAP?)
A85326	3	2	A85326-018-b-1150 A85326-018-b-1160 A85326-018-b-1170 A85326-018-b-1180	 	Co 〈…〉	18-b-101 18-b-102	Co〈…〉th: e	A85326-018-b-1140	A85326-018-b-1190	18-b-100	18-b-103	/home/spenteco/0/eebotcp/texts/A85/A85326.xml	HORIZONTAL ELLIPSES ADDED TO AM (GAP?)
A77998	5	3	A77998-001-b-0140 A77998-001-b-0160 A77998-001-b-0170 A77998-001-b-0190 A77998-001-b-0210	    	i●… parable ●… llency 〈◇〉	1-b-7 1-b-8 1-b-9	i●…parable ●…llency 〈◊〉	A77998-001-b-0120	A77998-001-b-0230	1-b-6	1-b-10	/home/spenteco/0/eebotcp/texts/A77/A77998.xml	HORIZONTAL ELLIPSES ADDED TO AM (GAP?)
B05460	1	4	B05460-002-a-0560		〈…〉	2-a-50 2-a-51 2-a-52 2-a-53	〈1 span left blank〉	B05460-002-a-0540 B05460-002-a-0550	B05460-002-a-0570	2-a-49	2-a-54	/home/spenteco/0/eebotcp/texts/B05/B05460.xml	HORIZONTAL ELLIPSES ADDED TO AM (GAP?)
B40355	2	1	B40355-092-a-0200 B40355-092-a-0210 B40355-092-a-0220			92-a-17	him?〈…〉	B40355-092-a-0190	B40355-092-a-0230	92-a-16	92-a-18	/home/spenteco/0/eebotcp/texts/B40/B40355.xml	HORIZONTAL ELLIPSES ADDED TO AM (GAP?)
B40355	2	1	B40355-139-a-1130 B40355-139-a-1140 B40355-139-a-1150			139-a-89	mariage?〈…〉	B40355-139-a-1120	B40355-139-a-1160 B40355-139-a-1170	139-a-88	139-a-90	/home/spenteco/0/eebotcp/texts/B40/B40355.xml	HORIZONTAL ELLIPSES ADDED TO AM (GAP?)
B40355	3	1	B40355-196-b-1040 B40355-196-b-1060 B40355-196-b-1061	  	●… I de	196-b-81	●…lde	B40355-196-b-1030	B40355-196-b-1070	196-b-80	196-b-82	/home/spenteco/0/eebotcp/texts/B40/B40355.xml	HORIZONTAL ELLIPSES ADDED TO AM (GAP?)
A50132	2	1	A50132-024-b-2580 A50132-024-b-2590 A50132-024-b-2600		〈…〉	24-b-213	me!〈…〉	A50132-024-b-2570	A50132-024-b-2610 A50132-024-b-2620	24-b-212	24-b-214	/home/spenteco/0/eebotcp/texts/A50/A50132.xml	HORIZONTAL ELLIPSES ADDED TO AM (GAP?)
B27774	2	9	B27774-001-a-0960 B27774-001-a-0970	 	G 〈…〉	1-a-79 1-a-80 1-a-81 1-a-82 1-a-83 1-a-84 1-a-85 1-a-86 1-a-87	portait of a man portrait of a woman G〈…〉	B27774-001-a-0940 B27774-001-a-0950	B27774-001-a-0980	1-a-78	1-a-88	/home/spenteco/0/eebotcp/texts/B27/B27774.xml	HORIZONTAL ELLIPSES ADDED TO AM (GAP?)
A88729	1	4	A88729-003-b-3050		〈…〉	3-b-269 3-b-270 3-b-271 3-b-272	〈1 span left blank〉	A88729-003-b-3040	A88729-004-a-0010	3-b-268	4-a-0	/home/spenteco/0/eebotcp/texts/A88/A88729.xml	HORIZONTAL ELLIPSES ADDED TO AM (GAP?)
A83396	1	4	A83396-004-a-1250		〈…〉	4-a-108 4-a-109 4-a-110 4-a-111	〈1 span left blank〉	A83396-004-a-1240	A83396-004-a-1260	4-a-107	4-a-112	/home/spenteco/0/eebotcp/texts/A83/A83396.xml	HORIZONTAL ELLIPSES ADDED TO AM (GAP?)
B03354	5	3	B03354-035-b-0660 B03354-035-b-0680 B03354-035-b-0690 B03354-035-b-0700 B03354-035-b-0720	  Ʋaughard  	●… nis Vaughard ●… ane	35-b-40 35-b-41 35-b-42	●…nis Vaughard ●…ane	B03354-035-b-0650	B03354-035-b-0730	35-b-39	35-b-43	/home/spenteco/0/eebotcp/texts/B03/B03354.xml	HORIZONTAL ELLIPSES ADDED TO AM (GAP?)
B03354	3	2	B03354-036-b-1010 B03354-036-b-1030 B03354-036-b-1040	  Ʋoytch	●… nne Voytch	36-b-90 36-b-91	●…nne Voytch	B03354-036-b-1000	B03354-036-b-1050	36-b-89	36-b-92	/home/spenteco/0/eebotcp/texts/B03/B03354.xml	HORIZONTAL ELLIPSES ADDED TO AM (GAP?)
B26659	3	2	B26659-006-b-4020 B26659-006-b-4030 B26659-006-b-4050	  	Solo 〈…〉 〈◇〉	6-b-354 6-b-355	Solo〈…〉 〈◊〉	B26659-006-b-4010	B26659-006-b-4070	6-b-353	6-b-356	/home/spenteco/0/eebotcp/texts/B26/B26659.xml	HORIZONTAL ELLIPSES ADDED TO AM (GAP?)
A24427	3	2	A24427-009-a-0020 A24427-009-a-0030 A24427-009-a-0040	  	es 〈…〉 agai●●●●he	9-a-2 9-a-3	agai●●● ●he	A24427-009-a-0010	A24427-009-a-0050 A24427-009-a-0060	9-a-1	9-a-4	/home/spenteco/0/eebotcp/texts/A24/A24427.xml	HORIZONTAL ELLIPSES ADDED TO AM (GAP?)
A21270	6	3	A21270-010-a-0500 A21270-010-a-0520 A21270-010-a-0540 A21270-010-a-0560 A21270-010-a-0580 A21270-010-a-0600	    	Sall●… s 〈◇〉 T●… e	10-a-39 10-a-40 10-a-41	Sall●…s 〈◊〉▪ T●…e	A21270-010-a-0480 A21270-010-a-0490	A21270-010-a-0610	10-a-38	10-a-42	/home/spenteco/0/eebotcp/texts/A21/A21270.xml	HORIZONTAL ELLIPSES ADDED TO AM (GAP?)
A21270	3	1	A21270-016-b-1060 A21270-016-b-1080 A21270-016-b-1081 A21270-016-b-1090	 	def●… I	16-b-87	def●…lde,	A21270-016-b-1050	A21270-016-b-1100	16-b-86	16-b-88	/home/spenteco/0/eebotcp/texts/A21/A21270.xml	HORIZONTAL ELLIPSES ADDED TO AM (GAP?)
A21270	3	2	A21270-019-a-0420 A21270-019-a-0440 A21270-019-a-0460 A21270-019-a-0480	 	Mar●… us	19-a-37 19-a-38	Mar●…us 〈◊〉.	A21270-019-a-0410	A21270-019-a-0490	19-a-36	19-a-39	/home/spenteco/0/eebotcp/texts/A21/A21270.xml	HORIZONTAL ELLIPSES ADDED TO AM (GAP?)
B09962	1	4	B09962-002-b-4520		〈…〉	2-b-398 2-b-399 2-b-400 2-b-401	〈1 span left blank〉	B09962-002-b-4510	B09962-002-b-4530	2-b-397	2-b-402	/home/spenteco/0/eebotcp/texts/B09/B09962.xml	HORIZONTAL ELLIPSES ADDED TO AM (GAP?)
A31277	5	3	A31277-002-a-2350 A31277-002-a-2360 A31277-002-a-2370 A31277-002-a-2390 A31277-002-a-2420	    	B 〈…〉 w 〈◇〉 〈◇〉	2-a-198 2-a-199 2-a-200	B〈…〉w 〈◊〉 〈◊〉	A31277-002-a-2340	A31277-002-a-2440	2-a-197	2-a-201	/home/spenteco/0/eebotcp/texts/A31/A31277.xml	HORIZONTAL ELLIPSES ADDED TO AM (GAP?)
B25932	5	4	B25932-004-a-06780 B25932-004-a-06790 B25932-004-a-06800 B25932-004-a-06810 B25932-004-a-06830 B25932-004-a-06840	   	●… 3. ●… ervas	4-a-567 4-a-568 4-a-569 4-a-570	●…3. ●…ervas Eyr ●….	B25932-004-a-06760	B25932-004-a-06850	4-a-566	4-a-571	/home/spenteco/0/eebotcp/texts/B25/B25932.xml	HORIZONTAL ELLIPSES ADDED TO AM (GAP?)
B25932	3	3	B25932-008-a-00560 B25932-008-a-00570 B25932-008-a-00580 B25932-008-a-00600 B25932-008-a-00610		●…	8-a-45 8-a-46 8-a-47	●…ill. Neschall ●….	B25932-008-a-00550	B25932-008-a-00620	8-a-44	8-a-48	/home/spenteco/0/eebotcp/texts/B25/B25932.xml	HORIZONTAL ELLIPSES ADDED TO AM (GAP?)
B25932	3	3	B25932-008-a-00770 B25932-008-a-00780 B25932-008-a-00800 B25932-008-a-00810	 	●… illiam	8-a-58 8-a-59 8-a-60	●…illiam Key ●….	B25932-008-a-00750	B25932-008-a-00820	8-a-57	8-a-61	/home/spenteco/0/eebotcp/texts/B25/B25932.xml	HORIZONTAL ELLIPSES ADDED TO AM (GAP?)
B25932	3	3	B25932-008-a-00950 B25932-008-a-00960 B25932-008-a-00980 B25932-008-a-00990	 	●… hn	8-a-70 8-a-71 8-a-72	●…hn Swinden ●….	B25932-008-a-00940	B25932-008-a-01000	8-a-69	8-a-73	/home/spenteco/0/eebotcp/texts/B25/B25932.xml	HORIZONTAL ELLIPSES ADDED TO AM (GAP?)
B25932	3	3	B25932-008-a-04750 B25932-008-a-04760 B25932-008-a-04780 B25932-008-a-04790	 	●… hn	8-a-403 8-a-404 8-a-405	●…hn Swinden ●….	B25932-008-a-04730 B25932-008-a-04740	B25932-008-a-04800	8-a-402	8-a-406	/home/spenteco/0/eebotcp/texts/B25/B25932.xml	HORIZONTAL ELLIPSES ADDED TO AM (GAP?)
B25932	3	3	B25932-010-a-04690 B25932-010-a-04700 B25932-010-a-04720 B25932-010-a-04730	 	●… mes	10-a-396 10-a-397 10-a-398	●…mes Mosely ●….	B25932-010-a-04670 B25932-010-a-04680	B25932-010-a-04740	10-a-395	10-a-399	/home/spenteco/0/eebotcp/texts/B25/B25932.xml	HORIZONTAL ELLIPSES ADDED TO AM (GAP?)
B25932	4	3	B25932-012-a-01050 B25932-012-a-01060 B25932-012-a-01080 B25932-012-a-01090	   	●… n Swinden● 8.	12-a-95 12-a-96 12-a-97	●…n Swinden ●…8.	B25932-012-a-01030 B25932-012-a-01040	B25932-012-a-01110	12-a-94	12-a-98	/home/spenteco/0/eebotcp/texts/B25/B25932.xml	HORIZONTAL ELLIPSES ADDED TO AM (GAP?)
B25932	4	3	B25932-012-a-05490 B25932-012-a-05500 B25932-012-a-05510 B25932-012-a-05530 B25932-012-a-05540 B25932-012-a-05550	 	●… Hastings●	12-a-486 12-a-487 12-a-488	●…m. Hastings ●…m.	B25932-012-a-05470 B25932-012-a-05480	B25932-012-a-05560	12-a-485	12-a-489	/home/spenteco/0/eebotcp/texts/B25/B25932.xml	HORIZONTAL ELLIPSES ADDED TO AM (GAP?)
B25932	4	3	B25932-012-a-08380 B25932-012-a-08390 B25932-012-a-08410 B25932-012-a-08420 B25932-012-a-08430	  	●… ancis Nevile●	12-a-735 12-a-736 12-a-737	●…ancis Nevile ●…am.	B25932-012-a-08360	B25932-012-a-08440	12-a-734	12-a-738	/home/spenteco/0/eebotcp/texts/B25/B25932.xml	HORIZONTAL ELLIPSES ADDED TO AM (GAP?)
B25932	4	3	B25932-012-a-09630 B25932-012-a-09640 B25932-012-a-09650 B25932-012-a-09670 B25932-012-a-09680 B25932-012-a-09690	 	●… Claxton●	12-a-841 12-a-842 12-a-843	●…ill. Claxton ●…x●m.	B25932-012-a-09610	B25932-012-a-09700	12-a-840	12-a-844	/home/spenteco/0/eebotcp/texts/B25/B25932.xml	HORIZONTAL ELLIPSES ADDED TO AM (GAP?)
B25932	3	3	B25932-014-a-05270 B25932-014-a-05280 B25932-014-a-05300 B25932-014-a-05310	 	●… mon	14-a-473 14-a-474 14-a-475	●…mon Fawcet ●….	B25932-014-a-05250 B25932-014-a-05260	B25932-014-a-05320	14-a-472	14-a-476	/home/spenteco/0/eebotcp/texts/B25/B25932.xml	HORIZONTAL ELLIPSES ADDED TO AM (GAP?)
B25932	4	3	B25932-016-a-04210 B25932-016-a-04220 B25932-016-a-04240 B25932-016-a-04250	   	●… fry Winter● 7.	16-a-361 16-a-362 16-a-363	●…fry Winter ●…7.	B25932-016-a-04200	B25932-016-a-04270	16-a-360	16-a-364	/home/spenteco/0/eebotcp/texts/B25/B25932.xml	HORIZONTAL ELLIPSES ADDED TO AM (GAP?)
B25932	3	3	B25932-021-a-01900 B25932-021-a-01910 B25932-021-a-01930 B25932-021-a-01940	 	●… en	21-a-158 21-a-159 21-a-160	●…en Nevile ●….	B25932-021-a-01880 B25932-021-a-01890	B25932-021-a-01950	21-a-157	21-a-161	/home/spenteco/0/eebotcp/texts/B25/B25932.xml	HORIZONTAL ELLIPSES ADDED TO AM (GAP?)
B25932	3	3	B25932-021-a-02720 B25932-021-a-02730 B25932-021-a-02750 B25932-021-a-02760	 	●… ervas	21-a-230 21-a-231 21-a-232	●…ervas Rogers ●….	B25932-021-a-02700 B25932-021-a-02710	B25932-021-a-02770	21-a-229	21-a-233	/home/spenteco/0/eebotcp/texts/B25/B25932.xml	HORIZONTAL ELLIPSES ADDED TO AM (GAP?)
B25932	3	3	B25932-021-a-03280 B25932-021-a-03290 B25932-021-a-03300 B25932-021-a-03320 B25932-021-a-03330		●…	21-a-278 21-a-279 21-a-280	●…liz. Rogers ●….	B25932-021-a-03260 B25932-021-a-03270	B25932-021-a-03340	21-a-277	21-a-281	/home/spenteco/0/eebotcp/texts/B25/B25932.xml	HORIZONTAL ELLIPSES ADDED TO AM (GAP?)
B25932	3	3	B25932-021-a-04900 B25932-021-a-04910 B25932-021-a-04930 B25932-021-a-04940	 	●… llen	21-a-419 21-a-420 21-a-421	●…llen Nevile ●….	B25932-021-a-04880 B25932-021-a-04890	B25932-021-a-04950	21-a-418	21-a-422	/home/spenteco/0/eebotcp/texts/B25/B25932.xml	HORIZONTAL ELLIPSES ADDED TO AM (GAP?)
B25932	4	3	B25932-023-a-04140 B25932-023-a-04150 B25932-023-a-04170 B25932-023-a-04180	   	●… d Bramstons● tificate	23-a-360 23-a-361 23-a-362	●…d Bramstons ●…tificate	B25932-023-a-04120 B25932-023-a-04130	B25932-023-a-04190	23-a-359	23-a-363	/home/spenteco/0/eebotcp/texts/B25/B25932.xml	HORIZONTAL ELLIPSES ADDED TO AM (GAP?)
B25932	4	3	B25932-023-a-09520 B25932-023-a-09530 B25932-023-a-09540 B25932-023-a-09560 B25932-023-a-09570	  	●… Nevile● laintiff	23-a-812 23-a-813 23-a-814	●…ran. Nevile ●…laintiff	B25932-023-a-09510	B25932-023-a-09580	23-a-811	23-a-815	/home/spenteco/0/eebotcp/texts/B25/B25932.xml	HORIZONTAL ELLIPSES ADDED TO AM (GAP?)
B25932	2	2	B25932-024-a-02630 B25932-024-a-02640 B25932-024-a-02660 B25932-024-a-02680			24-a-222 24-a-223	Int.〈…〉 J.	B25932-024-a-02610	B25932-024-a-02690	24-a-221	24-a-224	/home/spenteco/0/eebotcp/texts/B25/B25932.xml	HORIZONTAL ELLIPSES ADDED TO AM (GAP?)
B25932	3	2	B25932-024-a-03780 B25932-024-a-03790 B25932-024-a-03810 B25932-024-a-03820 B25932-024-a-03830			24-a-305 24-a-306	Int.〈…〉 Bart.	B25932-024-a-03760	B25932-024-a-03840 B25932-024-a-03850	24-a-304	24-a-307	/home/spenteco/0/eebotcp/texts/B25/B25932.xml	HORIZONTAL ELLIPSES ADDED TO AM (GAP?)
B25932	3	3	B25932-025-a-04460 B25932-025-a-04470 B25932-025-a-04480 B25932-025-a-04500 B25932-025-a-04510		●…	25-a-396 25-a-397 25-a-398	●…n. Hastings ●….	B25932-025-a-04440 B25932-025-a-04450	B25932-025-a-04520	25-a-395	25-a-399	/home/spenteco/0/eebotcp/texts/B25/B25932.xml	HORIZONTAL ELLIPSES ADDED TO AM (GAP?)
B25932	5	4	B25932-025-a-10060 B25932-025-a-10070 B25932-025-a-10080 B25932-025-a-10090 B25932-025-a-10100 B25932-025-a-10120 B25932-025-a-10130	  	●… ●… ho	25-a-866 25-a-867 25-a-868 25-a-869	●…evile. ●…ho Walker ●….	B25932-025-a-10050	B25932-025-a-10140	25-a-865	25-a-870	/home/spenteco/0/eebotcp/texts/B25/B25932.xml	HORIZONTAL ELLIPSES ADDED TO AM (GAP?)
A34690	3	2	A34690-015-b-0180 A34690-015-b-0190 A34690-015-b-0200	Ʋzzias  	Uzzias med●… g	15-b-13 15-b-14	Vzzias med●…g	A34690-015-b-0170	A34690-015-b-0210	15-b-12	15-b-15	/home/spenteco/0/eebotcp/texts/A34/A34690.xml	HORIZONTAL ELLIPSES ADDED TO AM (GAP?)
A88193	3	2	A88193-007-a-1040 A88193-007-a-1060 A88193-007-a-1080	  	tent●… s 〈◇〉	7-a-88 7-a-89	tent●…s 〈◊〉	A88193-007-a-1030	A88193-007-a-1100	7-a-87	7-a-90	/home/spenteco/0/eebotcp/texts/A88/A88193.xml	HORIZONTAL ELLIPSES ADDED TO AM (GAP?)
A80856	1	4	A80856-037-a-1670		〈…〉	37-a-137 37-a-138 37-a-139 37-a-140	〈1 span left blank〉	A80856-037-a-1650 A80856-037-a-1660	A80856-037-a-1680	37-a-136	37-a-141	/home/spenteco/0/eebotcp/texts/A80/A80856.xml	HORIZONTAL ELLIPSES ADDED TO AM (GAP?)
A80856	1	4	A80856-039-a-2000		〈…〉	39-a-171 39-a-172 39-a-173 39-a-174	〈1 span left blank〉	A80856-039-a-1980 A80856-039-a-1990	A80856-039-a-2010	39-a-170	39-a-175	/home/spenteco/0/eebotcp/texts/A80/A80856.xml	HORIZONTAL ELLIPSES ADDED TO AM (GAP?)
B28626	3	2	B28626-023-b-2030 B28626-023-b-2050 B28626-023-b-2060 B28626-023-b-2070	 	●… f	23-b-163 23-b-164	●…f Vsury,	B28626-023-b-2020	B28626-023-b-2080	23-b-162	23-b-165	/home/spenteco/0/eebotcp/texts/B28/B28626.xml	HORIZONTAL ELLIPSES ADDED TO AM (GAP?)
B04977	1	4	B04977-002-a-1480		〈…〉	2-a-132 2-a-133 2-a-134 2-a-135	〈1 span left blank〉	B04977-002-a-1470	B04977-002-a-1490	2-a-131	2-a-136	/home/spenteco/0/eebotcp/texts/B04/B04977.xml	HORIZONTAL ELLIPSES ADDED TO AM (GAP?)
B09796	1	4	B09796-001-a-4710		〈…〉	1-a-406 1-a-407 1-a-408 1-a-409	〈1 span left blank〉	B09796-001-a-4700	B09796-001-a-4720	1-a-405	1-a-410	/home/spenteco/0/eebotcp/texts/B09/B09796.xml	HORIZONTAL ELLIPSES ADDED TO AM (GAP?)
B09796	1	4	B09796-001-a-6100 B09796-001-a-6110			1-a-533 1-a-534 1-a-535 1-a-536	〈1 span left blank〉)	B09796-001-a-6080 B09796-001-a-6090	B09796-001-a-6120	1-a-532	1-a-537	/home/spenteco/0/eebotcp/texts/B09/B09796.xml	HORIZONTAL ELLIPSES ADDED TO AM (GAP?)
B09796	1	4	B09796-001-a-6230		〈…〉	1-a-546 1-a-547 1-a-548 1-a-549	〈1 span left blank〉	B09796-001-a-6220	B09796-001-a-6240 B09796-001-a-6250	1-a-545	1-a-550	/home/spenteco/0/eebotcp/texts/B09/B09796.xml	HORIZONTAL ELLIPSES ADDED TO AM (GAP?)
A18335	2	2	A18335-090-a-3920 A18335-090-a-3940 A18335-090-a-3950		●…	90-a-332 90-a-333	a ●…llionry.	A18335-090-a-3910	A18335-090-a-3960 A18335-090-a-3970	90-a-331	90-a-334	/home/spenteco/0/eebotcp/texts/A18/A18335.xml	HORIZONTAL ELLIPSES ADDED TO AM (GAP?)
A18335	4	4	A18335-125-a-1830 A18335-125-a-1840 A18335-125-a-1850 A18335-125-a-1860 A18335-125-a-1880	  	L Lik●●… e	125-a-159 125-a-160 125-a-161 125-a-162	a L〈…〉, Lik● ●…e	A18335-125-a-1820	A18335-125-a-1890	125-a-158	125-a-163	/home/spenteco/0/eebotcp/texts/A18/A18335.xml	HORIZONTAL ELLIPSES ADDED TO AM (GAP?)
A18335	3	2	A18335-203-b-3000 A18335-203-b-3020 A18335-203-b-3040	  	〈◇〉 b●… all	203-b-254 203-b-255	〈◊〉 b●…all	A18335-203-b-2980	A18335-203-b-3050 A18335-203-b-3060	203-b-253	203-b-256	/home/spenteco/0/eebotcp/texts/A18/A18335.xml	HORIZONTAL ELLIPSES ADDED TO AM (GAP?)
B21892	1	4	B21892-001-b-0680		〈…〉	1-b-61 1-b-62 1-b-63 1-b-64	〈1 span left blank〉	B21892-001-b-0670	B21892-001-b-0690	1-b-60	1-b-65	/home/spenteco/0/eebotcp/texts/B21/B21892.xml	HORIZONTAL ELLIPSES ADDED TO AM (GAP?)
A36234	5	3	A36234-009-a-0240 A36234-009-a-0260 A36234-009-a-0280 A36234-009-a-0290 A36234-009-a-0310 A36234-009-a-0320	   	〈◇〉 ●… s ●…	9-a-17 9-a-18 9-a-19	〈◊〉 ●…s ●…racter.	A36234-009-a-0220	A36234-009-a-0330	9-a-16	9-a-20	/home/spenteco/0/eebotcp/texts/A36/A36234.xml	HORIZONTAL ELLIPSES ADDED TO AM (GAP?)
B22511	3	1	B22511-132-a-1930 B22511-132-a-1940 B22511-132-a-1950	  	w 〈…〉 sh	132-a-157	W〈…〉sh	B22511-132-a-1910 B22511-132-a-1920	B22511-132-a-1960	132-a-156	132-a-158	/home/spenteco/0/eebotcp/texts/B22/B22511.xml	HORIZONTAL ELLIPSES ADDED TO AM (GAP?)
B04401	4	2	B04401-011-b-1470 B04401-011-b-1490 B04401-011-b-1500 B04401-011-b-1510 B04401-011-b-1511	  	Sove●… 't is	11-b-107 11-b-108	Sove●…ign. 'Tis	B04401-011-b-1460	B04401-011-b-1520 B04401-011-b-1530	11-b-106	11-b-109	/home/spenteco/0/eebotcp/texts/B04/B04401.xml	HORIZONTAL ELLIPSES ADDED TO AM (GAP?)
A21821	3	2	A21821-001-a-11850 A21821-001-a-11870 A21821-001-a-11890	  	〈◇〉 ●●●… ster	1-a-1041 1-a-1042	〈◊〉 ●●●…ster	A21821-001-a-11830	A21821-001-a-11900	1-a-1040	1-a-1043	/home/spenteco/0/eebotcp/texts/A21/A21821.xml	HORIZONTAL ELLIPSES ADDED TO AM (GAP?)
B17784	3	1	B17784-085-b-0840 B17784-085-b-0860 B17784-085-b-0861	  	●… I de	85-b-65	●…ide	B17784-085-b-0820 B17784-085-b-0830	B17784-085-b-0870	85-b-64	85-b-66	/home/spenteco/0/eebotcp/texts/B17/B17784.xml	HORIZONTAL ELLIPSES ADDED TO AM (GAP?)
B23962	3	6	B23962-007-a-0790 B23962-007-a-0800 B23962-007-a-0810 id-missing B23962-007-a-0880		●…	7-a-58 7-a-59 7-a-60 7-a-61 7-a-62 7-a-63	16.●… 〈◊〉 〈◊〉 〈◊〉 〈◊〉 〈◊〉,	B23962-007-a-0770 B23962-007-a-0780	B23962-007-a-0890	7-a-57	7-a-64	/home/spenteco/0/eebotcp/texts/B23/B23962.xml	HORIZONTAL ELLIPSES ADDED TO AM (GAP?)
B23962	3	6	id-missing B23962-022-a-2320 B23962-022-a-2330 B23962-022-a-2340 B23962-022-a-2350		●…dred	22-a-172 22-a-173 22-a-174 22-a-175 22-a-176 22-a-177	〈◊〉 〈◊〉 〈◊〉 〈◊〉 〈◊〉, Bishops,●…dred	B23962-022-a-2260	B23962-022-a-2390	22-a-171	22-a-178	/home/spenteco/0/eebotcp/texts/B23/B23962.xml	HORIZONTAL ELLIPSES ADDED TO AM (GAP?)
B23962	3	6	B23962-023-a-1770 B23962-023-a-1780 B23962-023-a-1790 id-missing B23962-023-a-1850		〈…〉	23-a-131 23-a-132 23-a-133 23-a-134 23-a-135 23-a-136	20.28.〈…〉 〈◊〉 〈◊〉 〈◊〉 〈◊〉 〈◊〉,	B23962-023-a-1760	B23962-023-a-1860	23-a-130	23-a-137	/home/spenteco/0/eebotcp/texts/B23/B23962.xml	HORIZONTAL ELLIPSES ADDED TO AM (GAP?)
B23962	3	6	id-missing B23962-023-b-2380 B23962-023-b-2390 B23962-023-b-2410 B23962-023-b-2420		Bi●…	23-b-167 23-b-168 23-b-169 23-b-170 23-b-171 23-b-172	〈◊〉 〈◊〉 〈◊〉 〈◊〉 〈◊〉, Bi●…ps.	B23962-023-b-2320	B23962-023-b-2430	23-b-166	23-b-173	/home/spenteco/0/eebotcp/texts/B23/B23962.xml	HORIZONTAL ELLIPSES ADDED TO AM (GAP?)
B23962	2	1	B23962-037-b-2420 B23962-037-b-2440	 	Discourage●… Discouragments	37-b-165	Discourage●…ents	B23962-037-b-2410	B23962-037-b-2450	37-b-164	37-b-166	/home/spenteco/0/eebotcp/texts/B23/B23962.xml	HORIZONTAL ELLIPSES ADDED TO AM (GAP?)
B23962	3	2	B23962-042-a-2830 B23962-042-a-2840 B23962-042-a-2860 B23962-042-a-2880	 	in 〈…〉	42-a-223 42-a-224	in〈…〉 〈◊〉,	B23962-042-a-2820	B23962-042-a-2890	42-a-222	42-a-225	/home/spenteco/0/eebotcp/texts/B23/B23962.xml	HORIZONTAL ELLIPSES ADDED TO AM (GAP?)
B23962	1	1	B23962-049-a-0760	Ʋnwor●…	Unwor●…	49-a-56	Vnwor●…	B23962-049-a-0750	B23962-049-a-0780	49-a-55	49-a-57	/home/spenteco/0/eebotcp/texts/B23/B23962.xml	HORIZONTAL ELLIPSES ADDED TO AM (GAP?)
B23962	2	1	B23962-049-a-1490 B23962-049-a-1500 B23962-049-a-1510		〈…〉	49-a-109	Vnworthiness,〈…〉	B23962-049-a-1480	B23962-049-a-1520	49-a-108	49-a-110	/home/spenteco/0/eebotcp/texts/B23/B23962.xml	HORIZONTAL ELLIPSES ADDED TO AM (GAP?)
B23962	3	2	B23962-054-a-2550 B23962-054-a-2560 B23962-054-a-2580 B23962-054-a-2600	 	to 〈…〉	54-a-190 54-a-191	to〈…〉 〈◊〉,	B23962-054-a-2540	B23962-054-a-2610	54-a-189	54-a-192	/home/spenteco/0/eebotcp/texts/B23/B23962.xml	HORIZONTAL ELLIPSES ADDED TO AM (GAP?)
B23962	4	2	B23962-058-b-1720 B23962-058-b-1740 B23962-058-b-1750 B23962-058-b-1760 B23962-058-b-1761	  	●… 't is	58-b-124 58-b-125	●…hin. 'Tis	B23962-058-b-1710	B23962-058-b-1770	58-b-123	58-b-126	/home/spenteco/0/eebotcp/texts/B23/B23962.xml	HORIZONTAL ELLIPSES ADDED TO AM (GAP?)
B23962	2	1	B23962-061-a-1790 B23962-061-a-1810	 	our selves ●…	61-a-127	selves●…ing	B23962-061-a-1790	B23962-061-a-1850	61-a-126	61-a-128	/home/spenteco/0/eebotcp/texts/B23/B23962.xml	HORIZONTAL ELLIPSES ADDED TO AM (GAP?)
B23962	1	1	B23962-062-a-0360	Ʋnrig●…	Unrig●…	62-a-27	Vnrig●…	B23962-062-a-0350	B23962-062-a-0380	62-a-26	62-a-28	/home/spenteco/0/eebotcp/texts/B23/B23962.xml	HORIZONTAL ELLIPSES ADDED TO AM (GAP?)
B29176	1	4	B29176-001-b-0180		〈…〉	1-b-20 1-b-21 1-b-22 1-b-23	〈1 span left blank〉	B29176-001-b-0170	B29176-001-b-0190	1-b-19	1-b-24	/home/spenteco/0/eebotcp/texts/B29/B29176.xml	HORIZONTAL ELLIPSES ADDED TO AM (GAP?)
A16916	3	2	A16916-045-a-1720 A16916-045-a-1740 A16916-045-a-1760	  	〈◇〉 ●… ow	45-a-140 45-a-141	〈◊〉 ●…ow	A16916-045-a-1700	A16916-045-a-1770	45-a-139	45-a-142	/home/spenteco/0/eebotcp/texts/A16/A16916.xml	HORIZONTAL ELLIPSES ADDED TO AM (GAP?)
A16916	7	8	A16916-066-a-1110 A16916-066-a-1130 A16916-066-a-1140 id-missing A16916-066-a-1200 A16916-066-a-1220 A16916-066-a-1230 A16916-066-a-1250 A16916-066-a-1260	   	●… ●… fieth ●…	66-a-85 66-a-86 66-a-87 66-a-88 66-a-89 66-a-90 66-a-91 66-a-92	●…ath, 〈◊〉 〈◊〉 〈◊〉 〈◊〉 〈◊〉 ●…fieth ●…h.	A16916-066-a-1100	A16916-066-a-1270	66-a-84	66-a-93	/home/spenteco/0/eebotcp/texts/A16/A16916.xml	HORIZONTAL ELLIPSES ADDED TO AM (GAP?)
A46739	3	2	A46739-059-a-1570 A46739-059-a-1580 A46739-059-a-1590 A46739-059-a-1600	 	〈…〉 sae	59-a-136 59-a-137	〈…〉sae 〈◊〉.	A46739-059-a-1560	A46739-059-a-1610	59-a-135	59-a-138	/home/spenteco/0/eebotcp/texts/A46/A46739.xml	HORIZONTAL ELLIPSES ADDED TO AM (GAP?)
B05582	1	4	B05582-001-a-0570		〈…〉	1-a-51 1-a-52 1-a-53 1-a-54	〈1 span left blank〉	B05582-001-a-0560	B05582-001-a-0580 B05582-001-a-0590	1-a-50	1-a-55	/home/spenteco/0/eebotcp/texts/B05/B05582.xml	HORIZONTAL ELLIPSES ADDED TO AM (GAP?)
A21686	3	2	A21686-001-a-6800 A21686-001-a-6810 A21686-001-a-6830	  	speci 〈…〉 〈◇〉	1-a-580 1-a-581	speci〈…〉 〈◊〉	A21686-001-a-6790	A21686-001-a-6850	1-a-579	1-a-582	/home/spenteco/0/eebotcp/texts/A21/A21686.xml	HORIZONTAL ELLIPSES ADDED TO AM (GAP?)
B09842	3	2	B09842-001-a-11640 B09842-001-a-11660 B09842-001-a-11680	  	〈◇〉 ●… ill	1-a-1001 1-a-1002	〈◊〉 ●…ill	B09842-001-a-11620	B09842-001-a-11690	1-a-1000	1-a-1003	/home/spenteco/0/eebotcp/texts/B09/B09842.xml	HORIZONTAL ELLIPSES ADDED TO AM (GAP?)
