dropbox_file_name	len_dropbox	len_tcp	dropbox_id	dropbox_orig	dropbox_text	tcp_locations	tcp_text	dropbox_before_id	dropbox_after_id	tcp_locations_before	tcp_locations_after	path_to_dropbox_file	error_type
A01291	1	1	A01291-020-b-1260		6	20-b-107	6.	A01291-020-b-1240 A01291-020-b-1250	A01291-020-b-1280 A01291-020-b-1290	20-b-106	20-b-108	/home/spenteco/0/eebotcp/texts/A01/A01291.xml	PUNCTUATION DROPPED AFTER NUMBER
A85236	1	1	A85236-008-b-1650		71.2	8-b-138	71.2.	A85236-008-b-1640	A85236-008-b-1670	8-b-137	8-b-139	/home/spenteco/0/eebotcp/texts/A85/A85236.xml	PUNCTUATION DROPPED AFTER NUMBER
A01431	1	1	A01431-021-a-1940		4.4	21-a-159	4.4.	A01431-021-a-1920 A01431-021-a-1930	A01431-021-a-1960	21-a-158	21-a-160	/home/spenteco/0/eebotcp/texts/A01/A01431.xml	PUNCTUATION DROPPED AFTER NUMBER
