dropbox_file_name	len_dropbox	len_tcp	dropbox_id	dropbox_orig	dropbox_text	tcp_locations	tcp_text	dropbox_before_id	dropbox_after_id	tcp_locations_before	tcp_locations_after	path_to_dropbox_file	error_type
A38054	1	1	A38054-183-b-3080		No	183-b-268	No.	A38054-183-b-3060 A38054-183-b-3070	A38054-183-b-3090	183-b-267	183-b-269	/home/spenteco/0/eebotcp/texts/A38/A38054.xml	PUNCTUATION DROPPED AFTER STRING
A38054	1	1	A38054-188-b-1900		Cic	188-b-168	Cic.	A38054-188-b-1890	A38054-188-b-1920 A38054-188-b-1930	188-b-167	188-b-169	/home/spenteco/0/eebotcp/texts/A38/A38054.xml	PUNCTUATION DROPPED AFTER STRING
A87453	1	1	A87453-040-a-1580		Yeoman	40-a-128	Yeoman,	A87453-040-a-1570	A87453-040-a-1600	40-a-127	40-a-129	/home/spenteco/0/eebotcp/texts/A87/A87453.xml	PUNCTUATION DROPPED AFTER STRING
A87453	1	1	A87453-041-a-1720		Husbandman	41-a-132	Husbandman,	A87453-041-a-1710	A87453-041-a-1740	41-a-131	41-a-133	/home/spenteco/0/eebotcp/texts/A87/A87453.xml	PUNCTUATION DROPPED AFTER STRING
A55120	1	1	A55120-012-a-0880		Or	12-a-77	Or,	A55120-012-a-0860 A55120-012-a-0870	A55120-012-a-0900	12-a-76	12-a-78	/home/spenteco/0/eebotcp/texts/A55/A55120.xml	PUNCTUATION DROPPED AFTER STRING
B09142	1	1	B09142-004-b-3480		No	4-b-300	No.	B09142-004-b-3470	B09142-004-b-3490	4-b-299	4-b-301	/home/spenteco/0/eebotcp/texts/B09/B09142.xml	PUNCTUATION DROPPED AFTER STRING
B24051	1	1	B24051-173-a-1220		No	173-a-105	No.	B24051-173-a-1200 B24051-173-a-1210	B24051-173-a-1230	173-a-104	173-a-106	/home/spenteco/0/eebotcp/texts/B24/B24051.xml	PUNCTUATION DROPPED AFTER STRING
A40012	1	1	A40012-036-a-1540		No	36-a-130	No.	A40012-036-a-1530	A40012-036-a-1550	36-a-129	36-a-131	/home/spenteco/0/eebotcp/texts/A40/A40012.xml	PUNCTUATION DROPPED AFTER STRING
B30024	1	1	B30024-020-b-0250		No	20-b-18	No.	B30024-020-b-0230	B30024-020-b-0260 B30024-020-b-0270	20-b-17	20-b-19	/home/spenteco/0/eebotcp/texts/B30/B30024.xml	PUNCTUATION DROPPED AFTER STRING
B14610	1	1	B14610-070-b-0630		truthe	70-b-50	truthe.	B14610-070-b-0620	B14610-070-b-0650	70-b-49	70-b-51	/home/spenteco/0/eebotcp/texts/B14/B14610.xml	PUNCTUATION DROPPED AFTER STRING
B09202	1	1	B09202-172-a-1720	cāt	cant	172-a-135	cāt.	B09202-172-a-1710	B09202-172-a-1740	172-a-134	172-a-136	/home/spenteco/0/eebotcp/texts/B09/B09202.xml	PUNCTUATION DROPPED AFTER STRING
A76191	1	1	A76191-011-b-4010		No	11-b-340	No.	A76191-011-b-3990 A76191-011-b-4000	A76191-011-b-4020	11-b-339	11-b-341	/home/spenteco/0/eebotcp/texts/A76/A76191.xml	PUNCTUATION DROPPED AFTER STRING
A34698	1	1	A34698-075-b-1680		No	75-b-138	No.	A34698-075-b-1660 A34698-075-b-1670	A34698-075-b-1690	75-b-137	75-b-139	/home/spenteco/0/eebotcp/texts/A34/A34698.xml	PUNCTUATION DROPPED AFTER STRING
A51630	1	1	A51630-008-a-10760		Undertaking	8-a-927	Undertaking;	A51630-008-a-10750	A51630-008-a-10780	8-a-926	8-a-928	/home/spenteco/0/eebotcp/texts/A51/A51630.xml	PUNCTUATION DROPPED AFTER STRING
A01103	1	1	A01103-056-b-4780		2a	56-b-402	2a.	A01103-056-b-4760	A01103-056-b-4800 A01103-056-b-4810	56-b-401	56-b-403	/home/spenteco/0/eebotcp/texts/A01/A01103.xml	PUNCTUATION DROPPED AFTER STRING
A01103	1	1	A01103-272-b-2370		2a	272-b-198	2a.	A01103-272-b-2340 A01103-272-b-2350	A01103-272-b-2390	272-b-197	272-b-199	/home/spenteco/0/eebotcp/texts/A01/A01103.xml	PUNCTUATION DROPPED AFTER STRING
A21213	1	1	A21213-007-b-0300		Psal	7-b-22	Psal.	A21213-007-b-0280	A21213-007-b-0320 A21213-007-b-0330	7-b-21	7-b-23	/home/spenteco/0/eebotcp/texts/A21/A21213.xml	PUNCTUATION DROPPED AFTER STRING
B20402	1	1	B20402-019-a-1960		No	19-a-165	No.	B20402-019-a-1940 B20402-019-a-1950	B20402-019-a-1970 B20402-019-a-1980	19-a-164	19-a-166	/home/spenteco/0/eebotcp/texts/B20/B20402.xml	PUNCTUATION DROPPED AFTER STRING
B20402	1	1	B20402-078-b-2160		No	78-b-186	No.	B20402-078-b-2140 B20402-078-b-2150	B20402-078-b-2170 B20402-078-b-2180	78-b-185	78-b-187	/home/spenteco/0/eebotcp/texts/B20/B20402.xml	PUNCTUATION DROPPED AFTER STRING
A45813	1	1	A45813-006-b-1870		Ingram	6-b-155	Ingram,	A45813-006-b-1860	A45813-006-b-1890	6-b-154	6-b-156	/home/spenteco/0/eebotcp/texts/A45/A45813.xml	PUNCTUATION DROPPED AFTER STRING
A45813	1	1	A45813-006-b-1920		Nott	6-b-158	Nott,	A45813-006-b-1900 A45813-006-b-1910	A45813-006-b-1940	6-b-157	6-b-159	/home/spenteco/0/eebotcp/texts/A45/A45813.xml	PUNCTUATION DROPPED AFTER STRING
A45813	1	1	A45813-007-a-1140		Ingram	7-a-95	Ingram,	A45813-007-a-1130	A45813-007-a-1160	7-a-94	7-a-96	/home/spenteco/0/eebotcp/texts/A45/A45813.xml	PUNCTUATION DROPPED AFTER STRING
A45813	1	1	A45813-007-a-1180		Nott	7-a-98	Nott,	A45813-007-a-1170	A45813-007-a-1200	7-a-97	7-a-99	/home/spenteco/0/eebotcp/texts/A45/A45813.xml	PUNCTUATION DROPPED AFTER STRING
A45813	1	1	A45813-011-a-0160		Ingram	11-a-13	Ingram,	A45813-011-a-0150	A45813-011-a-0180	11-a-12	11-a-14	/home/spenteco/0/eebotcp/texts/A45/A45813.xml	PUNCTUATION DROPPED AFTER STRING
A45813	1	1	A45813-011-a-0200		Nott	11-a-16	Nott,	A45813-011-a-0190	A45813-011-a-0220	11-a-15	11-a-17	/home/spenteco/0/eebotcp/texts/A45/A45813.xml	PUNCTUATION DROPPED AFTER STRING
A45813	1	1	A45813-011-a-1490		Ingram	11-a-125	Ingram,	A45813-011-a-1480	A45813-011-a-1510	11-a-124	11-a-126	/home/spenteco/0/eebotcp/texts/A45/A45813.xml	PUNCTUATION DROPPED AFTER STRING
A45813	1	1	A45813-011-a-1530		Nott	11-a-128	Nott,	A45813-011-a-1520	A45813-011-a-1550	11-a-127	11-a-129	/home/spenteco/0/eebotcp/texts/A45/A45813.xml	PUNCTUATION DROPPED AFTER STRING
A45813	1	1	A45813-022-b-0660		Ingram	22-b-54	Ingram,	A45813-022-b-0650	A45813-022-b-0680	22-b-53	22-b-55	/home/spenteco/0/eebotcp/texts/A45/A45813.xml	PUNCTUATION DROPPED AFTER STRING
A45813	1	1	A45813-022-b-0700		Nott	22-b-57	Nott,	A45813-022-b-0690	A45813-022-b-0720	22-b-56	22-b-58	/home/spenteco/0/eebotcp/texts/A45/A45813.xml	PUNCTUATION DROPPED AFTER STRING
A45813	1	1	A45813-032-a-1290		Ingram	32-a-109	Ingram,	A45813-032-a-1280	A45813-032-a-1310	32-a-108	32-a-110	/home/spenteco/0/eebotcp/texts/A45/A45813.xml	PUNCTUATION DROPPED AFTER STRING
A45813	1	1	A45813-032-a-1330		Nott	32-a-112	Nott,	A45813-032-a-1320	A45813-032-a-1350	32-a-111	32-a-113	/home/spenteco/0/eebotcp/texts/A45/A45813.xml	PUNCTUATION DROPPED AFTER STRING
B23745	1	1	B23745-049-a-2110		No	49-a-183	No.	B23745-049-a-2090 B23745-049-a-2100	B23745-049-a-2120	49-a-182	49-a-184	/home/spenteco/0/eebotcp/texts/B23/B23745.xml	PUNCTUATION DROPPED AFTER STRING
A21343	1	1	A21343-001-b-0400	Sʳ	Sr.	1-b-32	Sʳ.	A21343-001-b-0380 A21343-001-b-0390	A21343-001-b-0450	1-b-31	1-b-33	/home/spenteco/0/eebotcp/texts/A21/A21343.xml	PUNCTUATION DROPPED AFTER STRING
A21343	1	1	A21343-001-b-0520	Sʳ	Sr.	1-b-38	Sʳ.	A21343-001-b-0500 A21343-001-b-0510	A21343-001-b-0570	1-b-37	1-b-39	/home/spenteco/0/eebotcp/texts/A21/A21343.xml	PUNCTUATION DROPPED AFTER STRING
A21343	1	1	A21343-001-b-0660	Sʳ	Sr.	1-b-44	Sʳ.	A21343-001-b-0640 A21343-001-b-0650	A21343-001-b-0710	1-b-43	1-b-45	/home/spenteco/0/eebotcp/texts/A21/A21343.xml	PUNCTUATION DROPPED AFTER STRING
A21343	1	1	A21343-001-b-2420	Sʳ	Sr.	1-b-170	Sʳ.	A21343-001-b-2410	A21343-001-b-2470	1-b-169	1-b-171	/home/spenteco/0/eebotcp/texts/A21/A21343.xml	PUNCTUATION DROPPED AFTER STRING
A21343	1	1	A21343-001-b-2540	Sʳ	Sr.	1-b-176	Sʳ.	A21343-001-b-2520 A21343-001-b-2530	A21343-001-b-2590	1-b-175	1-b-177	/home/spenteco/0/eebotcp/texts/A21/A21343.xml	PUNCTUATION DROPPED AFTER STRING
A86754	1	1	A86754-002-b-0430		London	2-b-36	London;	A86754-002-b-0420	A86754-002-b-0450	2-b-35	2-b-37	/home/spenteco/0/eebotcp/texts/A86/A86754.xml	PUNCTUATION DROPPED AFTER STRING
A85776	1	1	A85776-005-a-0780		No	5-a-56	No.	A85776-005-a-0760 A85776-005-a-0770	A85776-005-a-0790	5-a-55	5-a-57	/home/spenteco/0/eebotcp/texts/A85/A85776.xml	PUNCTUATION DROPPED AFTER STRING
A85776	1	1	A85776-005-a-2690		No	5-a-212	No.	A85776-005-a-2660 A85776-005-a-2670 A85776-005-a-2680	A85776-005-a-2700 A85776-005-a-2710	5-a-211	5-a-213	/home/spenteco/0/eebotcp/texts/A85/A85776.xml	PUNCTUATION DROPPED AFTER STRING
B24217	1	1	B24217-066-a-0710		No	66-a-57	No.	B24217-066-a-0700	B24217-066-a-0720	66-a-56	66-a-58	/home/spenteco/0/eebotcp/texts/B24/B24217.xml	PUNCTUATION DROPPED AFTER STRING
A01291	1	1	A01291-138-b-0350		tythe	138-b-30	tythe.	A01291-138-b-0340	A01291-138-b-0370	138-b-29	138-b-31	/home/spenteco/0/eebotcp/texts/A01/A01291.xml	PUNCTUATION DROPPED AFTER STRING
A54776	1	1	A54776-005-a-4360		No	5-a-365	No.	A54776-005-a-4340 A54776-005-a-4350	A54776-005-a-4370	5-a-364	5-a-366	/home/spenteco/0/eebotcp/texts/A54/A54776.xml	PUNCTUATION DROPPED AFTER STRING
B18355	1	1	B18355-029-a-0540		No	29-a-47	No.	B18355-029-a-0520 B18355-029-a-0530	B18355-029-a-0550	29-a-46	29-a-48	/home/spenteco/0/eebotcp/texts/B18/B18355.xml	PUNCTUATION DROPPED AFTER STRING
A36232	1	1	A36232-030-a-0390		No	30-a-34	No.	A36232-030-a-0380	A36232-030-a-0400	30-a-33	30-a-35	/home/spenteco/0/eebotcp/texts/A36/A36232.xml	PUNCTUATION DROPPED AFTER STRING
A39919	1	1	A39919-014-a-1930		God	14-a-165	God;	A39919-014-a-1920	A39919-014-a-1950	14-a-164	14-a-166	/home/spenteco/0/eebotcp/texts/A39/A39919.xml	PUNCTUATION DROPPED AFTER STRING
A39919	1	1	A39919-023-b-1450		Bondage	23-b-123	Bondage;	A39919-023-b-1440	A39919-023-b-1470	23-b-122	23-b-124	/home/spenteco/0/eebotcp/texts/A39/A39919.xml	PUNCTUATION DROPPED AFTER STRING
A39919	1	1	A39919-041-a-2300		Repentance	41-a-194	Repentance,	A39919-041-a-2290	A39919-041-a-2320	41-a-193	41-a-195	/home/spenteco/0/eebotcp/texts/A39/A39919.xml	PUNCTUATION DROPPED AFTER STRING
A39919	1	1	A39919-041-a-2850		Faith	41-a-240	Faith,	A39919-041-a-2840	A39919-041-a-2870	41-a-239	41-a-241	/home/spenteco/0/eebotcp/texts/A39/A39919.xml	PUNCTUATION DROPPED AFTER STRING
A39072	1	1	A39072-003-a-2990		No	3-a-250	No.	A39072-003-a-2970 A39072-003-a-2980	A39072-003-a-3000	3-a-249	3-a-251	/home/spenteco/0/eebotcp/texts/A39/A39072.xml	PUNCTUATION DROPPED AFTER STRING
A39072	1	1	A39072-003-a-3090		No	3-a-259	No.	A39072-003-a-3070 A39072-003-a-3080	A39072-003-a-3100	3-a-258	3-a-260	/home/spenteco/0/eebotcp/texts/A39/A39072.xml	PUNCTUATION DROPPED AFTER STRING
A39072	1	1	A39072-003-b-0710		No	3-b-60	No.	A39072-003-b-0690 A39072-003-b-0700	A39072-003-b-0720	3-b-59	3-b-61	/home/spenteco/0/eebotcp/texts/A39/A39072.xml	PUNCTUATION DROPPED AFTER STRING
A39072	1	1	A39072-003-b-0910		No	3-b-78	No.	A39072-003-b-0890 A39072-003-b-0900	A39072-003-b-0920	3-b-77	3-b-79	/home/spenteco/0/eebotcp/texts/A39/A39072.xml	PUNCTUATION DROPPED AFTER STRING
A39072	1	1	A39072-004-a-0380		No	4-a-28	No.	A39072-004-a-0360 A39072-004-a-0370	A39072-004-a-0390	4-a-27	4-a-29	/home/spenteco/0/eebotcp/texts/A39/A39072.xml	PUNCTUATION DROPPED AFTER STRING
A39072	1	1	A39072-004-a-0620		No	4-a-48	No.	A39072-004-a-0600 A39072-004-a-0610	A39072-004-a-0630	4-a-47	4-a-49	/home/spenteco/0/eebotcp/texts/A39/A39072.xml	PUNCTUATION DROPPED AFTER STRING
A39072	1	1	A39072-004-a-1150		No	4-a-87	No.	A39072-004-a-1130 A39072-004-a-1140	A39072-004-a-1160	4-a-86	4-a-88	/home/spenteco/0/eebotcp/texts/A39/A39072.xml	PUNCTUATION DROPPED AFTER STRING
A39072	1	1	A39072-004-a-1250		No	4-a-95	No.	A39072-004-a-1230 A39072-004-a-1240	A39072-004-a-1260	4-a-94	4-a-96	/home/spenteco/0/eebotcp/texts/A39/A39072.xml	PUNCTUATION DROPPED AFTER STRING
A39072	1	1	A39072-004-a-1480		No	4-a-113	No.	A39072-004-a-1460 A39072-004-a-1470	A39072-004-a-1490	4-a-112	4-a-114	/home/spenteco/0/eebotcp/texts/A39/A39072.xml	PUNCTUATION DROPPED AFTER STRING
A39072	1	1	A39072-004-a-1590		No	4-a-123	No.	A39072-004-a-1570 A39072-004-a-1580	A39072-004-a-1600	4-a-122	4-a-124	/home/spenteco/0/eebotcp/texts/A39/A39072.xml	PUNCTUATION DROPPED AFTER STRING
A39072	1	1	A39072-004-a-1750		No	4-a-135	No.	A39072-004-a-1730 A39072-004-a-1740	A39072-004-a-1760	4-a-134	4-a-136	/home/spenteco/0/eebotcp/texts/A39/A39072.xml	PUNCTUATION DROPPED AFTER STRING
A39072	1	1	A39072-004-a-2380		No	4-a-182	No.	A39072-004-a-2360 A39072-004-a-2370	A39072-004-a-2390	4-a-181	4-a-183	/home/spenteco/0/eebotcp/texts/A39/A39072.xml	PUNCTUATION DROPPED AFTER STRING
A39072	1	1	A39072-004-a-2520		No	4-a-194	No.	A39072-004-a-2500 A39072-004-a-2510	A39072-004-a-2530	4-a-193	4-a-195	/home/spenteco/0/eebotcp/texts/A39/A39072.xml	PUNCTUATION DROPPED AFTER STRING
A39072	1	1	A39072-004-a-2740		No	4-a-213	No.	A39072-004-a-2720 A39072-004-a-2730	A39072-004-a-2750	4-a-212	4-a-214	/home/spenteco/0/eebotcp/texts/A39/A39072.xml	PUNCTUATION DROPPED AFTER STRING
A39072	1	1	A39072-004-a-2810		No	4-a-219	No.	A39072-004-a-2790 A39072-004-a-2800	A39072-004-a-2820	4-a-218	4-a-220	/home/spenteco/0/eebotcp/texts/A39/A39072.xml	PUNCTUATION DROPPED AFTER STRING
A39072	1	1	A39072-004-a-3090		No	4-a-241	No.	A39072-004-a-3070 A39072-004-a-3080	A39072-004-a-3100	4-a-240	4-a-242	/home/spenteco/0/eebotcp/texts/A39/A39072.xml	PUNCTUATION DROPPED AFTER STRING
A39072	1	1	A39072-004-a-3230		No	4-a-253	No.	A39072-004-a-3210 A39072-004-a-3220	A39072-004-a-3240	4-a-252	4-a-254	/home/spenteco/0/eebotcp/texts/A39/A39072.xml	PUNCTUATION DROPPED AFTER STRING
A39072	1	1	A39072-004-a-3310		No	4-a-260	No.	A39072-004-a-3290 A39072-004-a-3300	A39072-004-a-3320	4-a-259	4-a-261	/home/spenteco/0/eebotcp/texts/A39/A39072.xml	PUNCTUATION DROPPED AFTER STRING
A39072	1	1	A39072-004-a-3470		No	4-a-273	No.	A39072-004-a-3450 A39072-004-a-3460	A39072-004-a-3480	4-a-272	4-a-274	/home/spenteco/0/eebotcp/texts/A39/A39072.xml	PUNCTUATION DROPPED AFTER STRING
A39072	1	1	A39072-004-a-3520		No	4-a-277	No.	A39072-004-a-3500 A39072-004-a-3510	A39072-004-a-3530	4-a-276	4-a-278	/home/spenteco/0/eebotcp/texts/A39/A39072.xml	PUNCTUATION DROPPED AFTER STRING
A39072	1	1	A39072-004-a-3610		No	4-a-285	No.	A39072-004-a-3590 A39072-004-a-3600	A39072-004-a-3620	4-a-284	4-a-286	/home/spenteco/0/eebotcp/texts/A39/A39072.xml	PUNCTUATION DROPPED AFTER STRING
A39072	1	1	A39072-004-a-3680		No	4-a-291	No.	A39072-004-a-3660 A39072-004-a-3670	A39072-004-a-3690	4-a-290	4-a-292	/home/spenteco/0/eebotcp/texts/A39/A39072.xml	PUNCTUATION DROPPED AFTER STRING
A39072	1	1	A39072-004-a-4030		No	4-a-319	No.	A39072-004-a-4010 A39072-004-a-4020	A39072-004-a-4040	4-a-318	4-a-320	/home/spenteco/0/eebotcp/texts/A39/A39072.xml	PUNCTUATION DROPPED AFTER STRING
A39072	1	1	A39072-004-a-4130		No	4-a-327	No.	A39072-004-a-4110 A39072-004-a-4120	A39072-004-a-4140	4-a-326	4-a-328	/home/spenteco/0/eebotcp/texts/A39/A39072.xml	PUNCTUATION DROPPED AFTER STRING
A39072	1	1	A39072-004-a-4580		No	4-a-364	No.	A39072-004-a-4560 A39072-004-a-4570	A39072-004-a-4590	4-a-363	4-a-365	/home/spenteco/0/eebotcp/texts/A39/A39072.xml	PUNCTUATION DROPPED AFTER STRING
A39072	1	1	A39072-004-a-4710		No	4-a-374	No.	A39072-004-a-4690 A39072-004-a-4700	A39072-004-a-4720	4-a-373	4-a-375	/home/spenteco/0/eebotcp/texts/A39/A39072.xml	PUNCTUATION DROPPED AFTER STRING
A39072	1	1	A39072-004-a-4750		No	4-a-377	No.	A39072-004-a-4730 A39072-004-a-4740	A39072-004-a-4760	4-a-376	4-a-378	/home/spenteco/0/eebotcp/texts/A39/A39072.xml	PUNCTUATION DROPPED AFTER STRING
A39072	1	1	A39072-004-a-4800		No	4-a-381	No.	A39072-004-a-4780 A39072-004-a-4790	A39072-004-a-4810	4-a-380	4-a-382	/home/spenteco/0/eebotcp/texts/A39/A39072.xml	PUNCTUATION DROPPED AFTER STRING
A39072	1	1	A39072-004-b-1810		No	4-b-136	No.	A39072-004-b-1790 A39072-004-b-1800	A39072-004-b-1820	4-b-135	4-b-137	/home/spenteco/0/eebotcp/texts/A39/A39072.xml	PUNCTUATION DROPPED AFTER STRING
A39072	1	1	A39072-004-b-1910		No	4-b-145	No.	A39072-004-b-1890 A39072-004-b-1900	A39072-004-b-1920	4-b-144	4-b-146	/home/spenteco/0/eebotcp/texts/A39/A39072.xml	PUNCTUATION DROPPED AFTER STRING
A39072	1	1	A39072-004-b-2020		No	4-b-155	No.	A39072-004-b-2000 A39072-004-b-2010	A39072-004-b-2030	4-b-154	4-b-156	/home/spenteco/0/eebotcp/texts/A39/A39072.xml	PUNCTUATION DROPPED AFTER STRING
A39072	1	1	A39072-004-b-2440		No	4-b-189	No.	A39072-004-b-2420 A39072-004-b-2430	A39072-004-b-2450	4-b-188	4-b-190	/home/spenteco/0/eebotcp/texts/A39/A39072.xml	PUNCTUATION DROPPED AFTER STRING
A39072	1	1	A39072-004-b-3040		No	4-b-238	No.	A39072-004-b-3020 A39072-004-b-3030	A39072-004-b-3050	4-b-237	4-b-239	/home/spenteco/0/eebotcp/texts/A39/A39072.xml	PUNCTUATION DROPPED AFTER STRING
A39072	1	1	A39072-004-b-3140		No	4-b-247	No.	A39072-004-b-3120 A39072-004-b-3130	A39072-004-b-3150	4-b-246	4-b-248	/home/spenteco/0/eebotcp/texts/A39/A39072.xml	PUNCTUATION DROPPED AFTER STRING
A39072	1	1	A39072-005-a-0620		No	5-a-49	No.	A39072-005-a-0600 A39072-005-a-0610	A39072-005-a-0630	5-a-48	5-a-50	/home/spenteco/0/eebotcp/texts/A39/A39072.xml	PUNCTUATION DROPPED AFTER STRING
A39072	1	1	A39072-005-a-0660		No	5-a-52	No.	A39072-005-a-0640 A39072-005-a-0650	A39072-005-a-0670	5-a-51	5-a-53	/home/spenteco/0/eebotcp/texts/A39/A39072.xml	PUNCTUATION DROPPED AFTER STRING
A39072	1	1	A39072-005-a-0940		No	5-a-73	No.	A39072-005-a-0920 A39072-005-a-0930	A39072-005-a-0950	5-a-72	5-a-74	/home/spenteco/0/eebotcp/texts/A39/A39072.xml	PUNCTUATION DROPPED AFTER STRING
A39072	1	1	A39072-005-a-1450		No	5-a-113	No.	A39072-005-a-1430 A39072-005-a-1440	A39072-005-a-1460	5-a-112	5-a-114	/home/spenteco/0/eebotcp/texts/A39/A39072.xml	PUNCTUATION DROPPED AFTER STRING
A39072	1	1	A39072-005-a-1600		No	5-a-125	No.	A39072-005-a-1580 A39072-005-a-1590	A39072-005-a-1610	5-a-124	5-a-126	/home/spenteco/0/eebotcp/texts/A39/A39072.xml	PUNCTUATION DROPPED AFTER STRING
A39072	1	1	A39072-005-a-1850		No	5-a-145	No.	A39072-005-a-1830 A39072-005-a-1840	A39072-005-a-1860	5-a-144	5-a-146	/home/spenteco/0/eebotcp/texts/A39/A39072.xml	PUNCTUATION DROPPED AFTER STRING
A39072	1	1	A39072-005-a-3090		No	5-a-249	No.	A39072-005-a-3070 A39072-005-a-3080	A39072-005-a-3100	5-a-248	5-a-250	/home/spenteco/0/eebotcp/texts/A39/A39072.xml	PUNCTUATION DROPPED AFTER STRING
A39072	1	1	A39072-005-a-3170		No	5-a-256	No.	A39072-005-a-3150 A39072-005-a-3160	A39072-005-a-3180	5-a-255	5-a-257	/home/spenteco/0/eebotcp/texts/A39/A39072.xml	PUNCTUATION DROPPED AFTER STRING
A39072	1	1	A39072-005-a-3640		No	5-a-297	No.	A39072-005-a-3620 A39072-005-a-3630	A39072-005-a-3650	5-a-296	5-a-298	/home/spenteco/0/eebotcp/texts/A39/A39072.xml	PUNCTUATION DROPPED AFTER STRING
A39072	1	1	A39072-005-a-4070		No	5-a-331	No.	A39072-005-a-4050 A39072-005-a-4060	A39072-005-a-4080	5-a-330	5-a-332	/home/spenteco/0/eebotcp/texts/A39/A39072.xml	PUNCTUATION DROPPED AFTER STRING
A39072	1	1	A39072-005-a-4190		No	5-a-342	No.	A39072-005-a-4170 A39072-005-a-4180	A39072-005-b-0010	5-a-341	5-b-0	/home/spenteco/0/eebotcp/texts/A39/A39072.xml	PUNCTUATION DROPPED AFTER STRING
A39072	1	1	A39072-005-b-0150		No	5-b-12	No.	A39072-005-b-0130 A39072-005-b-0140	A39072-005-b-0160	5-b-11	5-b-13	/home/spenteco/0/eebotcp/texts/A39/A39072.xml	PUNCTUATION DROPPED AFTER STRING
A39072	1	1	A39072-005-b-3680		No	5-b-305	No.	A39072-005-b-3660 A39072-005-b-3670	A39072-005-b-3690	5-b-304	5-b-306	/home/spenteco/0/eebotcp/texts/A39/A39072.xml	PUNCTUATION DROPPED AFTER STRING
A39072	1	1	A39072-006-a-0310		No	6-a-25	No.	A39072-006-a-0290 A39072-006-a-0300	A39072-006-a-0320	6-a-24	6-a-26	/home/spenteco/0/eebotcp/texts/A39/A39072.xml	PUNCTUATION DROPPED AFTER STRING
A39072	1	1	A39072-006-a-3480		No	6-a-276	No.	A39072-006-a-3460 A39072-006-a-3470	A39072-006-a-3490	6-a-275	6-a-277	/home/spenteco/0/eebotcp/texts/A39/A39072.xml	PUNCTUATION DROPPED AFTER STRING
A39072	1	1	A39072-006-a-3560		No	6-a-283	No.	A39072-006-a-3540 A39072-006-a-3550	A39072-006-a-3570	6-a-282	6-a-284	/home/spenteco/0/eebotcp/texts/A39/A39072.xml	PUNCTUATION DROPPED AFTER STRING
A39072	1	1	A39072-006-b-2170		No	6-b-167	No.	A39072-006-b-2140 A39072-006-b-2160	A39072-006-b-2180	6-b-166	6-b-168	/home/spenteco/0/eebotcp/texts/A39/A39072.xml	PUNCTUATION DROPPED AFTER STRING
A39072	1	1	A39072-006-b-2430		No	6-b-189	No.	A39072-006-b-2410 A39072-006-b-2420	A39072-006-b-2440	6-b-188	6-b-190	/home/spenteco/0/eebotcp/texts/A39/A39072.xml	PUNCTUATION DROPPED AFTER STRING
A39072	1	1	A39072-006-b-2710		No	6-b-212	No.	A39072-006-b-2690 A39072-006-b-2700	A39072-006-b-2720	6-b-211	6-b-213	/home/spenteco/0/eebotcp/texts/A39/A39072.xml	PUNCTUATION DROPPED AFTER STRING
A39072	1	1	A39072-006-b-2770		No	6-b-217	No.	A39072-006-b-2750 A39072-006-b-2760	A39072-006-b-2780	6-b-216	6-b-218	/home/spenteco/0/eebotcp/texts/A39/A39072.xml	PUNCTUATION DROPPED AFTER STRING
A39072	1	1	A39072-007-a-1170		No	7-a-97	No.	A39072-007-a-1150 A39072-007-a-1160	A39072-007-a-1180	7-a-96	7-a-98	/home/spenteco/0/eebotcp/texts/A39/A39072.xml	PUNCTUATION DROPPED AFTER STRING
A39072	1	1	A39072-007-a-1340		No	7-a-113	No.	A39072-007-a-1320 A39072-007-a-1330	A39072-007-a-1350	7-a-112	7-a-114	/home/spenteco/0/eebotcp/texts/A39/A39072.xml	PUNCTUATION DROPPED AFTER STRING
A39072	1	1	A39072-007-a-2530		No	7-a-213	No.	A39072-007-a-2510 A39072-007-a-2520	A39072-007-a-2540	7-a-212	7-a-214	/home/spenteco/0/eebotcp/texts/A39/A39072.xml	PUNCTUATION DROPPED AFTER STRING
A39072	1	1	A39072-007-a-2980		No	7-a-250	No.	A39072-007-a-2960 A39072-007-a-2970	A39072-007-a-2990	7-a-249	7-a-251	/home/spenteco/0/eebotcp/texts/A39/A39072.xml	PUNCTUATION DROPPED AFTER STRING
A39072	1	1	A39072-007-a-3420		No	7-a-287	No.	A39072-007-a-3400 A39072-007-a-3410	A39072-007-a-3430	7-a-286	7-a-288	/home/spenteco/0/eebotcp/texts/A39/A39072.xml	PUNCTUATION DROPPED AFTER STRING
A39072	1	1	A39072-007-b-0610		No	7-b-47	No.	A39072-007-b-0590 A39072-007-b-0600	A39072-007-b-0620	7-b-46	7-b-48	/home/spenteco/0/eebotcp/texts/A39/A39072.xml	PUNCTUATION DROPPED AFTER STRING
A39072	1	1	A39072-007-b-0700		No	7-b-55	No.	A39072-007-b-0680 A39072-007-b-0690	A39072-007-b-0710	7-b-54	7-b-56	/home/spenteco/0/eebotcp/texts/A39/A39072.xml	PUNCTUATION DROPPED AFTER STRING
A39072	1	1	A39072-007-b-2840		No	7-b-239	No.	A39072-007-b-2820 A39072-007-b-2830	A39072-007-b-2850	7-b-238	7-b-240	/home/spenteco/0/eebotcp/texts/A39/A39072.xml	PUNCTUATION DROPPED AFTER STRING
A39072	1	1	A39072-007-b-3080		No	7-b-259	No.	A39072-007-b-3060 A39072-007-b-3070	A39072-007-b-3090	7-b-258	7-b-260	/home/spenteco/0/eebotcp/texts/A39/A39072.xml	PUNCTUATION DROPPED AFTER STRING
A39072	1	1	A39072-008-a-2160		No	8-a-174	No.	A39072-008-a-2140 A39072-008-a-2150	A39072-008-a-2170	8-a-173	8-a-175	/home/spenteco/0/eebotcp/texts/A39/A39072.xml	PUNCTUATION DROPPED AFTER STRING
A39072	1	1	A39072-008-b-3060		No	8-b-237	No.	A39072-008-b-3040 A39072-008-b-3050	A39072-008-b-3070	8-b-236	8-b-238	/home/spenteco/0/eebotcp/texts/A39/A39072.xml	PUNCTUATION DROPPED AFTER STRING
A39072	1	1	A39072-008-b-3320		No	8-b-257	No.	A39072-008-b-3300 A39072-008-b-3310	A39072-008-b-3330	8-b-256	8-b-258	/home/spenteco/0/eebotcp/texts/A39/A39072.xml	PUNCTUATION DROPPED AFTER STRING
A39072	1	1	A39072-009-a-4170		No	9-a-329	No.	A39072-009-a-4150 A39072-009-a-4160	A39072-009-a-4180	9-a-328	9-a-330	/home/spenteco/0/eebotcp/texts/A39/A39072.xml	PUNCTUATION DROPPED AFTER STRING
A39072	1	1	A39072-009-b-2160		No	9-b-181	No.	A39072-009-b-2140 A39072-009-b-2150	A39072-009-b-2170	9-b-180	9-b-182	/home/spenteco/0/eebotcp/texts/A39/A39072.xml	PUNCTUATION DROPPED AFTER STRING
A39072	1	1	A39072-009-b-2310		No	9-b-195	No.	A39072-009-b-2290 A39072-009-b-2300	A39072-009-b-2320	9-b-194	9-b-196	/home/spenteco/0/eebotcp/texts/A39/A39072.xml	PUNCTUATION DROPPED AFTER STRING
A39072	1	1	A39072-009-b-2780		No	9-b-233	No.	A39072-009-b-2760 A39072-009-b-2770	A39072-009-b-2790	9-b-232	9-b-234	/home/spenteco/0/eebotcp/texts/A39/A39072.xml	PUNCTUATION DROPPED AFTER STRING
A39072	1	1	A39072-009-b-2880		No	9-b-242	No.	A39072-009-b-2860 A39072-009-b-2870	A39072-009-b-2890	9-b-241	9-b-243	/home/spenteco/0/eebotcp/texts/A39/A39072.xml	PUNCTUATION DROPPED AFTER STRING
A39072	1	1	A39072-010-a-1770		No	10-a-138	No.	A39072-010-a-1750 A39072-010-a-1760	A39072-010-a-1780	10-a-137	10-a-139	/home/spenteco/0/eebotcp/texts/A39/A39072.xml	PUNCTUATION DROPPED AFTER STRING
A39072	1	1	A39072-010-a-2130		No	10-a-167	No.	A39072-010-a-2110 A39072-010-a-2120	A39072-010-a-2140	10-a-166	10-a-168	/home/spenteco/0/eebotcp/texts/A39/A39072.xml	PUNCTUATION DROPPED AFTER STRING
A39072	1	1	A39072-010-a-2330		No	10-a-184	No.	A39072-010-a-2310 A39072-010-a-2320	A39072-010-a-2340	10-a-183	10-a-185	/home/spenteco/0/eebotcp/texts/A39/A39072.xml	PUNCTUATION DROPPED AFTER STRING
A39072	1	1	A39072-010-a-2740		No	10-a-218	No.	A39072-010-a-2720 A39072-010-a-2730	A39072-010-a-2750	10-a-217	10-a-219	/home/spenteco/0/eebotcp/texts/A39/A39072.xml	PUNCTUATION DROPPED AFTER STRING
A39072	1	1	A39072-010-b-1850		No	10-b-142	No.	A39072-010-b-1830 A39072-010-b-1840	A39072-010-b-1860	10-b-141	10-b-143	/home/spenteco/0/eebotcp/texts/A39/A39072.xml	PUNCTUATION DROPPED AFTER STRING
A39072	1	1	A39072-010-b-1940		No	10-b-150	No.	A39072-010-b-1920 A39072-010-b-1930	A39072-010-b-1950	10-b-149	10-b-151	/home/spenteco/0/eebotcp/texts/A39/A39072.xml	PUNCTUATION DROPPED AFTER STRING
A39072	1	1	A39072-010-b-2180		No	10-b-171	No.	A39072-010-b-2160 A39072-010-b-2170	A39072-010-b-2190	10-b-170	10-b-172	/home/spenteco/0/eebotcp/texts/A39/A39072.xml	PUNCTUATION DROPPED AFTER STRING
A39072	1	1	A39072-010-b-2340		No	10-b-185	No.	A39072-010-b-2320 A39072-010-b-2330	A39072-010-b-2350	10-b-184	10-b-186	/home/spenteco/0/eebotcp/texts/A39/A39072.xml	PUNCTUATION DROPPED AFTER STRING
A39072	1	1	A39072-010-b-2670		No	10-b-212	No.	A39072-010-b-2650 A39072-010-b-2660	A39072-010-b-2680	10-b-211	10-b-213	/home/spenteco/0/eebotcp/texts/A39/A39072.xml	PUNCTUATION DROPPED AFTER STRING
A39072	1	1	A39072-011-a-3570		No	11-a-290	No.	A39072-011-a-3550 A39072-011-a-3560	A39072-011-a-3580	11-a-289	11-a-291	/home/spenteco/0/eebotcp/texts/A39/A39072.xml	PUNCTUATION DROPPED AFTER STRING
A39072	1	1	A39072-011-a-3740		No	11-a-305	No.	A39072-011-a-3720 A39072-011-a-3730	A39072-011-a-3750	11-a-304	11-a-306	/home/spenteco/0/eebotcp/texts/A39/A39072.xml	PUNCTUATION DROPPED AFTER STRING
A39072	1	1	A39072-011-a-3980		No	11-a-326	No.	A39072-011-a-3960 A39072-011-a-3970	A39072-011-a-3990	11-a-325	11-a-327	/home/spenteco/0/eebotcp/texts/A39/A39072.xml	PUNCTUATION DROPPED AFTER STRING
A39072	1	1	A39072-011-a-4070		No	11-a-334	No.	A39072-011-a-4050 A39072-011-a-4060	A39072-011-a-4080	11-a-333	11-a-335	/home/spenteco/0/eebotcp/texts/A39/A39072.xml	PUNCTUATION DROPPED AFTER STRING
A39072	1	1	A39072-011-b-2250		No	11-b-185	No.	A39072-011-b-2230 A39072-011-b-2240	A39072-011-b-2260	11-b-184	11-b-186	/home/spenteco/0/eebotcp/texts/A39/A39072.xml	PUNCTUATION DROPPED AFTER STRING
A39072	1	1	A39072-011-b-2960		No	11-b-241	No.	A39072-011-b-2940 A39072-011-b-2950	A39072-011-b-2970	11-b-240	11-b-242	/home/spenteco/0/eebotcp/texts/A39/A39072.xml	PUNCTUATION DROPPED AFTER STRING
A39072	1	1	A39072-011-b-3280		No	11-b-268	No.	A39072-011-b-3260 A39072-011-b-3270	A39072-011-b-3290	11-b-267	11-b-269	/home/spenteco/0/eebotcp/texts/A39/A39072.xml	PUNCTUATION DROPPED AFTER STRING
A39072	1	1	A39072-011-b-3380		No	11-b-277	No.	A39072-011-b-3360 A39072-011-b-3370	A39072-011-b-3390	11-b-276	11-b-278	/home/spenteco/0/eebotcp/texts/A39/A39072.xml	PUNCTUATION DROPPED AFTER STRING
A39072	1	1	A39072-011-b-3710		No	11-b-302	No.	A39072-011-b-3690 A39072-011-b-3700	A39072-011-b-3720	11-b-301	11-b-303	/home/spenteco/0/eebotcp/texts/A39/A39072.xml	PUNCTUATION DROPPED AFTER STRING
A39072	1	1	A39072-012-a-1910		No	12-a-156	No.	A39072-012-a-1890 A39072-012-a-1900	A39072-012-a-1920	12-a-155	12-a-157	/home/spenteco/0/eebotcp/texts/A39/A39072.xml	PUNCTUATION DROPPED AFTER STRING
A39072	1	1	A39072-012-a-2240		No	12-a-184	No.	A39072-012-a-2220 A39072-012-a-2230	A39072-012-a-2250	12-a-183	12-a-185	/home/spenteco/0/eebotcp/texts/A39/A39072.xml	PUNCTUATION DROPPED AFTER STRING
A39072	1	1	A39072-012-a-2320		No	12-a-191	No.	A39072-012-a-2300 A39072-012-a-2310	A39072-012-a-2330	12-a-190	12-a-192	/home/spenteco/0/eebotcp/texts/A39/A39072.xml	PUNCTUATION DROPPED AFTER STRING
A39072	1	1	A39072-012-a-2640		No	12-a-218	No.	A39072-012-a-2610 A39072-012-a-2630	A39072-012-a-2650	12-a-217	12-a-219	/home/spenteco/0/eebotcp/texts/A39/A39072.xml	PUNCTUATION DROPPED AFTER STRING
A39072	1	1	A39072-012-a-2730		No	12-a-226	No.	A39072-012-a-2710 A39072-012-a-2720	A39072-012-a-2740	12-a-225	12-a-227	/home/spenteco/0/eebotcp/texts/A39/A39072.xml	PUNCTUATION DROPPED AFTER STRING
A39072	1	1	A39072-012-a-2910		No	12-a-241	No.	A39072-012-a-2890 A39072-012-a-2900	A39072-012-a-2920	12-a-240	12-a-242	/home/spenteco/0/eebotcp/texts/A39/A39072.xml	PUNCTUATION DROPPED AFTER STRING
A39072	1	1	A39072-012-a-2970		No	12-a-246	No.	A39072-012-a-2950 A39072-012-a-2960	A39072-012-a-2980	12-a-245	12-a-247	/home/spenteco/0/eebotcp/texts/A39/A39072.xml	PUNCTUATION DROPPED AFTER STRING
A39072	1	1	A39072-012-b-3530		No	12-b-283	No.	A39072-012-b-3510 A39072-012-b-3520	A39072-012-b-3540	12-b-282	12-b-284	/home/spenteco/0/eebotcp/texts/A39/A39072.xml	PUNCTUATION DROPPED AFTER STRING
A39072	1	1	A39072-012-b-3640		No	12-b-293	No.	A39072-012-b-3620 A39072-012-b-3630	A39072-012-b-3650	12-b-292	12-b-294	/home/spenteco/0/eebotcp/texts/A39/A39072.xml	PUNCTUATION DROPPED AFTER STRING
A39072	1	1	A39072-012-b-3800		No	12-b-306	No.	A39072-012-b-3780 A39072-012-b-3790	A39072-012-b-3810	12-b-305	12-b-307	/home/spenteco/0/eebotcp/texts/A39/A39072.xml	PUNCTUATION DROPPED AFTER STRING
A39072	1	1	A39072-013-a-0010		No	13-a-0	No.	A39072-012-b-4260 A39072-012-b-4270	A39072-013-a-0020	12-b-344	13-a-1	/home/spenteco/0/eebotcp/texts/A39/A39072.xml	PUNCTUATION DROPPED AFTER STRING
A39072	1	1	A39072-013-a-2580		No	13-a-216	No.	A39072-013-a-2560 A39072-013-a-2570	A39072-013-a-2590	13-a-215	13-a-217	/home/spenteco/0/eebotcp/texts/A39/A39072.xml	PUNCTUATION DROPPED AFTER STRING
A39072	1	1	A39072-013-a-2850		No	13-a-238	No.	A39072-013-a-2830 A39072-013-a-2840	A39072-013-a-2860	13-a-237	13-a-239	/home/spenteco/0/eebotcp/texts/A39/A39072.xml	PUNCTUATION DROPPED AFTER STRING
A39072	1	1	A39072-013-a-3150		No	13-a-263	No.	A39072-013-a-3130 A39072-013-a-3140	A39072-013-a-3160	13-a-262	13-a-264	/home/spenteco/0/eebotcp/texts/A39/A39072.xml	PUNCTUATION DROPPED AFTER STRING
A39072	1	1	A39072-013-b-1530		No	13-b-129	No.	A39072-013-b-1510 A39072-013-b-1520	A39072-013-b-1540	13-b-128	13-b-130	/home/spenteco/0/eebotcp/texts/A39/A39072.xml	PUNCTUATION DROPPED AFTER STRING
A39072	1	1	A39072-014-a-3680		No	14-a-300	No.	A39072-014-a-3660 A39072-014-a-3670	A39072-014-a-3690	14-a-299	14-a-301	/home/spenteco/0/eebotcp/texts/A39/A39072.xml	PUNCTUATION DROPPED AFTER STRING
A39072	1	1	A39072-014-a-3990		No	14-a-325	No.	A39072-014-a-3970 A39072-014-a-3980	A39072-014-a-4000	14-a-324	14-a-326	/home/spenteco/0/eebotcp/texts/A39/A39072.xml	PUNCTUATION DROPPED AFTER STRING
A39072	1	1	A39072-014-b-0010		No	14-b-0	No.	A39072-014-a-4070 A39072-014-a-4080	A39072-014-b-0020	14-a-333	14-b-1	/home/spenteco/0/eebotcp/texts/A39/A39072.xml	PUNCTUATION DROPPED AFTER STRING
A39072	1	1	A39072-014-b-0150		No	14-b-12	No.	A39072-014-b-0130 A39072-014-b-0140	A39072-014-b-0160	14-b-11	14-b-13	/home/spenteco/0/eebotcp/texts/A39/A39072.xml	PUNCTUATION DROPPED AFTER STRING
A39072	1	1	A39072-014-b-0510		No	14-b-42	No.	A39072-014-b-0490 A39072-014-b-0500	A39072-014-b-0520	14-b-41	14-b-43	/home/spenteco/0/eebotcp/texts/A39/A39072.xml	PUNCTUATION DROPPED AFTER STRING
A39072	1	1	A39072-014-b-0550		No	14-b-45	No.	A39072-014-b-0530 A39072-014-b-0540	A39072-014-b-0560	14-b-44	14-b-46	/home/spenteco/0/eebotcp/texts/A39/A39072.xml	PUNCTUATION DROPPED AFTER STRING
A39072	1	1	A39072-014-b-3670		No	14-b-295	No.	A39072-014-b-3650 A39072-014-b-3660	A39072-014-b-3680 A39072-014-b-3690	14-b-294	14-b-296	/home/spenteco/0/eebotcp/texts/A39/A39072.xml	PUNCTUATION DROPPED AFTER STRING
A39072	1	1	A39072-014-b-3750		No	14-b-301	No.	A39072-014-b-3730 A39072-014-b-3740	A39072-014-b-3760	14-b-300	14-b-302	/home/spenteco/0/eebotcp/texts/A39/A39072.xml	PUNCTUATION DROPPED AFTER STRING
A39072	1	1	A39072-014-b-3840		No	14-b-309	No.	A39072-014-b-3820 A39072-014-b-3830	A39072-014-b-3850	14-b-308	14-b-310	/home/spenteco/0/eebotcp/texts/A39/A39072.xml	PUNCTUATION DROPPED AFTER STRING
A39072	1	1	A39072-015-a-2950		No	15-a-239	No.	A39072-015-a-2930 A39072-015-a-2940	A39072-015-a-2960	15-a-238	15-a-240	/home/spenteco/0/eebotcp/texts/A39/A39072.xml	PUNCTUATION DROPPED AFTER STRING
A39072	1	1	A39072-015-a-3070		No	15-a-250	No.	A39072-015-a-3050 A39072-015-a-3060	A39072-015-a-3080	15-a-249	15-a-251	/home/spenteco/0/eebotcp/texts/A39/A39072.xml	PUNCTUATION DROPPED AFTER STRING
A39072	1	1	A39072-015-a-3460		No	15-a-283	No.	A39072-015-a-3440 A39072-015-a-3450	A39072-015-a-3470	15-a-282	15-a-284	/home/spenteco/0/eebotcp/texts/A39/A39072.xml	PUNCTUATION DROPPED AFTER STRING
A39072	1	1	A39072-015-a-3540		No	15-a-290	No.	A39072-015-a-3520 A39072-015-a-3530	A39072-015-a-3550	15-a-289	15-a-291	/home/spenteco/0/eebotcp/texts/A39/A39072.xml	PUNCTUATION DROPPED AFTER STRING
A39072	1	1	A39072-015-a-3620		No	15-a-297	No.	A39072-015-a-3600 A39072-015-a-3610	A39072-015-a-3630	15-a-296	15-a-298	/home/spenteco/0/eebotcp/texts/A39/A39072.xml	PUNCTUATION DROPPED AFTER STRING
A39072	1	1	A39072-015-a-3860		No	15-a-317	No.	A39072-015-a-3840 A39072-015-a-3850	A39072-015-a-3870	15-a-316	15-a-318	/home/spenteco/0/eebotcp/texts/A39/A39072.xml	PUNCTUATION DROPPED AFTER STRING
A39072	1	1	A39072-016-a-0190		No	16-a-13	No.	A39072-016-a-0170 A39072-016-a-0180	A39072-016-a-0200	16-a-12	16-a-14	/home/spenteco/0/eebotcp/texts/A39/A39072.xml	PUNCTUATION DROPPED AFTER STRING
A39072	1	1	A39072-016-a-0370		No	16-a-29	No.	A39072-016-a-0350 A39072-016-a-0360	A39072-016-a-0380	16-a-28	16-a-30	/home/spenteco/0/eebotcp/texts/A39/A39072.xml	PUNCTUATION DROPPED AFTER STRING
A39072	1	1	A39072-016-a-0430		No	16-a-34	No.	A39072-016-a-0410 A39072-016-a-0420	A39072-016-a-0440	16-a-33	16-a-35	/home/spenteco/0/eebotcp/texts/A39/A39072.xml	PUNCTUATION DROPPED AFTER STRING
A39072	1	1	A39072-016-a-0750		No	16-a-59	No.	A39072-016-a-0730 A39072-016-a-0740	A39072-016-a-0760	16-a-58	16-a-60	/home/spenteco/0/eebotcp/texts/A39/A39072.xml	PUNCTUATION DROPPED AFTER STRING
A39072	1	1	A39072-016-b-0150		No	16-b-11	No.	A39072-016-b-0130 A39072-016-b-0140	A39072-016-b-0160	16-b-10	16-b-12	/home/spenteco/0/eebotcp/texts/A39/A39072.xml	PUNCTUATION DROPPED AFTER STRING
A39072	1	1	A39072-016-b-0890		No	16-b-72	No.	A39072-016-b-0870 A39072-016-b-0880	A39072-016-b-0900	16-b-71	16-b-73	/home/spenteco/0/eebotcp/texts/A39/A39072.xml	PUNCTUATION DROPPED AFTER STRING
A39072	1	1	A39072-016-b-1110		No	16-b-91	No.	A39072-016-b-1090 A39072-016-b-1100	A39072-016-b-1120	16-b-90	16-b-92	/home/spenteco/0/eebotcp/texts/A39/A39072.xml	PUNCTUATION DROPPED AFTER STRING
A39072	1	1	A39072-016-b-1170		No	16-b-96	No.	A39072-016-b-1150 A39072-016-b-1160	A39072-016-b-1180	16-b-95	16-b-97	/home/spenteco/0/eebotcp/texts/A39/A39072.xml	PUNCTUATION DROPPED AFTER STRING
A39072	1	1	A39072-017-a-0030		No	17-a-1	No.	A39072-017-a-0010 A39072-017-a-0020	A39072-017-a-0040	17-a-0	17-a-2	/home/spenteco/0/eebotcp/texts/A39/A39072.xml	PUNCTUATION DROPPED AFTER STRING
A39072	1	1	A39072-017-a-0600		No	17-a-49	No.	A39072-017-a-0580 A39072-017-a-0590	A39072-017-a-0610	17-a-48	17-a-50	/home/spenteco/0/eebotcp/texts/A39/A39072.xml	PUNCTUATION DROPPED AFTER STRING
A39072	1	1	A39072-017-a-0800		No	17-a-66	No.	A39072-017-a-0780 A39072-017-a-0790	A39072-017-a-0810	17-a-65	17-a-67	/home/spenteco/0/eebotcp/texts/A39/A39072.xml	PUNCTUATION DROPPED AFTER STRING
A39072	1	1	A39072-017-a-3110		No	17-a-258	No.	A39072-017-a-3090 A39072-017-a-3100	A39072-017-a-3120	17-a-257	17-a-259	/home/spenteco/0/eebotcp/texts/A39/A39072.xml	PUNCTUATION DROPPED AFTER STRING
A39072	1	1	A39072-017-a-3390		No	17-a-281	No.	A39072-017-a-3370 A39072-017-a-3380	A39072-017-a-3400	17-a-280	17-a-282	/home/spenteco/0/eebotcp/texts/A39/A39072.xml	PUNCTUATION DROPPED AFTER STRING
A39072	1	1	A39072-017-a-3430		No	17-a-284	No.	A39072-017-a-3410 A39072-017-a-3420	A39072-017-a-3440	17-a-283	17-a-285	/home/spenteco/0/eebotcp/texts/A39/A39072.xml	PUNCTUATION DROPPED AFTER STRING
A39072	1	1	A39072-018-b-1800		No	18-b-144	No.	A39072-018-b-1780 A39072-018-b-1790	A39072-018-b-1810	18-b-143	18-b-145	/home/spenteco/0/eebotcp/texts/A39/A39072.xml	PUNCTUATION DROPPED AFTER STRING
A39072	1	1	A39072-018-b-2000		No	18-b-161	No.	A39072-018-b-1980 A39072-018-b-1990	A39072-018-b-2010	18-b-160	18-b-162	/home/spenteco/0/eebotcp/texts/A39/A39072.xml	PUNCTUATION DROPPED AFTER STRING
A39072	1	1	A39072-019-a-0210		No	19-a-17	No.	A39072-019-a-0190 A39072-019-a-0200	A39072-019-a-0220	19-a-16	19-a-18	/home/spenteco/0/eebotcp/texts/A39/A39072.xml	PUNCTUATION DROPPED AFTER STRING
A39072	1	1	A39072-019-a-0760		No	19-a-64	No.	A39072-019-a-0740 A39072-019-a-0750	A39072-019-a-0770	19-a-63	19-a-65	/home/spenteco/0/eebotcp/texts/A39/A39072.xml	PUNCTUATION DROPPED AFTER STRING
A39072	1	1	A39072-019-a-3990		No	19-a-326	No.	A39072-019-a-3970 A39072-019-a-3980	A39072-019-a-4000	19-a-325	19-a-327	/home/spenteco/0/eebotcp/texts/A39/A39072.xml	PUNCTUATION DROPPED AFTER STRING
A39072	1	1	A39072-019-b-1930		No	19-b-157	No.	A39072-019-b-1910 A39072-019-b-1920	A39072-019-b-1940	19-b-156	19-b-158	/home/spenteco/0/eebotcp/texts/A39/A39072.xml	PUNCTUATION DROPPED AFTER STRING
A39072	1	1	A39072-020-a-1700		No	20-a-141	No.	A39072-020-a-1680 A39072-020-a-1690	A39072-020-a-1710 A39072-020-a-1720	20-a-140	20-a-142	/home/spenteco/0/eebotcp/texts/A39/A39072.xml	PUNCTUATION DROPPED AFTER STRING
A39072	1	1	A39072-020-a-1800		No	20-a-149	No.	A39072-020-a-1780 A39072-020-a-1790	A39072-020-a-1810	20-a-148	20-a-150	/home/spenteco/0/eebotcp/texts/A39/A39072.xml	PUNCTUATION DROPPED AFTER STRING
A39072	1	1	A39072-020-a-2080		No	20-a-173	No.	A39072-020-a-2060 A39072-020-a-2070	A39072-020-a-2090	20-a-172	20-a-174	/home/spenteco/0/eebotcp/texts/A39/A39072.xml	PUNCTUATION DROPPED AFTER STRING
A39072	1	1	A39072-020-a-2520		No	20-a-210	No.	A39072-020-a-2500 A39072-020-a-2510	A39072-020-a-2530	20-a-209	20-a-211	/home/spenteco/0/eebotcp/texts/A39/A39072.xml	PUNCTUATION DROPPED AFTER STRING
A39072	1	1	A39072-020-a-2590		No	20-a-216	No.	A39072-020-a-2570 A39072-020-a-2580	A39072-020-a-2600	20-a-215	20-a-217	/home/spenteco/0/eebotcp/texts/A39/A39072.xml	PUNCTUATION DROPPED AFTER STRING
A39072	1	1	A39072-020-b-0830		No	20-b-68	No.	A39072-020-b-0810 A39072-020-b-0820	A39072-020-b-0840	20-b-67	20-b-69	/home/spenteco/0/eebotcp/texts/A39/A39072.xml	PUNCTUATION DROPPED AFTER STRING
A39072	1	1	A39072-020-b-0940		No	20-b-78	No.	A39072-020-b-0920 A39072-020-b-0930	A39072-020-b-0950	20-b-77	20-b-79	/home/spenteco/0/eebotcp/texts/A39/A39072.xml	PUNCTUATION DROPPED AFTER STRING
A39072	1	1	A39072-021-b-3240		No	21-b-267	No.	A39072-021-b-3220 A39072-021-b-3230	A39072-021-b-3250	21-b-266	21-b-268	/home/spenteco/0/eebotcp/texts/A39/A39072.xml	PUNCTUATION DROPPED AFTER STRING
A39072	1	1	A39072-022-a-3270		No	22-a-271	No.	A39072-022-a-3250 A39072-022-a-3260	A39072-022-a-3280	22-a-270	22-a-272	/home/spenteco/0/eebotcp/texts/A39/A39072.xml	PUNCTUATION DROPPED AFTER STRING
A39072	1	1	A39072-022-a-3520		No	22-a-293	No.	A39072-022-a-3500 A39072-022-a-3510	A39072-022-a-3530	22-a-292	22-a-294	/home/spenteco/0/eebotcp/texts/A39/A39072.xml	PUNCTUATION DROPPED AFTER STRING
A39072	1	1	A39072-022-b-0110		No	22-b-8	No.	A39072-022-b-0090 A39072-022-b-0100	A39072-022-b-0120	22-b-7	22-b-9	/home/spenteco/0/eebotcp/texts/A39/A39072.xml	PUNCTUATION DROPPED AFTER STRING
A39072	1	1	A39072-022-b-3000		No	22-b-257	No.	A39072-022-b-2980 A39072-022-b-2990	A39072-022-b-3010	22-b-256	22-b-258	/home/spenteco/0/eebotcp/texts/A39/A39072.xml	PUNCTUATION DROPPED AFTER STRING
A39072	1	1	A39072-023-a-3160		No	23-a-268	No.	A39072-023-a-3140 A39072-023-a-3150	A39072-023-a-3170	23-a-267	23-a-269	/home/spenteco/0/eebotcp/texts/A39/A39072.xml	PUNCTUATION DROPPED AFTER STRING
A39072	1	1	A39072-023-a-3250		No	23-a-276	No.	A39072-023-a-3230 A39072-023-a-3240	A39072-023-a-3260	23-a-275	23-a-277	/home/spenteco/0/eebotcp/texts/A39/A39072.xml	PUNCTUATION DROPPED AFTER STRING
A39072	1	1	A39072-023-a-3390		No	23-a-289	No.	A39072-023-a-3370 A39072-023-a-3380	A39072-023-a-3400	23-a-288	23-a-290	/home/spenteco/0/eebotcp/texts/A39/A39072.xml	PUNCTUATION DROPPED AFTER STRING
A39072	1	1	A39072-023-a-3780		No	23-a-323	No.	A39072-023-a-3760 A39072-023-a-3770	A39072-023-a-3790	23-a-322	23-a-324	/home/spenteco/0/eebotcp/texts/A39/A39072.xml	PUNCTUATION DROPPED AFTER STRING
A39072	1	1	A39072-023-a-3880		No	23-a-332	No.	A39072-023-a-3860 A39072-023-a-3870	A39072-023-a-3890	23-a-331	23-a-333	/home/spenteco/0/eebotcp/texts/A39/A39072.xml	PUNCTUATION DROPPED AFTER STRING
A39072	1	1	A39072-024-b-3890		No	24-b-314	No.	A39072-024-b-3870 A39072-024-b-3880	A39072-024-b-3900	24-b-313	24-b-315	/home/spenteco/0/eebotcp/texts/A39/A39072.xml	PUNCTUATION DROPPED AFTER STRING
A39072	1	1	A39072-024-b-3970		No	24-b-321	No.	A39072-024-b-3950 A39072-024-b-3960	A39072-024-b-3980	24-b-320	24-b-322	/home/spenteco/0/eebotcp/texts/A39/A39072.xml	PUNCTUATION DROPPED AFTER STRING
A39072	1	1	A39072-025-a-1430		No	25-a-117	No.	A39072-025-a-1410 A39072-025-a-1420	A39072-025-a-1440	25-a-116	25-a-118	/home/spenteco/0/eebotcp/texts/A39/A39072.xml	PUNCTUATION DROPPED AFTER STRING
A39072	1	1	A39072-025-a-1500		No	25-a-123	No.	A39072-025-a-1480 A39072-025-a-1490	A39072-025-a-1510	25-a-122	25-a-124	/home/spenteco/0/eebotcp/texts/A39/A39072.xml	PUNCTUATION DROPPED AFTER STRING
A39072	1	1	A39072-025-a-1570		No	25-a-129	No.	A39072-025-a-1550 A39072-025-a-1560	A39072-025-a-1580	25-a-128	25-a-130	/home/spenteco/0/eebotcp/texts/A39/A39072.xml	PUNCTUATION DROPPED AFTER STRING
A39072	1	1	A39072-025-a-1660		No	25-a-137	No.	A39072-025-a-1640 A39072-025-a-1650	A39072-025-a-1670	25-a-136	25-a-138	/home/spenteco/0/eebotcp/texts/A39/A39072.xml	PUNCTUATION DROPPED AFTER STRING
A39072	1	1	A39072-025-b-1640		No	25-b-133	No.	A39072-025-b-1620 A39072-025-b-1630	A39072-025-b-1650	25-b-132	25-b-134	/home/spenteco/0/eebotcp/texts/A39/A39072.xml	PUNCTUATION DROPPED AFTER STRING
A39072	1	1	A39072-026-a-0090		No	26-a-7	No.	A39072-026-a-0070 A39072-026-a-0080	A39072-026-a-0100	26-a-6	26-a-8	/home/spenteco/0/eebotcp/texts/A39/A39072.xml	PUNCTUATION DROPPED AFTER STRING
A39072	1	1	A39072-026-a-0160		No	26-a-13	No.	A39072-026-a-0140 A39072-026-a-0150	A39072-026-a-0170	26-a-12	26-a-14	/home/spenteco/0/eebotcp/texts/A39/A39072.xml	PUNCTUATION DROPPED AFTER STRING
A39072	1	1	A39072-026-a-0220		No	26-a-18	No.	A39072-026-a-0200 A39072-026-a-0210	A39072-026-a-0230	26-a-17	26-a-19	/home/spenteco/0/eebotcp/texts/A39/A39072.xml	PUNCTUATION DROPPED AFTER STRING
A39072	1	1	A39072-026-a-0340		No	26-a-28	No.	A39072-026-a-0320 A39072-026-a-0330	A39072-026-a-0350	26-a-27	26-a-29	/home/spenteco/0/eebotcp/texts/A39/A39072.xml	PUNCTUATION DROPPED AFTER STRING
A39072	1	1	A39072-026-a-0630		No	26-a-52	No.	A39072-026-a-0610 A39072-026-a-0620	A39072-026-a-0640	26-a-51	26-a-53	/home/spenteco/0/eebotcp/texts/A39/A39072.xml	PUNCTUATION DROPPED AFTER STRING
A39072	1	1	A39072-026-a-0710		No	26-a-59	No.	A39072-026-a-0690 A39072-026-a-0700	A39072-026-a-0720	26-a-58	26-a-60	/home/spenteco/0/eebotcp/texts/A39/A39072.xml	PUNCTUATION DROPPED AFTER STRING
A39072	1	1	A39072-026-a-3490		No	26-a-279	No.	A39072-026-a-3470 A39072-026-a-3480	A39072-026-a-3500	26-a-278	26-a-280	/home/spenteco/0/eebotcp/texts/A39/A39072.xml	PUNCTUATION DROPPED AFTER STRING
A39072	1	1	A39072-026-b-1410		No	26-b-108	No.	A39072-026-b-1390 A39072-026-b-1400	A39072-026-b-1420	26-b-107	26-b-109	/home/spenteco/0/eebotcp/texts/A39/A39072.xml	PUNCTUATION DROPPED AFTER STRING
A39072	1	1	A39072-026-b-1470		No	26-b-113	No.	A39072-026-b-1450 A39072-026-b-1460	A39072-026-b-1480	26-b-112	26-b-114	/home/spenteco/0/eebotcp/texts/A39/A39072.xml	PUNCTUATION DROPPED AFTER STRING
A39072	1	1	A39072-027-a-0380		No	27-a-31	No.	A39072-027-a-0360 A39072-027-a-0370	A39072-027-a-0390	27-a-30	27-a-32	/home/spenteco/0/eebotcp/texts/A39/A39072.xml	PUNCTUATION DROPPED AFTER STRING
A39072	1	1	A39072-027-a-0490		No	27-a-40	No.	A39072-027-a-0470 A39072-027-a-0480	A39072-027-a-0500	27-a-39	27-a-41	/home/spenteco/0/eebotcp/texts/A39/A39072.xml	PUNCTUATION DROPPED AFTER STRING
A39072	1	1	A39072-027-a-2510		No	27-a-210	No.	A39072-027-a-2490 A39072-027-a-2500	A39072-027-a-2520	27-a-209	27-a-211	/home/spenteco/0/eebotcp/texts/A39/A39072.xml	PUNCTUATION DROPPED AFTER STRING
A39072	1	1	A39072-027-b-2280		No	27-b-188	No.	A39072-027-b-2260 A39072-027-b-2270	A39072-027-b-2290	27-b-187	27-b-189	/home/spenteco/0/eebotcp/texts/A39/A39072.xml	PUNCTUATION DROPPED AFTER STRING
A39072	1	1	A39072-028-a-0570		No	28-a-48	No.	A39072-028-a-0550 A39072-028-a-0560	A39072-028-a-0580	28-a-47	28-a-49	/home/spenteco/0/eebotcp/texts/A39/A39072.xml	PUNCTUATION DROPPED AFTER STRING
A39072	1	1	A39072-028-a-0620		No	28-a-52	No.	A39072-028-a-0600 A39072-028-a-0610	A39072-028-a-0630	28-a-51	28-a-53	/home/spenteco/0/eebotcp/texts/A39/A39072.xml	PUNCTUATION DROPPED AFTER STRING
A39072	1	1	A39072-028-a-3580		No	28-a-293	No.	A39072-028-a-3560 A39072-028-a-3570	A39072-028-a-3590	28-a-292	28-a-294	/home/spenteco/0/eebotcp/texts/A39/A39072.xml	PUNCTUATION DROPPED AFTER STRING
A39072	1	1	A39072-028-b-2680		No	28-b-217	No.	A39072-028-b-2660 A39072-028-b-2670	A39072-028-b-2690	28-b-216	28-b-218	/home/spenteco/0/eebotcp/texts/A39/A39072.xml	PUNCTUATION DROPPED AFTER STRING
A39072	1	1	A39072-029-a-1550		No	29-a-122	No.	A39072-029-a-1530 A39072-029-a-1540	A39072-029-a-1560	29-a-121	29-a-123	/home/spenteco/0/eebotcp/texts/A39/A39072.xml	PUNCTUATION DROPPED AFTER STRING
A39072	1	1	A39072-029-a-1880		No	29-a-148	No.	A39072-029-a-1860 A39072-029-a-1870	A39072-029-a-1890	29-a-147	29-a-149	/home/spenteco/0/eebotcp/texts/A39/A39072.xml	PUNCTUATION DROPPED AFTER STRING
A39072	1	1	A39072-029-a-4050		No	29-a-326	No.	A39072-029-a-4030 A39072-029-a-4040	A39072-029-a-4060	29-a-325	29-a-327	/home/spenteco/0/eebotcp/texts/A39/A39072.xml	PUNCTUATION DROPPED AFTER STRING
A39072	1	1	A39072-030-a-0700		No	30-a-56	No.	A39072-030-a-0680 A39072-030-a-0690	A39072-030-a-0710	30-a-55	30-a-57	/home/spenteco/0/eebotcp/texts/A39/A39072.xml	PUNCTUATION DROPPED AFTER STRING
A39072	1	1	A39072-030-a-1210		No	30-a-97	No.	A39072-030-a-1190 A39072-030-a-1200	A39072-030-a-1220	30-a-96	30-a-98	/home/spenteco/0/eebotcp/texts/A39/A39072.xml	PUNCTUATION DROPPED AFTER STRING
A39072	1	1	A39072-030-a-1300		No	30-a-105	No.	A39072-030-a-1280 A39072-030-a-1290	A39072-030-a-1310	30-a-104	30-a-106	/home/spenteco/0/eebotcp/texts/A39/A39072.xml	PUNCTUATION DROPPED AFTER STRING
A39072	1	1	A39072-030-a-1370		No	30-a-111	No.	A39072-030-a-1350 A39072-030-a-1360	A39072-030-a-1380	30-a-110	30-a-112	/home/spenteco/0/eebotcp/texts/A39/A39072.xml	PUNCTUATION DROPPED AFTER STRING
A39072	1	1	A39072-030-a-1610		No	30-a-131	No.	A39072-030-a-1590 A39072-030-a-1600	A39072-030-a-1620	30-a-130	30-a-132	/home/spenteco/0/eebotcp/texts/A39/A39072.xml	PUNCTUATION DROPPED AFTER STRING
A39072	1	1	A39072-030-a-1950		No	30-a-159	No.	A39072-030-a-1930 A39072-030-a-1940	A39072-030-a-1960	30-a-158	30-a-160	/home/spenteco/0/eebotcp/texts/A39/A39072.xml	PUNCTUATION DROPPED AFTER STRING
A39072	1	1	A39072-030-a-2200		No	30-a-179	No.	A39072-030-a-2180 A39072-030-a-2190	A39072-030-a-2210	30-a-178	30-a-180	/home/spenteco/0/eebotcp/texts/A39/A39072.xml	PUNCTUATION DROPPED AFTER STRING
A39072	1	1	A39072-030-b-0470		No	30-b-37	No.	A39072-030-b-0450 A39072-030-b-0460	A39072-030-b-0480	30-b-36	30-b-38	/home/spenteco/0/eebotcp/texts/A39/A39072.xml	PUNCTUATION DROPPED AFTER STRING
A39072	1	1	A39072-030-b-0530		No	30-b-42	No.	A39072-030-b-0510 A39072-030-b-0520	A39072-030-b-0540	30-b-41	30-b-43	/home/spenteco/0/eebotcp/texts/A39/A39072.xml	PUNCTUATION DROPPED AFTER STRING
A39072	1	1	A39072-030-b-0800		No	30-b-66	No.	A39072-030-b-0780 A39072-030-b-0790	A39072-030-b-0810	30-b-65	30-b-67	/home/spenteco/0/eebotcp/texts/A39/A39072.xml	PUNCTUATION DROPPED AFTER STRING
A39072	1	1	A39072-030-b-0990		No	30-b-82	No.	A39072-030-b-0970 A39072-030-b-0980	A39072-030-b-1000	30-b-81	30-b-83	/home/spenteco/0/eebotcp/texts/A39/A39072.xml	PUNCTUATION DROPPED AFTER STRING
A39072	1	1	A39072-031-a-0300		No	31-a-25	No.	A39072-031-a-0280 A39072-031-a-0290	A39072-031-a-0310	31-a-24	31-a-26	/home/spenteco/0/eebotcp/texts/A39/A39072.xml	PUNCTUATION DROPPED AFTER STRING
A39072	1	1	A39072-031-a-0370		No	31-a-31	No.	A39072-031-a-0350 A39072-031-a-0360	A39072-031-a-0380	31-a-30	31-a-32	/home/spenteco/0/eebotcp/texts/A39/A39072.xml	PUNCTUATION DROPPED AFTER STRING
A39072	1	1	A39072-031-a-0680		No	31-a-57	No.	A39072-031-a-0660 A39072-031-a-0670	A39072-031-a-0690	31-a-56	31-a-58	/home/spenteco/0/eebotcp/texts/A39/A39072.xml	PUNCTUATION DROPPED AFTER STRING
A39072	1	1	A39072-031-a-1040		No	31-a-87	No.	A39072-031-a-1020 A39072-031-a-1030	A39072-031-a-1050	31-a-86	31-a-88	/home/spenteco/0/eebotcp/texts/A39/A39072.xml	PUNCTUATION DROPPED AFTER STRING
A39072	1	1	A39072-031-a-1130		No	31-a-95	No.	A39072-031-a-1110 A39072-031-a-1120	A39072-031-a-1140	31-a-94	31-a-96	/home/spenteco/0/eebotcp/texts/A39/A39072.xml	PUNCTUATION DROPPED AFTER STRING
A39072	1	1	A39072-032-a-2410		No	32-a-193	No.	A39072-032-a-2390 A39072-032-a-2400	A39072-032-a-2420	32-a-192	32-a-194	/home/spenteco/0/eebotcp/texts/A39/A39072.xml	PUNCTUATION DROPPED AFTER STRING
A39072	1	1	A39072-032-a-2920		No	32-a-236	No.	A39072-032-a-2900 A39072-032-a-2910	A39072-032-a-2930	32-a-235	32-a-237	/home/spenteco/0/eebotcp/texts/A39/A39072.xml	PUNCTUATION DROPPED AFTER STRING
A39072	1	1	A39072-032-b-0780		No	32-b-66	No.	A39072-032-b-0760 A39072-032-b-0770	A39072-032-b-0790	32-b-65	32-b-67	/home/spenteco/0/eebotcp/texts/A39/A39072.xml	PUNCTUATION DROPPED AFTER STRING
A39072	1	1	A39072-032-b-0870		No	32-b-74	No.	A39072-032-b-0850 A39072-032-b-0860	A39072-032-b-0880	32-b-73	32-b-75	/home/spenteco/0/eebotcp/texts/A39/A39072.xml	PUNCTUATION DROPPED AFTER STRING
A39072	1	1	A39072-032-b-1160		No	32-b-99	No.	A39072-032-b-1140 A39072-032-b-1150	A39072-032-b-1170	32-b-98	32-b-100	/home/spenteco/0/eebotcp/texts/A39/A39072.xml	PUNCTUATION DROPPED AFTER STRING
A39072	1	1	A39072-032-b-2280		No	32-b-190	No.	A39072-032-b-2260 A39072-032-b-2270	A39072-032-b-2290	32-b-189	32-b-191	/home/spenteco/0/eebotcp/texts/A39/A39072.xml	PUNCTUATION DROPPED AFTER STRING
A39072	1	1	A39072-032-b-2480		No	32-b-207	No.	A39072-032-b-2460 A39072-032-b-2470	A39072-032-b-2490	32-b-206	32-b-208	/home/spenteco/0/eebotcp/texts/A39/A39072.xml	PUNCTUATION DROPPED AFTER STRING
A39072	1	1	A39072-033-a-0860		No	33-a-70	No.	A39072-033-a-0840 A39072-033-a-0850	A39072-033-a-0870	33-a-69	33-a-71	/home/spenteco/0/eebotcp/texts/A39/A39072.xml	PUNCTUATION DROPPED AFTER STRING
A39072	1	1	A39072-033-b-2390		No	33-b-202	No.	A39072-033-b-2370 A39072-033-b-2380	A39072-033-b-2400	33-b-201	33-b-203	/home/spenteco/0/eebotcp/texts/A39/A39072.xml	PUNCTUATION DROPPED AFTER STRING
A39072	1	1	A39072-033-b-2730		No	33-b-231	No.	A39072-033-b-2710 A39072-033-b-2720	A39072-033-b-2740	33-b-230	33-b-232	/home/spenteco/0/eebotcp/texts/A39/A39072.xml	PUNCTUATION DROPPED AFTER STRING
A39072	1	1	A39072-034-a-2810		No	34-a-231	No.	A39072-034-a-2790 A39072-034-a-2800	A39072-034-a-2820	34-a-230	34-a-232	/home/spenteco/0/eebotcp/texts/A39/A39072.xml	PUNCTUATION DROPPED AFTER STRING
A39072	1	1	A39072-034-a-2860		No	34-a-235	No.	A39072-034-a-2840 A39072-034-a-2850	A39072-034-a-2870	34-a-234	34-a-236	/home/spenteco/0/eebotcp/texts/A39/A39072.xml	PUNCTUATION DROPPED AFTER STRING
A39072	1	1	A39072-034-a-3490		No	34-a-287	No.	A39072-034-a-3470 A39072-034-a-3480	A39072-034-a-3500	34-a-286	34-a-288	/home/spenteco/0/eebotcp/texts/A39/A39072.xml	PUNCTUATION DROPPED AFTER STRING
A39072	1	1	A39072-034-a-3720		No	34-a-307	No.	A39072-034-a-3700 A39072-034-a-3710	A39072-034-a-3730	34-a-306	34-a-308	/home/spenteco/0/eebotcp/texts/A39/A39072.xml	PUNCTUATION DROPPED AFTER STRING
A39072	1	1	A39072-034-b-4030		No	34-b-318	No.	A39072-034-b-4010 A39072-034-b-4020	A39072-034-b-4040	34-b-317	34-b-319	/home/spenteco/0/eebotcp/texts/A39/A39072.xml	PUNCTUATION DROPPED AFTER STRING
A39072	1	1	A39072-034-b-4120		No	34-b-326	No.	A39072-034-b-4100 A39072-034-b-4110	A39072-034-b-4130	34-b-325	34-b-327	/home/spenteco/0/eebotcp/texts/A39/A39072.xml	PUNCTUATION DROPPED AFTER STRING
A39072	1	1	A39072-034-b-4210		No	34-b-334	No.	A39072-034-b-4190 A39072-034-b-4200	A39072-034-b-4220	34-b-333	34-b-335	/home/spenteco/0/eebotcp/texts/A39/A39072.xml	PUNCTUATION DROPPED AFTER STRING
A39072	1	1	A39072-034-b-4350		No	34-b-345	No.	A39072-034-b-4330 A39072-034-b-4340	A39072-034-b-4360	34-b-344	34-b-346	/home/spenteco/0/eebotcp/texts/A39/A39072.xml	PUNCTUATION DROPPED AFTER STRING
A39072	1	1	A39072-035-a-0030		No	35-a-1	No.	A39072-035-a-0010 A39072-035-a-0020	A39072-035-a-0040	35-a-0	35-a-2	/home/spenteco/0/eebotcp/texts/A39/A39072.xml	PUNCTUATION DROPPED AFTER STRING
A39072	1	1	A39072-035-a-0120		No	35-a-9	No.	A39072-035-a-0100 A39072-035-a-0110	A39072-035-a-0130	35-a-8	35-a-10	/home/spenteco/0/eebotcp/texts/A39/A39072.xml	PUNCTUATION DROPPED AFTER STRING
A39072	1	1	A39072-035-a-2940		No	35-a-240	No.	A39072-035-a-2920 A39072-035-a-2930	A39072-035-a-2950	35-a-239	35-a-241	/home/spenteco/0/eebotcp/texts/A39/A39072.xml	PUNCTUATION DROPPED AFTER STRING
A39072	1	1	A39072-035-a-3540		No	35-a-291	No.	A39072-035-a-3520 A39072-035-a-3530	A39072-035-a-3550	35-a-290	35-a-292	/home/spenteco/0/eebotcp/texts/A39/A39072.xml	PUNCTUATION DROPPED AFTER STRING
A39072	1	1	A39072-035-a-4000		No	35-a-328	No.	A39072-035-a-3980 A39072-035-a-3990	A39072-035-b-0010	35-a-327	35-b-0	/home/spenteco/0/eebotcp/texts/A39/A39072.xml	PUNCTUATION DROPPED AFTER STRING
A39072	1	1	A39072-035-b-0060		No	35-b-4	No.	A39072-035-b-0040 A39072-035-b-0050	A39072-035-b-0070	35-b-3	35-b-5	/home/spenteco/0/eebotcp/texts/A39/A39072.xml	PUNCTUATION DROPPED AFTER STRING
A39072	1	1	A39072-035-b-0390		No	35-b-32	No.	A39072-035-b-0370 A39072-035-b-0380	A39072-035-b-0400	35-b-31	35-b-33	/home/spenteco/0/eebotcp/texts/A39/A39072.xml	PUNCTUATION DROPPED AFTER STRING
A39072	1	1	A39072-035-b-0490		No	35-b-41	No.	A39072-035-b-0470 A39072-035-b-0480	A39072-035-b-0500	35-b-40	35-b-42	/home/spenteco/0/eebotcp/texts/A39/A39072.xml	PUNCTUATION DROPPED AFTER STRING
A39072	1	1	A39072-036-a-2450		No	36-a-193	No.	A39072-036-a-2430 A39072-036-a-2440	A39072-036-a-2460	36-a-192	36-a-194	/home/spenteco/0/eebotcp/texts/A39/A39072.xml	PUNCTUATION DROPPED AFTER STRING
A39072	1	1	A39072-036-a-2490		No	36-a-196	No.	A39072-036-a-2470 A39072-036-a-2480	A39072-036-a-2500	36-a-195	36-a-197	/home/spenteco/0/eebotcp/texts/A39/A39072.xml	PUNCTUATION DROPPED AFTER STRING
A39072	1	1	A39072-036-a-2590		No	36-a-205	No.	A39072-036-a-2570 A39072-036-a-2580	A39072-036-a-2600	36-a-204	36-a-206	/home/spenteco/0/eebotcp/texts/A39/A39072.xml	PUNCTUATION DROPPED AFTER STRING
A39072	1	1	A39072-037-b-0540		No	37-b-42	No.	A39072-037-b-0520 A39072-037-b-0530	A39072-037-b-0550 A39072-037-b-0560	37-b-41	37-b-43	/home/spenteco/0/eebotcp/texts/A39/A39072.xml	PUNCTUATION DROPPED AFTER STRING
A39072	1	1	A39072-037-b-0610		No	37-b-47	No.	A39072-037-b-0590 A39072-037-b-0600	A39072-037-b-0620 A39072-037-b-0630	37-b-46	37-b-48	/home/spenteco/0/eebotcp/texts/A39/A39072.xml	PUNCTUATION DROPPED AFTER STRING
A39072	1	1	A39072-037-b-0710		No	37-b-55	No.	A39072-037-b-0690 A39072-037-b-0700	A39072-037-b-0720	37-b-54	37-b-56	/home/spenteco/0/eebotcp/texts/A39/A39072.xml	PUNCTUATION DROPPED AFTER STRING
A39072	1	1	A39072-037-b-1250		No	37-b-100	No.	A39072-037-b-1230 A39072-037-b-1240	A39072-037-b-1260	37-b-99	37-b-101	/home/spenteco/0/eebotcp/texts/A39/A39072.xml	PUNCTUATION DROPPED AFTER STRING
A39072	1	1	A39072-037-b-3710		No	37-b-306	No.	A39072-037-b-3690 A39072-037-b-3700	A39072-037-b-3720	37-b-305	37-b-307	/home/spenteco/0/eebotcp/texts/A39/A39072.xml	PUNCTUATION DROPPED AFTER STRING
A39072	1	1	A39072-037-b-3820		No	37-b-316	No.	A39072-037-b-3800 A39072-037-b-3810	A39072-037-b-3830	37-b-315	37-b-317	/home/spenteco/0/eebotcp/texts/A39/A39072.xml	PUNCTUATION DROPPED AFTER STRING
A39072	1	1	A39072-037-b-3880		No	37-b-321	No.	A39072-037-b-3860 A39072-037-b-3870	A39072-037-b-3890	37-b-320	37-b-322	/home/spenteco/0/eebotcp/texts/A39/A39072.xml	PUNCTUATION DROPPED AFTER STRING
A39072	1	1	A39072-037-b-4050		No	37-b-337	No.	A39072-037-b-4030 A39072-037-b-4040	A39072-037-b-4060	37-b-336	37-b-338	/home/spenteco/0/eebotcp/texts/A39/A39072.xml	PUNCTUATION DROPPED AFTER STRING
A39072	1	1	A39072-038-a-2530		No	38-a-209	No.	A39072-038-a-2500 A39072-038-a-2520	A39072-038-a-2540	38-a-208	38-a-210	/home/spenteco/0/eebotcp/texts/A39/A39072.xml	PUNCTUATION DROPPED AFTER STRING
A39072	1	1	A39072-038-a-3150		No	38-a-262	No.	A39072-038-a-3130 A39072-038-a-3140	A39072-038-a-3160	38-a-261	38-a-263	/home/spenteco/0/eebotcp/texts/A39/A39072.xml	PUNCTUATION DROPPED AFTER STRING
A39072	1	1	A39072-038-a-3200		No	38-a-266	No.	A39072-038-a-3180 A39072-038-a-3190	A39072-038-a-3210	38-a-265	38-a-267	/home/spenteco/0/eebotcp/texts/A39/A39072.xml	PUNCTUATION DROPPED AFTER STRING
A39072	1	1	A39072-038-a-3420		No	38-a-285	No.	A39072-038-a-3390 A39072-038-a-3410	A39072-038-a-3430	38-a-284	38-a-286	/home/spenteco/0/eebotcp/texts/A39/A39072.xml	PUNCTUATION DROPPED AFTER STRING
A39072	1	1	A39072-038-b-1780		No	38-b-148	No.	A39072-038-b-1760 A39072-038-b-1770	A39072-038-b-1790	38-b-147	38-b-149	/home/spenteco/0/eebotcp/texts/A39/A39072.xml	PUNCTUATION DROPPED AFTER STRING
A39072	1	1	A39072-038-b-1930		No	38-b-162	No.	A39072-038-b-1910 A39072-038-b-1920	A39072-038-b-1940	38-b-161	38-b-163	/home/spenteco/0/eebotcp/texts/A39/A39072.xml	PUNCTUATION DROPPED AFTER STRING
A39072	1	1	A39072-038-b-2010		No	38-b-169	No.	A39072-038-b-1990 A39072-038-b-2000	A39072-038-b-2020	38-b-168	38-b-170	/home/spenteco/0/eebotcp/texts/A39/A39072.xml	PUNCTUATION DROPPED AFTER STRING
A39072	1	1	A39072-039-a-1490		No	39-a-112	No.	A39072-039-a-1460 A39072-039-a-1480	A39072-039-a-1500	39-a-111	39-a-113	/home/spenteco/0/eebotcp/texts/A39/A39072.xml	PUNCTUATION DROPPED AFTER STRING
A39072	1	1	A39072-039-a-1560		No	39-a-118	No.	A39072-039-a-1540 A39072-039-a-1550	A39072-039-a-1570	39-a-117	39-a-119	/home/spenteco/0/eebotcp/texts/A39/A39072.xml	PUNCTUATION DROPPED AFTER STRING
A39072	1	1	A39072-039-a-2120		No	39-a-164	No.	A39072-039-a-2100 A39072-039-a-2110	A39072-039-a-2130	39-a-163	39-a-165	/home/spenteco/0/eebotcp/texts/A39/A39072.xml	PUNCTUATION DROPPED AFTER STRING
A39072	1	1	A39072-039-a-2210		No	39-a-172	No.	A39072-039-a-2190 A39072-039-a-2200	A39072-039-a-2220	39-a-171	39-a-173	/home/spenteco/0/eebotcp/texts/A39/A39072.xml	PUNCTUATION DROPPED AFTER STRING
A84036	1	1	A84036-021-a-1410		No	21-a-126	No.	A84036-021-a-1390	A84036-021-a-1420 A84036-021-a-1430	21-a-125	21-a-127	/home/spenteco/0/eebotcp/texts/A84/A84036.xml	PUNCTUATION DROPPED AFTER STRING
A46772	1	1	A46772-004-a-3910		instit	4-a-322	instit.	A46772-004-a-3900	A46772-004-a-3930	4-a-321	4-a-323	/home/spenteco/0/eebotcp/texts/A46/A46772.xml	PUNCTUATION DROPPED AFTER STRING
A41519	1	1	A41519-136-a-0960		No	136-a-79	No.	A41519-136-a-0930 A41519-136-a-0940 A41519-136-a-0950	A41519-136-a-0970	136-a-78	136-a-80	/home/spenteco/0/eebotcp/texts/A41/A41519.xml	PUNCTUATION DROPPED AFTER STRING
A91103	1	1	A91103-006-b-0570		No	6-b-51	No.	A91103-006-b-0550 A91103-006-b-0560	A91103-006-b-0580	6-b-50	6-b-52	/home/spenteco/0/eebotcp/texts/A91/A91103.xml	PUNCTUATION DROPPED AFTER STRING
A70832	1	1	A70832-224-b-3980		No	224-b-335	No.	A70832-224-b-3960 A70832-224-b-3970	A70832-224-b-3990	224-b-334	224-b-336	/home/spenteco/0/eebotcp/texts/A70/A70832.xml	PUNCTUATION DROPPED AFTER STRING
A52628	1	1	A52628-003-b-2920		Out	3-b-248	Out:	A52628-003-b-2910	A52628-003-b-2940	3-b-247	3-b-249	/home/spenteco/0/eebotcp/texts/A52/A52628.xml	PUNCTUATION DROPPED AFTER STRING
B14292	1	1	B14292-015-a-2630	Sʳ	Sr	15-a-186	Sʳ.	B14292-015-a-2620	B14292-015-a-2680 B14292-015-a-2690	15-a-185	15-a-187	/home/spenteco/0/eebotcp/texts/B14/B14292.xml	PUNCTUATION DROPPED AFTER STRING
B14292	1	1	B14292-026-b-1980		No	26-b-141	No.	B14292-026-b-1960 B14292-026-b-1970	B14292-026-b-1990	26-b-140	26-b-142	/home/spenteco/0/eebotcp/texts/B14/B14292.xml	PUNCTUATION DROPPED AFTER STRING
A21279	1	1	A21279-058-a-1670		No	58-a-149	No.	A21279-058-a-1650 A21279-058-a-1660	A21279-058-a-1680	58-a-148	58-a-150	/home/spenteco/0/eebotcp/texts/A21/A21279.xml	PUNCTUATION DROPPED AFTER STRING
A21279	1	1	A21279-177-a-0620		No	177-a-52	No.	A21279-177-a-0600 A21279-177-a-0610	A21279-177-a-0630	177-a-51	177-a-53	/home/spenteco/0/eebotcp/texts/A21/A21279.xml	PUNCTUATION DROPPED AFTER STRING
A21279	1	1	A21279-202-a-0520		No	202-a-44	No.	A21279-202-a-0500 A21279-202-a-0510	A21279-202-a-0530	202-a-43	202-a-45	/home/spenteco/0/eebotcp/texts/A21/A21279.xml	PUNCTUATION DROPPED AFTER STRING
B03547	1	1	B03547-005-a-4450		man	5-a-391	man;	B03547-005-a-4440	B03547-005-a-4470 B03547-005-a-4480	5-a-390	5-a-392	/home/spenteco/0/eebotcp/texts/B03/B03547.xml	PUNCTUATION DROPPED AFTER STRING
B18071	1	1	B18071-014-a-0460	Nᵒ	No.	14-a-30	Nᵒ.	B18071-014-a-0450	B18071-014-a-0510 B18071-014-a-0520	14-a-29	14-a-31	/home/spenteco/0/eebotcp/texts/B18/B18071.xml	PUNCTUATION DROPPED AFTER STRING
A59780	1	1	A59780-076-a-1550		God	76-a-140	God;	A59780-076-a-1540	A59780-076-a-1570	76-a-139	76-a-141	/home/spenteco/0/eebotcp/texts/A59/A59780.xml	PUNCTUATION DROPPED AFTER STRING
B11412	1	1	B11412-087-a-1260		No	87-a-105	No.	B11412-087-a-1240 B11412-087-a-1250	B11412-087-a-1270	87-a-104	87-a-106	/home/spenteco/0/eebotcp/texts/B11/B11412.xml	PUNCTUATION DROPPED AFTER STRING
B11412	1	1	B11412-104-b-0430		No	104-b-33	No.	B11412-104-b-0410 B11412-104-b-0420	B11412-104-b-0440	104-b-32	104-b-34	/home/spenteco/0/eebotcp/texts/B11/B11412.xml	PUNCTUATION DROPPED AFTER STRING
B11412	1	1	B11412-169-a-0770		No	169-a-63	No.	B11412-169-a-0750 B11412-169-a-0760	B11412-169-a-0780	169-a-62	169-a-64	/home/spenteco/0/eebotcp/texts/B11/B11412.xml	PUNCTUATION DROPPED AFTER STRING
A46756	1	1	A46756-016-a-2320		Tom	16-a-204	Tom.	A46756-016-a-2300 A46756-016-a-2310	A46756-016-a-2340	16-a-203	16-a-205	/home/spenteco/0/eebotcp/texts/A46/A46756.xml	PUNCTUATION DROPPED AFTER STRING
A46756	1	1	A46756-016-a-2350		lib	16-a-206	lib.	A46756-016-a-2340	A46756-016-a-2370	16-a-205	16-a-207	/home/spenteco/0/eebotcp/texts/A46/A46756.xml	PUNCTUATION DROPPED AFTER STRING
A46756	1	1	A46756-020-b-3360		Franc	20-b-281	Franc.	A46756-020-b-3340 A46756-020-b-3350	A46756-020-b-3380 A46756-020-b-3390	20-b-280	20-b-282	/home/spenteco/0/eebotcp/texts/A46/A46756.xml	PUNCTUATION DROPPED AFTER STRING
A46603	1	1	A46603-001-a-7910		Vnalterable	1-a-682	Vnalterable;	A46603-001-a-7900	A46603-001-a-7930	1-a-681	1-a-683	/home/spenteco/0/eebotcp/texts/A46/A46603.xml	PUNCTUATION DROPPED AFTER STRING
A56245	1	1	A56245-027-a-0520		Herrings	27-a-43	Herrings,	A56245-027-a-0510	A56245-027-a-0540	27-a-42	27-a-44	/home/spenteco/0/eebotcp/texts/A56/A56245.xml	PUNCTUATION DROPPED AFTER STRING
A36852	1	1	A36852-017-a-1780		No	17-a-162	No.	A36852-017-a-1770	A36852-017-a-1790	17-a-161	17-a-163	/home/spenteco/0/eebotcp/texts/A36/A36852.xml	PUNCTUATION DROPPED AFTER STRING
B17505	1	1	B17505-088-a-1800		No	88-a-151	No.	B17505-088-a-1780 B17505-088-a-1790	B17505-088-a-1810	88-a-150	88-a-152	/home/spenteco/0/eebotcp/texts/B17/B17505.xml	PUNCTUATION DROPPED AFTER STRING
B18776	1	1	B18776-011-b-4920		No	11-b-351	No.	B18776-011-b-4910	B18776-011-b-4930 B18776-011-b-4940	11-b-350	11-b-352	/home/spenteco/0/eebotcp/texts/B18/B18776.xml	PUNCTUATION DROPPED AFTER STRING
B18776	1	1	B18776-014-b-0880		No	14-b-63	No.	B18776-014-b-0870	B18776-014-b-0890 B18776-014-b-0900	14-b-62	14-b-64	/home/spenteco/0/eebotcp/texts/B18/B18776.xml	PUNCTUATION DROPPED AFTER STRING
A29651	1	1	A29651-016-b-0120		lament	16-b-8	lament;	A29651-016-b-0100 A29651-016-b-0110	A29651-016-b-0140	16-b-7	16-b-9	/home/spenteco/0/eebotcp/texts/A29/A29651.xml	PUNCTUATION DROPPED AFTER STRING
A02636	1	1	A02636-030-a-1730		No	30-a-150	No.	A02636-030-a-1710 A02636-030-a-1720	A02636-030-a-1740	30-a-149	30-a-151	/home/spenteco/0/eebotcp/texts/A02/A02636.xml	PUNCTUATION DROPPED AFTER STRING
A02636	1	1	A02636-030-a-1820		No	30-a-158	No.	A02636-030-a-1800 A02636-030-a-1810	A02636-030-a-1830	30-a-157	30-a-159	/home/spenteco/0/eebotcp/texts/A02/A02636.xml	PUNCTUATION DROPPED AFTER STRING
A02636	1	1	A02636-030-a-1910		No	30-a-166	No.	A02636-030-a-1890 A02636-030-a-1900	A02636-030-a-1920	30-a-165	30-a-167	/home/spenteco/0/eebotcp/texts/A02/A02636.xml	PUNCTUATION DROPPED AFTER STRING
A02636	1	1	A02636-030-a-2050		No	30-a-178	No.	A02636-030-a-2030 A02636-030-a-2040	A02636-030-a-2060	30-a-177	30-a-179	/home/spenteco/0/eebotcp/texts/A02/A02636.xml	PUNCTUATION DROPPED AFTER STRING
B16152	1	1	B16152-059-b-1330		Roma	59-b-114	Roma.	B16152-059-b-1300 B16152-059-b-1310	B16152-059-b-1360	59-b-113	59-b-115	/home/spenteco/0/eebotcp/texts/B16/B16152.xml	PUNCTUATION DROPPED AFTER STRING
A21847	1	1	A21847-003-a-6740		i.d	3-a-504	i.d.	A21847-003-a-6720 A21847-003-a-6730	A21847-003-a-6780	3-a-503	3-a-505	/home/spenteco/0/eebotcp/texts/A21/A21847.xml	PUNCTUATION DROPPED AFTER STRING
A21847	1	1	A21847-003-a-6880		i.d	3-a-514	i.d.	A21847-003-a-6860 A21847-003-a-6870	A21847-003-a-6920	3-a-513	3-a-515	/home/spenteco/0/eebotcp/texts/A21/A21847.xml	PUNCTUATION DROPPED AFTER STRING
A50128	1	1	A50128-004-a-1450		Man	4-a-115	Man;	A50128-004-a-1440	A50128-004-a-1470 A50128-004-a-1480	4-a-114	4-a-116	/home/spenteco/0/eebotcp/texts/A50/A50128.xml	PUNCTUATION DROPPED AFTER STRING
A50128	1	1	A50128-008-b-2510		Buried	8-b-200	Buried,	A50128-008-b-2500	A50128-008-b-2530	8-b-199	8-b-201	/home/spenteco/0/eebotcp/texts/A50/A50128.xml	PUNCTUATION DROPPED AFTER STRING
A50128	1	1	A50128-012-a-1620		Bishop	12-a-130	Bishop,	A50128-012-a-1610	A50128-012-a-1640	12-a-129	12-a-131	/home/spenteco/0/eebotcp/texts/A50/A50128.xml	PUNCTUATION DROPPED AFTER STRING
A03927	1	1	A03927-048-a-2200		No	48-a-186	No.	A03927-048-a-2180 A03927-048-a-2190	A03927-048-a-2210	48-a-185	48-a-187	/home/spenteco/0/eebotcp/texts/A03/A03927.xml	PUNCTUATION DROPPED AFTER STRING
B25935	1	1	B25935-003-a-2740		No	3-a-235	No.	B25935-003-a-2720 B25935-003-a-2730	B25935-003-a-2750	3-a-234	3-a-236	/home/spenteco/0/eebotcp/texts/B25/B25935.xml	PUNCTUATION DROPPED AFTER STRING
B14968	1	1	B14968-005-a-0290		Butter	5-a-19	Butter,	B14968-005-a-0270 B14968-005-a-0280	B14968-005-a-0320 B14968-005-a-0330	5-a-18	5-a-20	/home/spenteco/0/eebotcp/texts/B14/B14968.xml	PUNCTUATION DROPPED AFTER STRING
A56000	1	1	A56000-003-a-1420		Sweden	3-a-125	Sweden;	A56000-003-a-1410	A56000-003-a-1440 A56000-003-a-1450	3-a-124	3-a-126	/home/spenteco/0/eebotcp/texts/A56/A56000.xml	PUNCTUATION DROPPED AFTER STRING
A56000	1	1	A56000-003-b-5640		Elbing	3-b-489	Elbing;	A56000-003-b-5630	A56000-003-b-5660	3-b-488	3-b-490	/home/spenteco/0/eebotcp/texts/A56/A56000.xml	PUNCTUATION DROPPED AFTER STRING
B08146	1	1	B08146-002-b-0050	Sʳ	Sr.	2-b-4	Sʳ.	B08146-002-b-0040	B08146-002-b-0100	2-b-3	2-b-5	/home/spenteco/0/eebotcp/texts/B08/B08146.xml	PUNCTUATION DROPPED AFTER STRING
A87127	1	1	A87127-013-b-1750		No	13-b-142	No.	A87127-013-b-1730 A87127-013-b-1740	A87127-013-b-1760	13-b-141	13-b-143	/home/spenteco/0/eebotcp/texts/A87/A87127.xml	PUNCTUATION DROPPED AFTER STRING
A57323	1	1	A57323-009-b-4220		King	9-b-354	King;	A57323-009-b-4210	A57323-009-b-4240 A57323-009-b-4250	9-b-353	9-b-355	/home/spenteco/0/eebotcp/texts/A57/A57323.xml	PUNCTUATION DROPPED AFTER STRING
A57323	1	1	A57323-014-a-6870		destroy	14-a-568	destroy;	A57323-014-a-6860	A57323-014-a-6890	14-a-567	14-a-569	/home/spenteco/0/eebotcp/texts/A57/A57323.xml	PUNCTUATION DROPPED AFTER STRING
A57323	1	1	A57323-014-b-3640		Land	14-b-325	Land;	A57323-014-b-3630	A57323-014-b-3660	14-b-324	14-b-326	/home/spenteco/0/eebotcp/texts/A57/A57323.xml	PUNCTUATION DROPPED AFTER STRING
A57323	1	1	A57323-014-b-3810		Commands	14-b-340	Commands;	A57323-014-b-3800	A57323-014-b-3830	14-b-339	14-b-341	/home/spenteco/0/eebotcp/texts/A57/A57323.xml	PUNCTUATION DROPPED AFTER STRING
A57323	1	1	A57323-014-b-4110		Iudges	14-b-366	Iudges;	A57323-014-b-4100	A57323-014-b-4130	14-b-365	14-b-367	/home/spenteco/0/eebotcp/texts/A57/A57323.xml	PUNCTUATION DROPPED AFTER STRING
A57323	1	1	A57323-015-b-1810		Information	15-b-151	Information;	A57323-015-b-1800	A57323-015-b-1830	15-b-150	15-b-152	/home/spenteco/0/eebotcp/texts/A57/A57323.xml	PUNCTUATION DROPPED AFTER STRING
B15392	1	1	B15392-021-a-0420	1ᵃ	1a	21-a-33	1ᵃ.	B15392-021-a-0400 B15392-021-a-0410	B15392-021-a-0440	21-a-32	21-a-34	/home/spenteco/0/eebotcp/texts/B15/B15392.xml	PUNCTUATION DROPPED AFTER STRING
B15392	1	1	B15392-046-a-5070	22ᵃ	22a	46-a-388	22ᵃ.	B15392-046-a-5050 B15392-046-a-5060	B15392-046-a-5090	46-a-387	46-a-389	/home/spenteco/0/eebotcp/texts/B15/B15392.xml	PUNCTUATION DROPPED AFTER STRING
B09388	1	1	B09388-004-a-6410		Unlikely	4-a-553	Unlikely;	B09388-004-a-6400	B09388-004-a-6430	4-a-552	4-a-554	/home/spenteco/0/eebotcp/texts/B09/B09388.xml	PUNCTUATION DROPPED AFTER STRING
B09388	1	1	B09388-010-a-6530		Immaginations	10-a-561	Immaginations;	B09388-010-a-6520	B09388-010-a-6550	10-a-560	10-a-562	/home/spenteco/0/eebotcp/texts/B09/B09388.xml	PUNCTUATION DROPPED AFTER STRING
B09388	1	1	B09388-010-a-6700		Follys	10-a-576	Follys;	B09388-010-a-6690	B09388-010-a-6720	10-a-575	10-a-577	/home/spenteco/0/eebotcp/texts/B09/B09388.xml	PUNCTUATION DROPPED AFTER STRING
B09388	1	1	B09388-010-a-7280		Resolutions	10-a-624	Resolutions;	B09388-010-a-7270	B09388-010-a-7300	10-a-623	10-a-625	/home/spenteco/0/eebotcp/texts/B09/B09388.xml	PUNCTUATION DROPPED AFTER STRING
B09388	1	1	B09388-010-a-7330		Peace	10-a-628	Peace;	B09388-010-a-7320	B09388-010-a-7350	10-a-627	10-a-629	/home/spenteco/0/eebotcp/texts/B09/B09388.xml	PUNCTUATION DROPPED AFTER STRING
A50155	1	1	A50155-002-b-0150		Lecture	2-b-14	Lecture.	A50155-002-b-0140	A50155-002-b-0170	2-b-13	2-b-15	/home/spenteco/0/eebotcp/texts/A50/A50155.xml	PUNCTUATION DROPPED AFTER STRING
A88931	1	1	A88931-031-a-0950		Man	31-a-79	Man;	A88931-031-a-0940	A88931-031-a-0970	31-a-78	31-a-80	/home/spenteco/0/eebotcp/texts/A88/A88931.xml	PUNCTUATION DROPPED AFTER STRING
A70783	1	1	A70783-009-b-2770		catalogue	9-b-220	catalogue;	A70783-009-b-2760	A70783-009-b-2790	9-b-219	9-b-221	/home/spenteco/0/eebotcp/texts/A70/A70783.xml	PUNCTUATION DROPPED AFTER STRING
A70783	1	1	A70783-009-b-3710		blood	9-b-301	blood;	A70783-009-b-3700	A70783-009-b-3730	9-b-300	9-b-302	/home/spenteco/0/eebotcp/texts/A70/A70783.xml	PUNCTUATION DROPPED AFTER STRING
A70783	1	1	A70783-009-b-4120		sighs	9-b-336	sighs;	A70783-009-b-4110	A70783-009-b-4140	9-b-335	9-b-337	/home/spenteco/0/eebotcp/texts/A70/A70783.xml	PUNCTUATION DROPPED AFTER STRING
A70783	1	1	A70783-010-a-2390		labour	10-a-200	labour;	A70783-010-a-2380	A70783-010-a-2410	10-a-199	10-a-201	/home/spenteco/0/eebotcp/texts/A70/A70783.xml	PUNCTUATION DROPPED AFTER STRING
A70783	1	1	A70783-011-a-2800		perish	11-a-233	perish;	A70783-011-a-2790	A70783-011-a-2820	11-a-232	11-a-234	/home/spenteco/0/eebotcp/texts/A70/A70783.xml	PUNCTUATION DROPPED AFTER STRING
A70783	1	1	A70783-016-a-2460		thoughts	16-a-208	thoughts;	A70783-016-a-2450	A70783-016-a-2480	16-a-207	16-a-209	/home/spenteco/0/eebotcp/texts/A70/A70783.xml	PUNCTUATION DROPPED AFTER STRING
A70783	1	1	A70783-018-b-0010		sport	18-b-0	sport;	A70783-018-a-6520	A70783-018-b-0030	18-a-547	18-b-1	/home/spenteco/0/eebotcp/texts/A70/A70783.xml	PUNCTUATION DROPPED AFTER STRING
A70783	1	1	A70783-019-a-5320		jure	19-a-434	jure;	A70783-019-a-5310	A70783-019-a-5340	19-a-433	19-a-435	/home/spenteco/0/eebotcp/texts/A70/A70783.xml	PUNCTUATION DROPPED AFTER STRING
A70783	1	1	A70783-020-b-2700		God	20-b-219	God;	A70783-020-b-2690	A70783-020-b-2720	20-b-218	20-b-220	/home/spenteco/0/eebotcp/texts/A70/A70783.xml	PUNCTUATION DROPPED AFTER STRING
B23948	1	1	B23948-029-a-2210		No	29-a-202	No.	B23948-029-a-2200	B23948-029-a-2220 B23948-029-a-2230	29-a-201	29-a-203	/home/spenteco/0/eebotcp/texts/B23/B23948.xml	PUNCTUATION DROPPED AFTER STRING
A55394	1	1	A55394-003-b-3480		thus	3-b-315	thus;	A55394-003-b-3470	A55394-003-b-3500	3-b-314	3-b-316	/home/spenteco/0/eebotcp/texts/A55/A55394.xml	PUNCTUATION DROPPED AFTER STRING
B15931	1	1	B15931-006-a-3130	Sʳ	Sr.	6-a-271	Sʳ.	B15931-006-a-3110 B15931-006-a-3120	B15931-006-a-3180	6-a-270	6-a-272	/home/spenteco/0/eebotcp/texts/B15/B15931.xml	PUNCTUATION DROPPED AFTER STRING
A96537	1	1	A96537-009-b-2370		John	9-b-203	John.	A96537-009-b-2350 A96537-009-b-2360	A96537-009-b-2390 A96537-009-b-2400	9-b-202	9-b-204	/home/spenteco/0/eebotcp/texts/A96/A96537.xml	PUNCTUATION DROPPED AFTER STRING
A51357	1	1	A51357-214-a-14090		Ld	214-a-1200	Ld.	A51357-214-a-14080	A51357-214-a-14110	214-a-1199	214-a-1201	/home/spenteco/0/eebotcp/texts/A51/A51357.xml	PUNCTUATION DROPPED AFTER STRING
A51357	1	1	A51357-214-a-14810		Ld	214-a-1259	Ld.	A51357-214-a-14800	A51357-214-a-14830	214-a-1258	214-a-1260	/home/spenteco/0/eebotcp/texts/A51/A51357.xml	PUNCTUATION DROPPED AFTER STRING
A51357	1	1	A51357-219-b-05730		Ld	219-b-482	Ld.	A51357-219-b-05720	A51357-219-b-05750	219-b-481	219-b-483	/home/spenteco/0/eebotcp/texts/A51/A51357.xml	PUNCTUATION DROPPED AFTER STRING
A57019	1	1	A57019-009-a-4800		No	9-a-417	No.	A57019-009-a-4790	A57019-009-a-4810	9-a-416	9-a-418	/home/spenteco/0/eebotcp/texts/A57/A57019.xml	PUNCTUATION DROPPED AFTER STRING
A58475	1	1	A58475-003-b-0450		Conventicles	3-b-38	Conventicles;	A58475-003-b-0440	A58475-003-b-0470	3-b-37	3-b-39	/home/spenteco/0/eebotcp/texts/A58/A58475.xml	PUNCTUATION DROPPED AFTER STRING
A54438	1	1	A54438-009-b-0370		Body	9-b-24	Body;	A54438-009-b-0360	A54438-009-b-0390	9-b-23	9-b-25	/home/spenteco/0/eebotcp/texts/A54/A54438.xml	PUNCTUATION DROPPED AFTER STRING
A54438	1	1	A54438-012-a-3270		Sin	12-a-284	Sin;	A54438-012-a-3260	A54438-012-a-3290	12-a-283	12-a-285	/home/spenteco/0/eebotcp/texts/A54/A54438.xml	PUNCTUATION DROPPED AFTER STRING
A54438	1	1	A54438-012-a-3470		Sin	12-a-301	Sin;	A54438-012-a-3460	A54438-012-a-3490	12-a-300	12-a-302	/home/spenteco/0/eebotcp/texts/A54/A54438.xml	PUNCTUATION DROPPED AFTER STRING
A54438	1	1	A54438-012-b-1380		Way	12-b-114	Way,	A54438-012-b-1370	A54438-012-b-1400	12-b-113	12-b-115	/home/spenteco/0/eebotcp/texts/A54/A54438.xml	PUNCTUATION DROPPED AFTER STRING
A59404	1	1	A59404-076-a-3250		No	76-a-287	No.	A59404-076-a-3240	A59404-076-a-3260	76-a-286	76-a-288	/home/spenteco/0/eebotcp/texts/A59/A59404.xml	PUNCTUATION DROPPED AFTER STRING
A52853	1	1	A52853-007-b-2810		Non-Conformity	7-b-257	Non-Conformity,	A52853-007-b-2800	A52853-007-b-2830	7-b-256	7-b-258	/home/spenteco/0/eebotcp/texts/A52/A52853.xml	PUNCTUATION DROPPED AFTER STRING
A52853	1	1	A52853-014-a-0520		before	14-a-45	before;	A52853-014-a-0510	A52853-014-a-0540	14-a-44	14-a-46	/home/spenteco/0/eebotcp/texts/A52/A52853.xml	PUNCTUATION DROPPED AFTER STRING
A92772	1	1	A92772-004-a-4620		Sea-Gull	4-a-398	Sea-Gull;	A92772-004-a-4610	A92772-004-a-4640	4-a-397	4-a-399	/home/spenteco/0/eebotcp/texts/A92/A92772.xml	PUNCTUATION DROPPED AFTER STRING
A21024	1	1	A21024-124-b-3110		No	124-b-262	No.	A21024-124-b-3090 A21024-124-b-3100	A21024-124-b-3120	124-b-261	124-b-263	/home/spenteco/0/eebotcp/texts/A21/A21024.xml	PUNCTUATION DROPPED AFTER STRING
A73904	1	1	A73904-047-a-1150		bonus	47-a-99	bonus;	A73904-047-a-1140	A73904-047-a-1170	47-a-98	47-a-100	/home/spenteco/0/eebotcp/texts/A73/A73904.xml	PUNCTUATION DROPPED AFTER STRING
A28336	1	1	A28336-031-b-0410		No	31-b-32	No.	A28336-031-b-0390 A28336-031-b-0400	A28336-031-b-0420	31-b-31	31-b-33	/home/spenteco/0/eebotcp/texts/A28/A28336.xml	PUNCTUATION DROPPED AFTER STRING
B14291	1	1	B14291-025-b-0200		No	25-b-14	No.	B14291-025-b-0180 B14291-025-b-0190	B14291-025-b-0210	25-b-13	25-b-15	/home/spenteco/0/eebotcp/texts/B14/B14291.xml	PUNCTUATION DROPPED AFTER STRING
B03944	1	1	B03944-006-a-0990		Son	6-a-78	Son,	B03944-006-a-0970 B03944-006-a-0980	B03944-006-a-1010	6-a-77	6-a-79	/home/spenteco/0/eebotcp/texts/B03/B03944.xml	PUNCTUATION DROPPED AFTER STRING
A50113	1	1	A50113-065-b-1220		No	65-b-106	No.	A50113-065-b-1200 A50113-065-b-1210	A50113-065-b-1230	65-b-105	65-b-107	/home/spenteco/0/eebotcp/texts/A50/A50113.xml	PUNCTUATION DROPPED AFTER STRING
A37295	1	1	A37295-035-a-1010		No	35-a-88	No.	A37295-035-a-0990 A37295-035-a-1000	A37295-035-a-1020	35-a-87	35-a-89	/home/spenteco/0/eebotcp/texts/A37/A37295.xml	PUNCTUATION DROPPED AFTER STRING
A37295	1	1	A37295-035-a-1230		No	35-a-107	No.	A37295-035-a-1210 A37295-035-a-1220	A37295-035-a-1240	35-a-106	35-a-108	/home/spenteco/0/eebotcp/texts/A37/A37295.xml	PUNCTUATION DROPPED AFTER STRING
A37295	1	1	A37295-035-a-1610		No	35-a-138	No.	A37295-035-a-1590 A37295-035-a-1600	A37295-035-a-1620	35-a-137	35-a-139	/home/spenteco/0/eebotcp/texts/A37/A37295.xml	PUNCTUATION DROPPED AFTER STRING
B03802	1	1	B03802-002-b-03550		King's-Bench-Office	2-b-301	King's-Bench-Office,	B03802-002-b-03530	B03802-002-b-03580	2-b-300	2-b-302	/home/spenteco/0/eebotcp/texts/B03/B03802.xml	PUNCTUATION DROPPED AFTER STRING
